Start Time:  20/09/14 10:09:29 PM         Time Completed:  20/09/14 10:21:26 PM     Elapsed Time:  00:11:57
Sample ID:     2020-09-14_BM5B-66MG-F7_1100ox_after_press

Experiment:    C:\IDEASVSM\Inducat\Experiments\hys_c_550(1)_03s_master06\hys_c_550(1)_03s_master06.exp
Data File:     C:\IDEASVSM\Inducat\2020-09-14_BM5B-66MG-F7_1100ox_after_press (ProfileData)\2020-09-14_BM5B-66MG-F7_1100ox_after_press#16.txt
Plot File:     C:\IDEASVSM\Inducat\2020-09-14_BM5B-66MG-F7_1100ox_after_press (ProfileData)\2020-09-14_BM5B-66MG-F7_1100ox_after_press#16.oc2
VSM Exp File:  C:\IDEASVSM\Inducat\Experiments\hys_c_550(1)_03s_master06\hys_c_550(1)_03s_master06.stp
VSM Data File: C:\IDEASVSM\Inducat\2020-09-14_BM5B-66MG-F7_1100ox_after_press (ProfileData)\2020-09-14_BM5B-66MG-F7_1100ox_after_press#16.dat

***DATA***

Field(Oe)	 Moment(emu)	 Temperature(C)	
 549.94069 	 0.27652329 	 500.181 	
 549.20833 	 0.27666469 	 500.181 	
 548.17535 	 0.2761733 	 500.18 	
 547.19173 	 0.2757624 	 500.185 	
 546.20197 	 0.27532162 	 500.185 	
 545.12897 	 0.27484379 	 500.179 	
 544.22087 	 0.27442284 	 500.18 	
 543.15706 	 0.27394089 	 500.179 	
 542.19503 	 0.2735672 	 500.18 	
 541.19287 	 0.27308184 	 500.179 	
 540.21236 	 0.27260503 	 500.184 	
 539.19794 	 0.27224583 	 500.182 	
 538.20504 	 0.27174371 	 500.182 	
 537.16591 	 0.27132646 	 500.182 	
 536.21 	 0.27092248 	 500.182 	
 535.16321 	 0.27047611 	 500.183 	
 534.2536 	 0.27005743 	 500.183 	
 533.21141 	 0.2695471 	 500.182 	
 532.20005 	 0.26917203 	 500.178 	
 531.16239 	 0.26872675 	 500.178 	
 530.20504 	 0.26822949 	 500.174 	
 529.21055 	 0.26783911 	 500.176 	
 528.23006 	 0.26737701 	 500.17 	
 527.19246 	 0.26700116 	 500.17 	
 526.19647 	 0.26650123 	 500.17 	
 525.16972 	 0.26607013 	 500.17 	
 524.24626 	 0.26563906 	 500.171 	
 523.20709 	 0.26516886 	 500.171 	
 522.20805 	 0.26474454 	 500.17 	
 521.18437 	 0.26432607 	 500.17 	
 520.26243 	 0.26386198 	 500.171 	
 519.20785 	 0.26341142 	 500.171 	
 518.22732 	 0.26294768 	 500.163 	
 517.22211 	 0.26257281 	 500.165 	
 516.23234 	 0.26209114 	 500.163 	
 515.22251 	 0.26161856 	 500.167 	
 514.22961 	 0.2611656 	 500.163 	
 513.21051 	 0.26074432 	 500.163 	
 512.17454 	 0.26031261 	 500.166 	
 511.2572 	 0.25989279 	 500.166 	
 510.18728 	 0.25937296 	 500.165 	
 509.24219 	 0.25896553 	 500.164 	
 508.2416 	 0.25851195 	 500.16 	
 507.22559 	 0.25812107 	 500.165 	
 506.22642 	 0.25762087 	 500.165 	
 505.20376 	 0.25718866 	 500.156 	
 504.29828 	 0.25674669 	 500.161 	
 503.23079 	 0.25628981 	 500.159 	
 502.24361 	 0.25583669 	 500.164 	
 501.24091 	 0.25539031 	 500.161 	
 500.23055 	 0.25497327 	 500.161 	
 499.26951 	 0.2545089 	 500.157 	
 498.17277 	 0.25404039 	 500.162 	
 497.25187 	 0.25361436 	 500.164 	
 496.29698 	 0.25318521 	 500.164 	
 495.22955 	 0.25269328 	 500.163 	
 494.2145 	 0.25224876 	 500.163 	
 493.27356 	 0.25179208 	 500.164 	
 492.25085 	 0.25138398 	 500.163 	
 491.24508 	 0.25089515 	 500.163 	
 490.21008 	 0.25043644 	 500.16 	
 489.2382 	 0.2500275 	 500.161 	
 488.27104 	 0.249541 	 500.161 	
 487.23598 	 0.2490975 	 500.166 	
 486.27653 	 0.24863628 	 500.166 	
 485.19828 	 0.24818373 	 500.167 	
 484.29586 	 0.24776104 	 500.167 	
 483.25464 	 0.24728161 	 500.165 	
 482.2288 	 0.24687483 	 500.165 	
 481.3033 	 0.24641482 	 500.165 	
 480.23275 	 0.24596454 	 500.166 	
 479.26554 	 0.24553198 	 500.166 	
 478.25057 	 0.24501667 	 500.166 	
 477.28493 	 0.24458867 	 500.164 	
 476.27915 	 0.24414793 	 500.164 	
 475.24257 	 0.24370228 	 500.162 	
 474.31854 	 0.24324464 	 500.162 	
 473.2357 	 0.2427716 	 500.162 	
 472.26546 	 0.24233506 	 500.161 	
 471.25197 	 0.24185786 	 500.161 	
 470.22308 	 0.24141031 	 500.161 	
 469.29293 	 0.24094669 	 500.161 	
 468.2856 	 0.24053365 	 500.161 	
 467.26133 	 0.24008274 	 500.161 	
 466.28027 	 0.23959612 	 500.161 	
 465.23907 	 0.23915761 	 500.164 	
 464.32587 	 0.23869472 	 500.16 	
 463.28001 	 0.23826883 	 500.16 	
 462.24341 	 0.23777015 	 500.162 	
 461.30546 	 0.23731437 	 500.161 	
 460.24272 	 0.23688401 	 500.164 	
 459.29399 	 0.23641324 	 500.164 	
 458.27594 	 0.23592443 	 500.163 	
 457.27325 	 0.23552315 	 500.161 	
 456.33695 	 0.23505231 	 500.161 	
 455.25716 	 0.2345962 	 500.162 	
 454.33466 	 0.23415336 	 500.162 	
 453.21633 	 0.23364885 	 500.162 	
 452.30003 	 0.23321448 	 500.165 	
 451.3359 	 0.23273999 	 500.165 	
 450.27002 	 0.23229982 	 500.162 	
 449.27509 	 0.23183883 	 500.162 	
 448.27087 	 0.2313552 	 500.163 	
 447.30678 	 0.23095928 	 500.163 	
 446.26554 	 0.23047516 	 500.163 	
 445.23511 	 0.2299996 	 500.164 	
 444.32345 	 0.22952351 	 500.164 	
 443.29303 	 0.22908938 	 500.163 	
 442.30424 	 0.22866725 	 500.167 	
 441.34015 	 0.22812572 	 500.167 	
 440.30353 	 0.22768687 	 500.168 	
 439.34408 	 0.22725005 	 500.168 	
 438.29203 	 0.22676611 	 500.166 	
 437.34491 	 0.2263366 	 500.162 	
 436.31447 	 0.22588134 	 500.162 	
 435.27787 	 0.22538044 	 500.165 	
 434.35699 	 0.22493193 	 500.165 	
 433.31885 	 0.22446538 	 500.163 	
 432.2313 	 0.22404578 	 500.165 	
 431.31352 	 0.22353261 	 500.165 	
 430.29848 	 0.2230994 	 500.163 	
 429.38064 	 0.22268487 	 500.163 	
 428.29936 	 0.22218828 	 500.162 	
 427.32753 	 0.22173503 	 500.16 	
 426.33722 	 0.22127029 	 500.166 	
 425.36997 	 0.22079509 	 500.162 	
 424.25934 	 0.22031946 	 500.159 	
 423.31685 	 0.219815 	 500.165 	
 422.3327 	 0.21941559 	 500.162 	
 421.3748 	 0.2189226 	 500.167 	
 420.29342 	 0.218464 	 500.163 	
 419.34941 	 0.21797613 	 500.163 	
 418.33285 	 0.2175512 	 500.164 	
 417.33632 	 0.21708863 	 500.164 	
 416.35063 	 0.21662437 	 500.164 	
 415.29553 	 0.21613865 	 500.161 	
 414.33608 	 0.2156759 	 500.163 	
 413.33645 	 0.21520535 	 500.162 	
 412.31681 	 0.21476959 	 500.165 	
 411.32808 	 0.21427819 	 500.165 	
 410.36088 	 0.21381733 	 500.166 	
 409.32733 	 0.21335 	 500.166 	
 408.36324 	 0.21288563 	 500.17 	
 407.35441 	 0.21242906 	 500.17 	
 406.34711 	 0.21195343 	 500.171 	
 405.40308 	 0.21153873 	 500.168 	
 404.35415 	 0.21104254 	 500.168 	
 403.3545 	 0.21055497 	 500.172 	
 402.37805 	 0.21013569 	 500.17 	
 401.32759 	 0.20961539 	 500.17 	
 400.31566 	 0.20914881 	 500.172 	
 399.38858 	 0.20867414 	 500.172 	
 398.34271 	 0.20821345 	 500.172 	
 397.31229 	 0.20775582 	 500.168 	
 396.42531 	 0.20728434 	 500.168 	
 395.35323 	 0.20683882 	 500.17 	
 394.34592 	 0.20632093 	 500.17 	
 393.33709 	 0.20587303 	 500.17 	
 392.37143 	 0.20541348 	 500.17 	
 391.3734 	 0.20496004 	 500.173 	
 390.34606 	 0.2044494 	 500.173 	
 389.40819 	 0.20400391 	 500.175 	
 388.30527 	 0.20348918 	 500.178 	
 387.37357 	 0.2030742 	 500.178 	
 386.37553 	 0.20258504 	 500.178 	
 385.38366 	 0.20212517 	 500.178 	
 384.42417 	 0.20166949 	 500.178 	
 383.3274 	 0.20115058 	 500.177 	
 382.37101 	 0.20068648 	 500.183 	
 381.40536 	 0.20022033 	 500.183 	
 380.32095 	 0.19976195 	 500.18 	
 379.36918 	 0.19928348 	 500.18 	
 378.32333 	 0.19879482 	 500.18 	
 377.41478 	 0.19834241 	 500.181 	
 376.39204 	 0.19786105 	 500.181 	
 375.32151 	 0.19740662 	 500.18 	
 374.41293 	 0.19691209 	 500.18 	
 373.37171 	 0.19646043 	 500.179 	
 372.40606 	 0.19598806 	 500.181 	
 371.39415 	 0.19551175 	 500.183 	
 370.39765 	 0.19503545 	 500.177 	
 369.39036 	 0.19453287 	 500.177 	
 368.35531 	 0.19408549 	 500.178 	
 367.44828 	 0.19364959 	 500.176 	
 366.387 	 0.19315611 	 500.176 	
 365.36273 	 0.19267961 	 500.179 	
 364.41871 	 0.19220675 	 500.179 	
 363.36973 	 0.19171767 	 500.178 	
 362.42107 	 0.19128765 	 500.179 	
 361.41533 	 0.19078511 	 500.174 	
 360.39877 	 0.1903028 	 500.175 	
 359.40383 	 0.18983963 	 500.174 	
 358.41967 	 0.18934749 	 500.178 	
 357.44633 	 0.18891918 	 500.177 	
 356.40972 	 0.18841696 	 500.177 	
 355.34846 	 0.18790316 	 500.174 	
 354.42909 	 0.18743558 	 500.174 	
 353.42177 	 0.18697205 	 500.174 	
 352.41604 	 0.1865364 	 500.174 	
 351.37479 	 0.18597992 	 500.174 	
 350.41995 	 0.1855606 	 500.173 	
 349.46354 	 0.18508895 	 500.169 	
 348.36837 	 0.18457961 	 500.171 	
 347.43046 	 0.18413637 	 500.174 	
 346.44323 	 0.18366361 	 500.174 	
 345.37885 	 0.18316748 	 500.169 	
 344.42557 	 0.18267286 	 500.169 	
 343.39667 	 0.18220994 	 500.167 	
 342.42486 	 0.18173959 	 500.172 	
 341.39906 	 0.18123868 	 500.169 	
 340.45192 	 0.18078357 	 500.174 	
 339.43844 	 0.18032065 	 500.168 	
 338.41574 	 0.17980598 	 500.172 	
 337.46397 	 0.17933288 	 500.171 	
 336.4721 	 0.17884627 	 500.171 	
 335.41698 	 0.17835242 	 500.168 	
 334.40508 	 0.17790143 	 500.168 	
 333.47802 	 0.17739487 	 500.173 	
 332.40591 	 0.1769693 	 500.169 	
 331.43874 	 0.17648575 	 500.169 	
 330.39285 	 0.17599305 	 500.166 	
 329.46888 	 0.17550721 	 500.169 	
 328.40604 	 0.17500062 	 500.17 	
 327.44347 	 0.17453404 	 500.172 	
 326.50099 	 0.17408142 	 500.172 	
 325.39342 	 0.17359954 	 500.171 	
 324.49564 	 0.17309923 	 500.171 	
 323.42664 	 0.17261812 	 500.172 	
 322.39931 	 0.17212683 	 500.168 	
 321.4383 	 0.17164715 	 500.168 	
 320.43871 	 0.17113913 	 500.167 	
 319.52859 	 0.17068928 	 500.167 	
 318.4087 	 0.1702092 	 500.171 	
 317.45231 	 0.16972839 	 500.17 	
 316.44501 	 0.16922204 	 500.17 	
 315.45159 	 0.16871807 	 500.171 	
 314.52913 	 0.16827667 	 500.171 	
 313.43086 	 0.16776652 	 500.169 	
 312.46522 	 0.16728084 	 500.166 	
 311.45638 	 0.16681642 	 500.166 	
 310.46603 	 0.16630738 	 500.171 	
 309.48036 	 0.16584929 	 500.171 	
 308.49159 	 0.16533265 	 500.174 	
 307.47193 	 0.16488208 	 500.171 	
 306.50319 	 0.16438155 	 500.172 	
 305.42807 	 0.16388788 	 500.171 	
 304.51022 	 0.16341129 	 500.173 	
 303.43968 	 0.16292092 	 500.173 	
 302.47867 	 0.1624291 	 500.172 	
 301.49754 	 0.16196951 	 500.172 	
 300.46946 	 0.16146878 	 500.173 	
 299.49382 	 0.16099133 	 500.173 	
 298.49497 	 0.16049958 	 500.174 	
 297.48378 	 0.16002781 	 500.173 	
 296.47262 	 0.15952047 	 500.173 	
 295.49538 	 0.15902127 	 500.175 	
 294.50271 	 0.15857301 	 500.173 	
 293.49152 	 0.15804091 	 500.177 	
 292.46183 	 0.15756337 	 500.178 	
 291.52476 	 0.15711308 	 500.178 	
 290.46265 	 0.15658525 	 500.176 	
 289.541 	 0.15611321 	 500.179 	
 288.44798 	 0.15560917 	 500.179 	
 287.48464 	 0.15514689 	 500.179 	
 286.46726 	 0.15467114 	 500.179 	
 285.52094 	 0.15416228 	 500.177 	
 284.46806 	 0.1536827 	 500.177 	
 283.53101 	 0.15318764 	 500.176 	
 282.49355 	 0.15266922 	 500.175 	
 281.50863 	 0.15220482 	 500.176 	
 280.50979 	 0.15170322 	 500.173 	
 279.52177 	 0.15126086 	 500.175 	
 278.54917 	 0.15075288 	 500.177 	
 277.47471 	 0.15021276 	 500.175 	
 276.53762 	 0.14977104 	 500.176 	
 275.49554 	 0.14926665 	 500.176 	
 274.54456 	 0.1487918 	 500.175 	
 273.48863 	 0.14829198 	 500.175 	
 272.54073 	 0.14778407 	 500.174 	
 271.52952 	 0.14731862 	 500.177 	
 270.52913 	 0.14683568 	 500.177 	
 269.50409 	 0.14634943 	 500.177 	
 268.52688 	 0.1458335 	 500.177 	
 267.48944 	 0.14533716 	 500.173 	
 266.50604 	 0.1448835 	 500.175 	
 265.53192 	 0.14438373 	 500.175 	
 264.46824 	 0.14391292 	 500.173 	
 263.56822 	 0.14338034 	 500.173 	
 262.54006 	 0.14291422 	 500.177 	
 261.52885 	 0.14243695 	 500.174 	
 260.53158 	 0.14192219 	 500.177 	
 259.52039 	 0.14141293 	 500.173 	
 258.51693 	 0.14093982 	 500.173 	
 257.53507 	 0.14044163 	 500.172 	
 256.58256 	 0.13997055 	 500.173 	
 255.52814 	 0.13943093 	 500.17 	
 254.5293 	 0.13895323 	 500.174 	
 253.53664 	 0.13847579 	 500.17 	
 252.5332 	 0.13796252 	 500.171 	
 251.55286 	 0.13747453 	 500.175 	
 250.53245 	 0.13696211 	 500.175 	
 249.55674 	 0.13648808 	 500.175 	
 248.50234 	 0.13600335 	 500.175 	
 247.56525 	 0.13551653 	 500.177 	
 246.5587 	 0.13499396 	 500.172 	
 245.53518 	 0.13452301 	 500.172 	
 244.55485 	 0.13402483 	 500.171 	
 243.50663 	 0.13351664 	 500.171 	
 242.57572 	 0.13302105 	 500.175 	
 241.51976 	 0.13253867 	 500.177 	
 240.58268 	 0.13205196 	 500.177 	
 239.52981 	 0.13157156 	 500.176 	
 238.55566 	 0.13106334 	 500.176 	
 237.55994 	 0.13057357 	 500.177 	
 236.59505 	 0.13007823 	 500.177 	
 235.48816 	 0.12952764 	 500.178 	
 234.56344 	 0.12906397 	 500.176 	
 233.56152 	 0.12858103 	 500.176 	
 232.56421 	 0.1280675 	 500.179 	
 231.58852 	 0.12757234 	 500.179 	
 230.59279 	 0.12706606 	 500.178 	
 229.57391 	 0.12661049 	 500.177 	
 228.56734 	 0.12604421 	 500.177 	
 227.54996 	 0.12557141 	 500.176 	
 226.62057 	 0.12509997 	 500.178 	
 225.54456 	 0.12457928 	 500.177 	
 224.58433 	 0.12409978 	 500.177 	
 223.57159 	 0.12357794 	 500.177 	
 222.59591 	 0.12307522 	 500.177 	
 221.594 	 0.12259028 	 500.177 	
 220.5504 	 0.12209487 	 500.18 	
 219.54846 	 0.12161803 	 500.177 	
 218.58977 	 0.12112266 	 500.177 	
 217.58323 	 0.12056025 	 500.173 	
 216.52882 	 0.12011135 	 500.175 	
 215.58557 	 0.11958699 	 500.175 	
 214.56821 	 0.11910113 	 500.18 	
 213.57708 	 0.11858949 	 500.18 	
 212.59061 	 0.11811386 	 500.179 	
 211.60102 	 0.1176279 	 500.179 	
 210.55899 	 0.11708682 	 500.178 	
 209.59255 	 0.11660728 	 500.178 	
 208.57829 	 0.11607089 	 500.178 	
 207.59026 	 0.11558212 	 500.178 	
 206.57754 	 0.11508923 	 500.175 	
 205.60649 	 0.11458587 	 500.175 	
 204.58297 	 0.11408772 	 500.174 	
 203.5903 	 0.11359583 	 500.174 	
 202.58373 	 0.11306959 	 500.174 	
 201.6266 	 0.11260675 	 500.174 	
 200.57835 	 0.11209496 	 500.176 	
 199.58261 	 0.11156167 	 500.177 	
 198.61619 	 0.1110598 	 500.174 	
 197.62044 	 0.11055689 	 500.172 	
 196.54905 	 0.1100846 	 500.173 	
 195.56412 	 0.10954395 	 500.173 	
 194.58845 	 0.10906101 	 500.169 	
 193.66988 	 0.10856758 	 500.169 	
 192.58459 	 0.10804938 	 500.175 	
 191.58885 	 0.10753493 	 500.172 	
 190.61008 	 0.10704797 	 500.172 	
 189.62824 	 0.10653122 	 500.176 	
 188.62631 	 0.10604912 	 500.173 	
 187.63366 	 0.10550027 	 500.172 	
 186.59469 	 0.10499609 	 500.17 	
 185.69465 	 0.10451261 	 500.17 	
 184.5785 	 0.10400527 	 500.173 	
 183.63986 	 0.10351511 	 500.173 	
 182.61325 	 0.10299602 	 500.172 	
 181.63137 	 0.10251648 	 500.176 	
 180.60941 	 0.10198581 	 500.176 	
 179.60902 	 0.10148198 	 500.179 	
 178.67041 	 0.1010029 	 500.179 	
 177.58357 	 0.10043946 	 500.177 	
 176.62641 	 0.0999645 	 500.175 	
 175.63994 	 0.099457692 	 500.175 	
 174.56545 	 0.098943176 	 500.179 	
 173.65461 	 0.098461187 	 500.179 	
 172.628 	 0.0979395 	 500.177 	
 171.62608 	 0.097400983 	 500.177 	
 170.63651 	 0.096924707 	 500.177 	
 169.60834 	 0.096421378 	 500.177 	
 168.67126 	 0.095900152 	 500.177 	
 167.62457 	 0.095370972 	 500.177 	
 166.63498 	 0.094875029 	 500.17 	
 165.63308 	 0.094359593 	 500.173 	
 164.66357 	 0.093889178 	 500.175 	
 163.65239 	 0.093362768 	 500.175 	
 162.62886 	 0.092816475 	 500.175 	
 161.63466 	 0.092340202 	 500.173 	
 160.67441 	 0.091824478 	 500.173 	
 159.61691 	 0.09131458 	 500.171 	
 158.63198 	 0.090807061 	 500.169 	
 157.66248 	 0.090312041 	 500.169 	
 156.69606 	 0.089794614 	 500.168 	
 155.65401 	 0.089281556 	 500.168 	
 154.64746 	 0.088755891 	 500.165 	
 153.65017 	 0.088294639 	 500.164 	
 152.628 	 0.087756476 	 500.164 	
 151.6304 	 0.087220194 	 500.165 	
 150.69455 	 0.086748006 	 500.164 	
 149.63053 	 0.086229337 	 500.166 	
 148.63291 	 0.085681445 	 500.163 	
 147.68626 	 0.085151978 	 500.163 	
 146.6346 	 0.084684192 	 500.164 	
 145.68639 	 0.08419855 	 500.164 	
 144.65635 	 0.08367622 	 500.167 	
 143.65565 	 0.083174382 	 500.164 	
 142.6565 	 0.082639769 	 500.164 	
 141.63263 	 0.082143897 	 500.165 	
 140.6767 	 0.081635312 	 500.162 	
 139.66828 	 0.081112454 	 500.159 	
 138.68458 	 0.080601455 	 500.162 	
 137.60512 	 0.080057219 	 500.162 	
 136.7017 	 0.079559143 	 500.159 	
 135.69327 	 0.079062704 	 500.159 	
 134.69875 	 0.078524506 	 500.16 	
 133.63474 	 0.077993763 	 500.16 	
 132.68188 	 0.077485889 	 500.158 	
 131.66423 	 0.076994668 	 500.157 	
 130.7052 	 0.076460089 	 500.157 	
 129.65817 	 0.075930058 	 500.154 	
 128.69761 	 0.075451903 	 500.157 	
 127.71082 	 0.074948325 	 500.158 	
 126.61744 	 0.074414353 	 500.157 	
 125.72484 	 0.073895151 	 500.157 	
 124.63611 	 0.073354504 	 500.154 	
 123.66475 	 0.072853125 	 500.156 	
 122.67487 	 0.072339852 	 500.154 	
 121.6757 	 0.071846753 	 500.155 	
 120.6889 	 0.071294632 	 500.155 	
 119.62179 	 0.070766767 	 500.151 	
 118.70911 	 0.070269084 	 500.151 	
 117.64046 	 0.069774452 	 500.149 	
 116.71388 	 0.069259335 	 500.15 	
 115.71009 	 0.068734273 	 500.151 	
 114.73256 	 0.068224056 	 500.146 	
 113.65618 	 0.067683762 	 500.146 	
 112.65858 	 0.067139738 	 500.149 	
 111.732 	 0.066643581 	 500.149 	
 110.63092 	 0.066123137 	 500.149 	
 109.63176 	 0.065581673 	 500.153 	
 108.699 	 0.065111971 	 500.153 	
 107.66896 	 0.064586876 	 500.151 	
 106.68988 	 0.064060359 	 500.151 	
 105.68145 	 0.063533166 	 500.151 	
 104.76105 	 0.063024189 	 500.151 	
 103.71711 	 0.062506762 	 500.151 	
 102.71177 	 0.061983442 	 500.152 	
 101.62304 	 0.061433775 	 500.154 	
 100.82156 	 0.060954663 	 500.154 	
 99.587911 	 0.060419234 	 500.152 	
 98.782023 	 0.059903155 	 500.152 	
 97.695165 	 0.05935292 	 500.156 	
 96.725627 	 0.058856871 	 500.154 	
 95.844091 	 0.058355139 	 500.154 	
 94.718633 	 0.057765915 	 500.155 	
 93.708954 	 0.05718876 	 500.155 	
 92.476974 	 0.056671052 	 500.156 	
 91.757538 	 0.056303115 	 500.157 	
 90.794184 	 0.055814345 	 500.157 	
 89.904933 	 0.055276964 	 500.155 	
 88.557154 	 0.05464996 	 500.155 	
 87.816111 	 0.054102922 	 500.154 	
 86.564051 	 0.053606055 	 500.151 	
 85.776693 	 0.053116324 	 500.151 	
 84.813334 	 0.052580506 	 500.152 	
 83.695597 	 0.052064392 	 500.152 	
 82.641154 	 0.051481277 	 500.155 	
 81.633016 	 0.051000103 	 500.154 	
 80.834849 	 0.050489282 	 500.154 	
 79.751073 	 0.049945791 	 500.155 	
 78.607086 	 0.04940351 	 500.155 	
 77.972565 	 0.04886034 	 500.152 	
 76.617071 	 0.048355199 	 500.156 	
 75.525576 	 0.047858758 	 500.156 	
 74.571477 	 0.047306072 	 500.154 	
 74.015691 	 0.046772064 	 500.151 	
 72.635496 	 0.04621927 	 500.152 	
 71.837331 	 0.045739164 	 500.151 	
 70.784429 	 0.045238177 	 500.151 	
 69.657417 	 0.044676472 	 500.156 	
 68.697154 	 0.044134794 	 500.156 	
 67.832596 	 0.043633097 	 500.152 	
 66.642296 	 0.043114571 	 500.158 	
 65.732971 	 0.042585035 	 500.158 	
 64.789683 	 0.042052767 	 500.153 	
 63.880357 	 0.041528203 	 500.152 	
 62.450759 	 0.04093905 	 500.152 	
 62.083328 	 0.040489516 	 500.148 	
 60.57036 	 0.039806408 	 500.148 	
 59.719707 	 0.039344551 	 500.151 	
 58.916907 	 0.038877654 	 500.151 	
 57.728146 	 0.038251856 	 500.153 	
 56.594964 	 0.037675628 	 500.154 	
 55.619256 	 0.037232556 	 500.154 	
 54.813375 	 0.036727345 	 500.153 	
 53.778996 	 0.036173735 	 500.153 	
 52.832621 	 0.035632732 	 500.156 	
 51.61453 	 0.035118713 	 500.157 	
 50.876573 	 0.03459525 	 500.157 	
 49.690496 	 0.034054744 	 500.154 	
 48.758886 	 0.033531779 	 500.154 	
 47.691317 	 0.032971814 	 500.153 	
 47.003812 	 0.032468306 	 500.163 	
 45.511383 	 0.031917254 	 500.163 	
 44.383568 	 0.031349013 	 500.163 	
 43.60954 	 0.030885278 	 500.163 	
 42.551247 	 0.030283873 	 500.163 	
 41.928627 	 0.029787964 	 500.162 	
 40.539708 	 0.029261128 	 500.162 	
 39.739421 	 0.028724563 	 500.159 	
 38.82635 	 0.028170919 	 500.159 	
 37.846848 	 0.027620685 	 500.158 	
 36.709757 	 0.027116645 	 500.16 	
 35.753428 	 0.026587891 	 500.157 	
 34.735301 	 0.026002503 	 500.158 	
 33.795967 	 0.025452941 	 500.157 	
 32.81337 	 0.024916234 	 500.153 	
 31.792155 	 0.024354635 	 500.152 	
 30.583997 	 0.023841257 	 500.152 	
 29.786799 	 0.023333205 	 500.16 	
 28.617264 	 0.022765569 	 500.16 	
 27.741272 	 0.022285355 	 500.16 	
 26.859105 	 0.021807663 	 500.162 	
 25.864151 	 0.021238962 	 500.162 	
 24.907818 	 0.020675197 	 500.162 	
 23.500357 	 0.02000995 	 500.162 	
 22.71243 	 0.01944086 	 500.158 	
 21.876607 	 0.018971227 	 500.164 	
 20.631372 	 0.01840061 	 500.164 	
 19.91142 	 0.017908039 	 500.16 	
 18.726437 	 0.017374279 	 500.16 	
 17.771653 	 0.016813746 	 500.162 	
 16.835408 	 0.016265959 	 500.16 	
 15.698319 	 0.01569694 	 500.16 	
 14.896487 	 0.015189597 	 500.16 	
 13.787207 	 0.014647954 	 500.16 	
 12.674836 	 0.01407091 	 500.163 	
 11.733957 	 0.013532214 	 500.165 	
 10.862601 	 0.012995969 	 500.165 	
 9.7687702 	 0.012436571 	 500.163 	
 8.8093506 	 0.011899047 	 500.163 	
 7.7912232 	 0.011317706 	 500.161 	
 6.7267472 	 0.010796445 	 500.159 	
 5.8584814 	 0.01024074 	 500.16 	
 4.753836 	 0.0096616718 	 500.162 	
 3.8114118 	 0.0091277694 	 500.165 	
 2.7500254 	 0.0085743732 	 500.164 	
 1.8137808 	 0.008038234 	 500.164 	
 0.77556898 	 0.0074581001 	 500.161 	
-0.23149298 	 0.0068842159 	 500.161 	
-1.1760174 	 0.0063625642 	 500.159 	
-2.2656084 	 0.0057550889 	 500.164 	
-3.166913 	 0.0051957272 	 500.164 	
-4.2102038 	 0.0046629258 	 500.17 	
-5.2473216 	 0.0041046648 	 500.166 	
-6.1887527 	 0.0035617435 	 500.166 	
-7.2876042 	 0.0029525284 	 500.167 	
-8.1950819 	 0.0024180935 	 500.165 	
-9.1303396 	 0.001871799 	 500.165 	
-10.23845 	 0.0012769646 	 500.168 	
-11.167536 	 0.0007275809 	 500.168 	
-12.146006 	 0.00014581361 	 500.167 	
-13.189297 	-0.00042728976 	 500.169 	
-14.143076 	-0.00099844026 	 500.169 	
-15.189453 	-0.0015654362 	 500.168 	
-16.155578 	-0.0021116952 	 500.168 	
-17.183435 	-0.002705926 	 500.165 	
-18.180427 	-0.0032526289 	 500.166 	
-19.171246 	-0.0038114938 	 500.166 	
-20.208363 	-0.0043905448 	 500.168 	
-21.162141 	-0.0049259383 	 500.168 	
-22.156045 	-0.0055742481 	 500.166 	
-23.199335 	-0.0061254961 	 500.163 	
-24.100641 	-0.0066693584 	 500.163 	
-25.168627 	-0.0072408637 	 500.165 	
-26.19957 	-0.0078428708 	 500.164 	
-27.119395 	-0.0083753707 	 500.164 	
-28.215159 	-0.0089663346 	 500.162 	
-29.209066 	-0.0095205828 	 500.165 	
-30.159752 	-0.010104357 	 500.166 	
-31.122793 	-0.010658836 	 500.165 	
-32.184606 	-0.011234851 	 500.164 	
-33.122953 	-0.011780027 	 500.169 	
-34.175502 	-0.012356468 	 500.166 	
-35.197184 	-0.01295693 	 500.168 	
-36.144791 	-0.013465924 	 500.168 	
-37.144869 	-0.014030257 	 500.167 	
-38.16964 	-0.01459926 	 500.164 	
-39.175893 	-0.015189354 	 500.166 	
-40.120412 	-0.01571248 	 500.165 	
-41.194567 	-0.016288494 	 500.165 	
-42.132909 	-0.016840772 	 500.166 	
-43.114471 	-0.017369313 	 500.168 	
-44.11146 	-0.017960827 	 500.168 	
-45.170184 	-0.018523474 	 500.167 	
-46.145569 	-0.019069217 	 500.164 	
-47.136388 	-0.019615832 	 500.164 	
-48.161161 	-0.020178194 	 500.163 	
-49.136543 	-0.020715096 	 500.163 	
-50.142862 	-0.021309451 	 500.164 	
-51.199073 	-0.021851307 	 500.165 	
-52.134899 	-0.022395915 	 500.165 	
-53.184998 	-0.022929978 	 500.171 	
-54.096109 	-0.023492002 	 500.171 	
-55.183268 	-0.02407574 	 500.167 	
-56.171595 	-0.024589971 	 500.167 	
-57.113593 	-0.025155795 	 500.167 	
-58.154427 	-0.025688597 	 500.165 	
-59.09643 	-0.026238691 	 500.165 	
-60.158872 	-0.026809965 	 500.169 	
-61.171912 	-0.027336108 	 500.165 	
-62.073761 	-0.027868183 	 500.165 	
-63.145476 	-0.028440968 	 500.162 	
-64.102919 	-0.028983607 	 500.162 	
-65.153013 	-0.02955923 	 500.164 	
-66.1259 	-0.030079356 	 500.163 	
-67.101873 	-0.030637457 	 500.162 	
-68.136531 	-0.031158913 	 500.163 	
-69.121765 	-0.031704818 	 500.163 	
-70.116267 	-0.032232647 	 500.164 	
-71.14475 	-0.032817806 	 500.164 	
-72.148514 	-0.033363638 	 500.165 	
-73.146105 	-0.033885006 	 500.162 	
-74.097374 	-0.034418678 	 500.162 	
-75.104233 	-0.034972997 	 500.164 	
-76.129628 	-0.035529359 	 500.162 	
-77.117956 	-0.036057917 	 500.161 	
-78.164968 	-0.036618184 	 500.161 	
-79.072988 	-0.037144718 	 500.162 	
-80.19721 	-0.037725703 	 500.161 	
-81.120682 	-0.038224578 	 500.159 	
-82.081212 	-0.038762599 	 500.159 	
-83.146754 	-0.039333412 	 500.162 	
-84.08257 	-0.039861047 	 500.162 	
-85.160467 	-0.040416539 	 500.159 	
-86.127177 	-0.040947937 	 500.16 	
-87.078445 	-0.041509449 	 500.16 	
-88.147064 	-0.042032092 	 500.157 	
-89.073624 	-0.042535654 	 500.157 	
-90.126811 	-0.043124097 	 500.158 	
-91.084249 	-0.043610737 	 500.155 	
-92.162145 	-0.04419602 	 500.155 	
-93.073252 	-0.044702918 	 500.155 	
-94.061579 	-0.04524078 	 500.155 	
-95.105499 	-0.045796928 	 500.16 	
-96.115448 	-0.046337559 	 500.156 	
-97.10378 	-0.04685598 	 500.156 	
-98.076665 	-0.047384468 	 500.156 	
-99.114405 	-0.047963057 	 500.156 	
-100.11509 	-0.048496071 	 500.152 	
-101.07562 	-0.049005898 	 500.152 	
-102.1102 	-0.049585429 	 500.153 	
-103.04594 	-0.050093818 	 500.153 	
-104.1361 	-0.050644463 	 500.153 	
-105.07493 	-0.05116354 	 500.156 	
-106.05082 	-0.051699981 	 500.155 	
-107.07304 	-0.052264279 	 500.152 	
-108.11069 	-0.052780178 	 500.152 	
-109.0804 	-0.05332468 	 500.153 	
-110.16747 	-0.053866997 	 500.153 	
-111.0785 	-0.054366119 	 500.151 	
-112.08527 	-0.054923826 	 500.154 	
-113.11984 	-0.055464672 	 500.152 	
-114.06793 	-0.055993911 	 500.152 	
-115.09941 	-0.056521422 	 500.152 	
-116.03208 	-0.057051773 	 500.154 	
-117.11914 	-0.057625089 	 500.152 	
-118.07959 	-0.058123839 	 500.156 	
-119.02768 	-0.058655735 	 500.152 	
-120.09313 	-0.059227044 	 500.155 	
-121.08755 	-0.059750544 	 500.155 	
-122.07272 	-0.060292435 	 500.155 	
-123.06404 	-0.060791291 	 500.15 	
-123.9936 	-0.061334036 	 500.153 	
-125.11773 	-0.061893627 	 500.153 	
-126.09054 	-0.062413325 	 500.153 	
-127.08187 	-0.062939309 	 500.153 	
-128.05775 	-0.063468168 	 500.155 	
-129.10158 	-0.063995272 	 500.155 	
-130.09909 	-0.064551651 	 500.154 	
-131.04718 	-0.065037547 	 500.154 	
-132.08484 	-0.065579616 	 500.153 	
-133.04529 	-0.06609159 	 500.157 	
-134.05516 	-0.06669074 	 500.157 	
-135.06192 	-0.067191068 	 500.156 	
-136.0409 	-0.067702975 	 500.156 	
-137.10018 	-0.068274904 	 500.155 	
-138.04519 	-0.068781983 	 500.159 	
-139.09829 	-0.069361866 	 500.159 	
-140.06491 	-0.069815944 	 500.159 	
-141.03152 	-0.070350434 	 500.159 	
-142.03212 	-0.07088565 	 500.156 	
-143.05743 	-0.071425359 	 500.153 	
-144.04876 	-0.071976181 	 500.153 	
-145.07715 	-0.072520042 	 500.157 	
-146.02216 	-0.073020123 	 500.157 	
-147.05364 	-0.073558214 	 500.158 	
-148.04189 	-0.074068787 	 500.156 	
-149.04247 	-0.07461006 	 500.156 	
-150.01219 	-0.075149517 	 500.16 	
-151.03749 	-0.075675945 	 500.156 	
-152.09377 	-0.076205624 	 500.161 	
-153.06669 	-0.07673276 	 500.16 	
-154.02726 	-0.077270195 	 500.162 	
-155.00016 	-0.077790128 	 500.161 	
-156.0472 	-0.078304534 	 500.16 	
-157.06027 	-0.078866114 	 500.161 	
-158.08569 	-0.079378641 	 500.162 	
-158.98448 	-0.079880282 	 500.159 	
-160.03152 	-0.080422726 	 500.161 	
-161.01062 	-0.080924846 	 500.161 	
-162.01133 	-0.081474054 	 500.163 	
-163.01821 	-0.081985142 	 500.162 	
-164.03128 	-0.082503386 	 500.162 	
-165.04435 	-0.083036612 	 500.163 	
-166.07905 	-0.083594608 	 500.163 	
-167.00252 	-0.084123381 	 500.163 	
-168.03723 	-0.084649967 	 500.159 	
-169.0472 	-0.085164587 	 500.159 	
-170.0263 	-0.085689897 	 500.159 	
-171.01465 	-0.086193369 	 500.159 	
-172.04317 	-0.086776824 	 500.157 	
-173.00372 	-0.087258262 	 500.159 	
-173.98281 	-0.087762568 	 500.159 	
-175.05147 	-0.088330258 	 500.16 	
-176.03057 	-0.088839764 	 500.16 	
-177.00348 	-0.089329192 	 500.157 	
-178.0289 	-0.089863682 	 500.155 	
-179.02036 	-0.090408304 	 500.155 	
-179.99635 	-0.09091973 	 500.159 	
-181.00323 	-0.091437762 	 500.159 	
-182.04411 	-0.092008859 	 500.159 	
-182.9923 	-0.092522556 	 500.157 	
-184.03317 	-0.093070767 	 500.157 	
-185.0308 	-0.093572536 	 500.158 	
-185.99754 	-0.094057116 	 500.158 	
-187.01371 	-0.09461353 	 500.156 	
-188.02985 	-0.09514392 	 500.156 	
-188.97188 	-0.095635903 	 500.154 	
-189.98801 	-0.096168614 	 500.155 	
-190.97639 	-0.096682437 	 500.155 	
-192.03577 	-0.097228944 	 500.16 	
-193.01796 	-0.097731779 	 500.16 	
-194.02795 	-0.098246064 	 500.16 	
-194.96688 	-0.098758838 	 500.16 	
-195.98612 	-0.099263444 	 500.162 	
-196.95287 	-0.099819823 	 500.159 	
-197.99681 	-0.10034247 	 500.159 	
-199.00061 	-0.10088523 	 500.159 	
-199.99208 	-0.1014053 	 500.161 	
-200.94336 	-0.1018839 	 500.161 	
-202.00585 	-0.10242164 	 500.16 	
-203.02199 	-0.10296 	 500.154 	
-203.97638 	-0.10344809 	 500.154 	
-205.0296 	-0.10396881 	 500.155 	
-205.99943 	-0.1045078 	 500.155 	
-206.95382 	-0.10501628 	 500.157 	
-207.96996 	-0.10551393 	 500.158 	
-208.94598 	-0.10604888 	 500.158 	
-209.98685 	-0.10656545 	 500.161 	
-210.98754 	-0.10708947 	 500.161 	
-212.01298 	-0.10759972 	 500.156 	
-213.00132 	-0.1081387 	 500.161 	
-213.95572 	-0.10864732 	 500.161 	
-214.9904 	-0.10918958 	 500.162 	
-215.97567 	-0.10971313 	 500.162 	
-217.01034 	-0.11024879 	 500.163 	
-217.97711 	-0.110721 	 500.162 	
-218.97471 	-0.11127709 	 500.162 	
-219.99704 	-0.11179985 	 500.157 	
-220.94526 	-0.11228355 	 500.157 	
-221.97378 	-0.11282315 	 500.162 	
-223.0177 	-0.11333053 	 500.16 	
-223.95358 	-0.11382076 	 500.16 	
-224.91413 	-0.11435503 	 500.16 	
-225.96117 	-0.11488776 	 500.16 	
-226.98967 	-0.11540954 	 500.163 	
-227.96879 	-0.11590987 	 500.16 	
-228.93239 	-0.11644414 	 500.16 	
-229.94859 	-0.1169585 	 500.154 	
-231.00488 	-0.11747644 	 500.159 	
-231.93146 	-0.11796965 	 500.157 	
-232.94147 	-0.11849599 	 500.155 	
-233.95764 	-0.11902343 	 500.156 	
-234.96757 	-0.11954059 	 500.156 	
-235.93123 	-0.12003251 	 500.156 	
-237.00299 	-0.12057754 	 500.153 	
-237.93884 	-0.1210759 	 500.151 	
-238.93953 	-0.12160206 	 500.156 	
-239.94027 	-0.1220952 	 500.156 	
-240.95951 	-0.122629 	 500.156 	
-241.9695 	-0.12319308 	 500.156 	
-242.97019 	-0.12364185 	 500.154 	
-243.92462 	-0.12416196 	 500.153 	
-244.96853 	-0.12466868 	 500.151 	
-245.92601 	-0.12520623 	 500.152 	
-246.95453 	-0.12570957 	 500.152 	
-247.96143 	-0.12623455 	 500.154 	
-248.89417 	-0.12675028 	 500.154 	
-249.9659 	-0.12729812 	 500.154 	
-250.91722 	-0.12776803 	 500.151 	
-251.93955 	-0.12832899 	 500.151 	
-252.9588 	-0.12884793 	 500.153 	
-253.95949 	-0.1293386 	 500.153 	
-254.92934 	-0.1298384 	 500.156 	
-255.89296 	-0.13033946 	 500.156 	
-256.974 	-0.1308814 	 500.155 	
-257.97471 	-0.13138849 	 500.155 	
-258.91982 	-0.13190323 	 500.154 	
-259.96069 	-0.13242592 	 500.154 	
-260.92743 	-0.13289977 	 500.154 	
-261.89419 	-0.13343411 	 500.154 	
-262.91341 	-0.13394379 	 500.151 	
-263.8987 	-0.13445086 	 500.154 	
-264.94574 	-0.13499359 	 500.154 	
-265.93101 	-0.13546823 	 500.154 	
-266.93479 	-0.13599512 	 500.154 	
-267.96948 	-0.13652705 	 500.151 	
-268.8528 	-0.13698798 	 500.154 	
-269.91223 	-0.13754603 	 500.15 	
-270.91294 	-0.13805197 	 500.15 	
-271.93217 	-0.13856166 	 500.15 	
-272.94216 	-0.13907351 	 500.154 	
-273.85329 	-0.13957414 	 500.152 	
-274.94979 	-0.14013098 	 500.154 	
-275.93195 	-0.14058547 	 500.154 	
-276.82145 	-0.14108221 	 500.154 	
-277.93337 	-0.14162387 	 500.154 	
-278.86304 	-0.14211509 	 500.154 	
-279.94716 	-0.14265863 	 500.154 	
-280.91077 	-0.14319099 	 500.153 	
-281.93931 	-0.14369161 	 500.157 	
-282.89986 	-0.14420772 	 500.153 	
-283.88202 	-0.14465171 	 500.152 	
-284.94452 	-0.14518572 	 500.153 	
-285.91125 	-0.14572576 	 500.152 	
-286.88416 	-0.14622427 	 500.151 	
-287.92812 	-0.14674703 	 500.154 	
-288.87941 	-0.14723723 	 500.154 	
-289.94194 	-0.1477541 	 500.156 	
-290.86542 	-0.14824625 	 500.16 	
-291.90007 	-0.14873806 	 500.16 	
-292.85756 	-0.14926768 	 500.155 	
-293.88916 	-0.14979574 	 500.155 	
-294.89915 	-0.15028603 	 500.155 	
-295.89368 	-0.15079517 	 500.156 	
-296.84495 	-0.1512998 	 500.156 	
-297.90438 	-0.15182713 	 500.154 	
-298.89272 	-0.15233276 	 500.154 	
-299.85329 	-0.15284025 	 500.156 	
-300.88798 	-0.15334128 	 500.152 	
-301.88871 	-0.15384919 	 500.153 	
-302.91412 	-0.15437013 	 500.152 	
-303.85923 	-0.1548725 	 500.152 	
-304.85685 	-0.15537083 	 500.154 	
-305.84832 	-0.15586934 	 500.155 	
-306.80893 	-0.15639336 	 500.155 	
-307.93942 	-0.15693283 	 500.155 	
-308.87222 	-0.15739059 	 500.155 	
-309.89461 	-0.15791657 	 500.157 	
-310.88609 	-0.15840916 	 500.155 	
-311.89303 	-0.15892959 	 500.155 	
-312.87215 	-0.15945101 	 500.154 	
-313.88217 	-0.15992584 	 500.154 	
-314.89223 	-0.16044269 	 500.155 	
-315.87444 	-0.16093032 	 500.154 	
-316.85975 	-0.16147129 	 500.154 	
-317.87287 	-0.16198626 	 500.151 	
-318.85817 	-0.16247633 	 500.153 	
-319.92381 	-0.16301583 	 500.155 	
-320.83499 	-0.16349295 	 500.154 	
-321.87282 	-0.1639839 	 500.155 	
-322.85197 	-0.16447478 	 500.155 	
-323.89284 	-0.16497141 	 500.151 	
-324.85965 	-0.16550545 	 500.157 	
-325.82332 	-0.16603569 	 500.154 	
-326.81177 	-0.16652466 	 500.156 	
-327.92371 	-0.16706039 	 500.156 	
-328.85961 	-0.16751985 	 500.154 	
-329.82945 	-0.16803225 	 500.158 	
-330.83637 	-0.16853349 	 500.152 	
-331.81862 	-0.16903927 	 500.153 	
-332.88734 	-0.1695479 	 500.149 	
-333.83867 	-0.17004866 	 500.149 	
-334.83322 	-0.17054283 	 500.149 	
-335.86182 	-0.17103778 	 500.146 	
-336.83785 	-0.17154342 	 500.146 	
-337.8479 	-0.17206954 	 500.148 	
-338.81778 	-0.17254154 	 500.144 	
-339.90808 	-0.17308006 	 500.147 	
-340.82544 	-0.17354887 	 500.143 	
-341.83546 	-0.17406049 	 500.143 	
-342.83624 	-0.17456292 	 500.15 	
-343.81537 	-0.17508299 	 500.15 	
-344.80995 	-0.17557868 	 500.147 	
-345.81997 	-0.17609637 	 500.145 	
-346.85162 	-0.17658772 	 500.145 	
-347.82456 	-0.17708242 	 500.141 	
-348.79445 	-0.17756222 	 500.141 	
-349.84465 	-0.17810612 	 500.146 	
-350.762 	-0.17856404 	 500.144 	
-351.80909 	-0.17906368 	 500.144 	
-352.81908 	-0.17957423 	 500.143 	
-353.80131 	-0.18009437 	 500.14 	
-354.76192 	-0.18059039 	 500.14 	
-355.83993 	-0.1810893 	 500.144 	
-356.8314 	-0.18158088 	 500.141 	
-357.77964 	-0.1820564 	 500.144 	
-358.78968 	-0.1825753 	 500.145 	
-359.8584 	-0.18312312 	 500.145 	
-360.78502 	-0.18360206 	 500.142 	
-361.78267 	-0.18408756 	 500.142 	
-362.78959 	-0.18458258 	 500.148 	
-363.82435 	-0.18509646 	 500.144 	
-364.8066 	-0.18559091 	 500.144 	
-365.79804 	-0.18608929 	 500.147 	
-366.78339 	-0.18657868 	 500.147 	
-367.8274 	-0.18711645 	 500.147 	
-368.80033 	-0.18759162 	 500.144 	
-369.82272 	-0.18810246 	 500.144 	
-370.8142 	-0.18857994 	 500.147 	
-371.78716 	-0.18908116 	 500.147 	
-372.8528 	-0.18961778 	 500.147 	
-373.76396 	-0.19007305 	 500.14 	
-374.78943 	-0.19057411 	 500.14 	
-375.79327 	-0.19108892 	 500.148 	
-376.79096 	-0.19158231 	 500.148 	
-377.7701 	-0.19208935 	 500.144 	
-378.76469 	-0.19258833 	 500.14 	
-379.80869 	-0.19308269 	 500.146 	
-380.80944 	-0.19358995 	 500.143 	
-381.80094 	-0.19409267 	 500.139 	
-382.78937 	-0.19454286 	 500.141 	
-383.77154 	-0.19501148 	 500.138 	
-384.76303 	-0.19552326 	 500.143 	
-385.77616 	-0.19602546 	 500.141 	
-386.75838 	-0.19654761 	 500.144 	
-387.7993 	-0.197033 	 500.143 	
-388.74138 	-0.19751691 	 500.143 	
-389.79154 	-0.19804738 	 500.144 	
-390.81703 	-0.19853531 	 500.146 	
-391.76525 	-0.19900737 	 500.142 	
-392.75675 	-0.19952547 	 500.144 	
-393.72356 	-0.19998154 	 500.144 	
-394.82004 	-0.20054419 	 500.147 	
-395.78684 	-0.2009986 	 500.146 	
-396.74127 	-0.20146227 	 500.146 	
-397.77909 	-0.2019978 	 500.145 	
-398.74589 	-0.20249117 	 500.145 	
-399.76517 	-0.20298453 	 500.147 	
-400.72575 	-0.2034672 	 500.147 	
-401.75742 	-0.2039547 	 500.147 	
-402.81685 	-0.20448021 	 500.146 	
-403.74349 	-0.20494597 	 500.143 	
-404.75352 	-0.20544148 	 500.143 	
-405.74192 	-0.2059535 	 500.145 	
-406.76742 	-0.20645604 	 500.145 	
-407.76819 	-0.20695371 	 500.147 	
-408.73187 	-0.20742817 	 500.146 	
-409.78827 	-0.20794554 	 500.146 	
-410.7427 	-0.20841864 	 500.146 	
-411.78975 	-0.20893202 	 500.146 	
-412.72569 	-0.20940417 	 500.145 	
-413.68935 	-0.20988322 	 500.145 	
-414.79822 	-0.2104436 	 500.144 	
-415.77116 	-0.2109099 	 500.147 	
-416.73486 	-0.2113769 	 500.147 	
-417.73873 	-0.21189362 	 500.145 	
-418.71167 	-0.21234188 	 500.147 	
-419.75877 	-0.21287896 	 500.147 	
-420.76573 	-0.21336501 	 500.143 	
-421.76337 	-0.21386027 	 500.143 	
-422.7394 	-0.21434023 	 500.141 	
-423.69387 	-0.21483789 	 500.144 	
-424.72241 	-0.21534838 	 500.144 	
-425.7726 	-0.21585791 	 500.144 	
-426.69305 	-0.21630769 	 500.144 	
-427.75553 	-0.21684583 	 500.146 	
-428.71926 	-0.21730448 	 500.144 	
-429.73543 	-0.21781899 	 500.144 	
-430.7733 	-0.21830822 	 500.143 	
-431.71535 	-0.21878045 	 500.143 	
-432.7686 	-0.2192903 	 500.144 	
-433.71379 	-0.21975745 	 500.149 	
-434.70221 	-0.22024201 	 500.149 	
-435.75852 	-0.2207487 	 500.146 	
-436.72223 	-0.221232 	 500.148 	
-437.69523 	-0.22171878 	 500.145 	
-438.72373 	-0.22223034 	 500.152 	
-439.72762 	-0.2227328 	 500.152 	
-440.70365 	-0.22318994 	 500.144 	
-441.71678 	-0.22371807 	 500.144 	
-442.73918 	-0.22418449 	 500.149 	
-443.709 	-0.22470031 	 500.149 	
-444.72827 	-0.2251624 	 500.149 	
-445.71055 	-0.22562284 	 500.151 	
-446.70205 	-0.22613521 	 500.151 	
-447.73061 	-0.22664415 	 500.149 	
-448.6696 	-0.22711216 	 500.144 	
-449.71047 	-0.22759243 	 500.143 	
-450.69582 	-0.22809769 	 500.147 	
-451.69346 	-0.22857416 	 500.147 	
-452.75289 	-0.22910555 	 500.145 	
-453.72276 	-0.22953767 	 500.145 	
-454.68953 	-0.23004496 	 500.145 	
-455.73661 	-0.23056429 	 500.144 	
-456.72504 	-0.23103933 	 500.144 	
-457.71344 	-0.23152254 	 500.144 	
-458.72349 	-0.23201258 	 500.145 	
-459.65934 	-0.23250845 	 500.143 	
-460.74976 	-0.23296953 	 500.147 	
-461.64235 	-0.23344146 	 500.147 	
-462.73271 	-0.23400009 	 500.144 	
-463.73653 	-0.23444152 	 500.142 	
-464.65391 	-0.23492375 	 500.142 	
-465.7288 	-0.23543054 	 500.144 	
-466.66156 	-0.23591927 	 500.144 	
-467.71486 	-0.23642209 	 500.144 	
-468.66618 	-0.23686907 	 500.142 	
-469.68243 	-0.23737774 	 500.142 	
-470.69859 	-0.2378633 	 500.143 	
-471.64378 	-0.23832819 	 500.144 	
-472.68778 	-0.23884426 	 500.145 	
-473.68233 	-0.23932227 	 500.141 	
-474.69545 	-0.23980716 	 500.141 	
-475.6684 	-0.24028722 	 500.138 	
-476.70007 	-0.24076319 	 500.138 	
-477.68231 	-0.24126884 	 500.143 	
-478.65216 	-0.24174208 	 500.146 	
-479.66223 	-0.24222223 	 500.146 	
-480.70308 	-0.24272273 	 500.142 	
-481.69151 	-0.24320677 	 500.142 	
-482.68917 	-0.24366221 	 500.143 	
-483.70538 	-0.24417324 	 500.141 	
-484.66597 	-0.24465557 	 500.141 	
-485.67601 	-0.2451521 	 500.143 	
-486.6922 	-0.24564095 	 500.144 	
-487.68058 	-0.24612007 	 500.141 	
-488.71226 	-0.24661324 	 500.143 	
-489.64197 	-0.24706028 	 500.143 	
-490.6736 	-0.24757454 	 500.143 	
-491.6342 	-0.24804003 	 500.141 	
-492.73692 	-0.24857076 	 500.144 	
-493.6697 	-0.24900804 	 500.14 	
-494.58089 	-0.24948213 	 500.14 	
-495.70211 	-0.25001148 	 500.144 	
-496.65656 	-0.25050671 	 500.144 	
-497.64189 	-0.25096406 	 500.142 	
-498.64262 	-0.25144252 	 500.142 	
-499.6496 	-0.2519046 	 500.138 	
-500.68736 	-0.25242836 	 500.143 	
-501.63255 	-0.25288168 	 500.144 	
-502.64872 	-0.2533749 	 500.141 	
-503.65259 	-0.25385562 	 500.141 	
-504.65948 	-0.25435198 	 500.138 	
-505.63865 	-0.25480662 	 500.145 	
-506.62091 	-0.25528589 	 500.143 	
-507.66486 	-0.25579267 	 500.143 	
-508.60998 	-0.25626763 	 500.144 	
-509.63231 	-0.25675913 	 500.144 	
-510.66706 	-0.25725661 	 500.145 	
-511.61218 	-0.25771171 	 500.144 	
-512.64994 	-0.258194 	 500.141 	
-513.62907 	-0.25870101 	 500.138 	
-514.62358 	-0.25918054 	 500.138 	
-515.6213 	-0.25964387 	 500.137 	
-516.59113 	-0.2601039 	 500.137 	
-517.63198 	-0.26060712 	 500.142 	
-518.68522 	-0.26109719 	 500.139 	
-519.60252 	-0.26155382 	 500.139 	
-520.62492 	-0.26201558 	 500.14 	
-521.59473 	-0.26248574 	 500.14 	
-522.6295 	-0.26301515 	 500.143 	
-523.66414 	-0.26343782 	 500.139 	
-524.59696 	-0.26390916 	 500.139 	
-525.61007 	-0.26440972 	 500.138 	
-526.58299 	-0.26489737 	 500.138 	
-527.62693 	-0.26537831 	 500.142 	
-528.62152 	-0.2658743 	 500.136 	
-529.60986 	-0.26632606 	 500.141 	
-530.66622 	-0.26682338 	 500.145 	
-531.58044 	-0.26730421 	 500.145 	
-532.62748 	-0.26778728 	 500.141 	
-533.63751 	-0.26827582 	 500.141 	
-534.5981 	-0.26874207 	 500.141 	
-535.57719 	-0.26920344 	 500.142 	
-536.63352 	-0.26970596 	 500.142 	
-537.60028 	-0.27019622 	 500.142 	
-538.63802 	-0.27066518 	 500.135 	
-539.5894 	-0.27112832 	 500.135 	
-540.62097 	-0.27163068 	 500.134 	
-541.59701 	-0.27207732 	 500.134 	
-542.61938 	-0.27257774 	 500.139 	
-543.58305 	-0.27304698 	 500.139 	
-544.60846 	-0.27352374 	 500.141 	
-545.58757 	-0.27398655 	 500.141 	
-546.508 	-0.27445208 	 500.141 	
-547.66626 	-0.27497691 	 500.142 	
-548.6145 	-0.27543173 	 500.145 	
-549.11485 	-0.27582637 	 500.142 	
-548.12958 	-0.27557232 	 500.147 	
-547.01147 	-0.27505613 	 500.147 	
-545.98914 	-0.27462665 	 500.146 	
-545.03166 	-0.27420174 	 500.145 	
-543.98456 	-0.27377285 	 500.145 	
-542.95915 	-0.27335505 	 500.144 	
-541.99544 	-0.27291173 	 500.144 	
-541.00092 	-0.27250287 	 500.148 	
-539.97854 	-0.27204767 	 500.145 	
-539.01182 	-0.27162602 	 500.144 	
-537.94932 	-0.2711695 	 500.144 	
-536.99489 	-0.27074499 	 500.144 	
-535.99418 	-0.27033561 	 500.145 	
-534.99345 	-0.26987169 	 500.145 	
-533.96183 	-0.2694218 	 500.144 	
-533.00433 	-0.26904379 	 500.143 	
-531.96649 	-0.26857486 	 500.143 	
-531.01215 	-0.26812289 	 500.143 	
-529.95583 	-0.26768358 	 500.143 	
-528.97668 	-0.26724434 	 500.144 	
-528.00374 	-0.26682172 	 500.143 	
-526.98759 	-0.26638228 	 500.143 	
-525.92816 	-0.26590734 	 500.142 	
-524.97998 	-0.26549711 	 500.142 	
-523.96995 	-0.26505106 	 500.141 	
-523.00629 	-0.26462078 	 500.143 	
-521.99939 	-0.26417146 	 500.143 	
-520.93683 	-0.26372821 	 500.144 	
-520.01646 	-0.26327867 	 500.144 	
-518.95091 	-0.26285397 	 500.145 	
-517.95011 	-0.26241209 	 500.146 	
-516.99573 	-0.26196878 	 500.146 	
-515.96413 	-0.26154104 	 500.145 	
-514.96645 	-0.26109013 	 500.145 	
-514.02753 	-0.26063878 	 500.144 	
-512.96816 	-0.26021653 	 500.138 	
-511.97662 	-0.2597694 	 500.138 	
-510.92337 	-0.25929432 	 500.141 	
-510.03079 	-0.25888567 	 500.141 	
-508.93435 	-0.25843954 	 500.14 	
-508.00155 	-0.258009 	 500.14 	
-506.9112 	-0.25753731 	 500.145 	
-505.94135 	-0.25710942 	 500.142 	
-504.99929 	-0.25664731 	 500.142 	
-503.98309 	-0.25620761 	 500.143 	
-502.93913 	-0.25577456 	 500.143 	
-501.99089 	-0.25529485 	 500.149 	
-500.97774 	-0.25490544 	 500.142 	
-499.92446 	-0.25439143 	 500.142 	
-498.99166 	-0.25396326 	 500.145 	
-497.97856 	-0.25353186 	 500.145 	
-496.96234 	-0.25307736 	 500.144 	
-495.97703 	-0.2526558 	 500.142 	
-494.96698 	-0.2521662 	 500.142 	
-493.91374 	-0.25167635 	 500.144 	
-492.9778 	-0.25127999 	 500.144 	
-491.99249 	-0.25083417 	 500.141 	
-490.9269 	-0.25039577 	 500.142 	
-489.98792 	-0.24990456 	 500.142 	
-488.94702 	-0.24949654 	 500.141 	
-487.99874 	-0.24905779 	 500.141 	
-486.99182 	-0.24854981 	 500.135 	
-485.97251 	-0.24813546 	 500.137 	
-484.97176 	-0.24769226 	 500.137 	
-484.00189 	-0.24724361 	 500.135 	
-482.97642 	-0.24677502 	 500.138 	
-481.99111 	-0.24632317 	 500.138 	
-480.96566 	-0.24588072 	 500.137 	
-479.9587 	-0.24541708 	 500.137 	
-478.96106 	-0.24496659 	 500.133 	
-477.95105 	-0.2445415 	 500.134 	
-477.04598 	-0.24408749 	 500.133 	
-475.86611 	-0.24360427 	 500.136 	
-474.99196 	-0.24315048 	 500.136 	
-473.92633 	-0.24272772 	 500.136 	
-472.98431 	-0.24230849 	 500.136 	
-471.96808 	-0.24180637 	 500.136 	
-470.93646 	-0.24135853 	 500.136 	
-469.95111 	-0.24088626 	 500.136 	
-468.95964 	-0.24046224 	 500.136 	
-467.99595 	-0.2400082 	 500.139 	
-466.97046 	-0.23955764 	 500.139 	
-465.93264 	-0.2390653 	 500.138 	
-464.97207 	-0.23863022 	 500.138 	
-463.97744 	-0.23816397 	 500.138 	
-462.9458 	-0.23774207 	 500.139 	
-461.93577 	-0.23723942 	 500.139 	
-460.95662 	-0.23678613 	 500.135 	
-460.03927 	-0.23636267 	 500.135 	
-458.97675 	-0.2359044 	 500.136 	
-457.90802 	-0.23544127 	 500.133 	
-456.95363 	-0.23497011 	 500.133 	
-455.98063 	-0.23454896 	 500.134 	
-455.00464 	-0.23409676 	 500.134 	
-453.97915 	-0.23362362 	 500.132 	
-452.97835 	-0.23316996 	 500.133 	
-451.93441 	-0.23268124 	 500.133 	
-450.95524 	-0.23226535 	 500.129 	
-449.97609 	-0.2318112 	 500.129 	
-448.95062 	-0.23134104 	 500.127 	
-447.94991 	-0.23086789 	 500.131 	
-446.96458 	-0.2303723 	 500.131 	
-445.94834 	-0.22996778 	 500.13 	
-445.01556 	-0.22951648 	 500.13 	
-443.96539 	-0.22903639 	 500.13 	
-442.98317 	-0.22860683 	 500.13 	
-441.93913 	-0.22810495 	 500.127 	
-440.98783 	-0.22766904 	 500.128 	
-440.01796 	-0.2271926 	 500.128 	
-438.93378 	-0.2267367 	 500.128 	
-438.01337 	-0.22627962 	 500.128 	
-436.95699 	-0.22580862 	 500.129 	
-435.9871 	-0.22534241 	 500.127 	
-434.96781 	-0.22489022 	 500.128 	
-433.97632 	-0.2244094 	 500.129 	
-432.93542 	-0.22394754 	 500.128 	
-431.98407 	-0.2234932 	 500.126 	
-430.95243 	-0.22306185 	 500.123 	
-430.00419 	-0.2226065 	 500.125 	
-428.93549 	-0.22212926 	 500.125 	
-428.02738 	-0.221672 	 500.126 	
-426.98336 	-0.22118747 	 500.122 	
-425.961 	-0.22074938 	 500.127 	
-424.96025 	-0.2202559 	 500.122 	
-423.98108 	-0.2198051 	 500.128 	
-422.93093 	-0.21935526 	 500.127 	
-421.96411 	-0.21889127 	 500.123 	
-420.96954 	-0.21842476 	 500.125 	
-419.97811 	-0.21793946 	 500.125 	
-418.94643 	-0.2174683 	 500.128 	
-417.98893 	-0.21701469 	 500.128 	
-417.00051 	-0.21657716 	 500.127 	
-415.9318 	-0.21609698 	 500.126 	
-414.95886 	-0.21559921 	 500.127 	
-414.01674 	-0.21515759 	 500.128 	
-413.00366 	-0.21473253 	 500.131 	
-411.95656 	-0.21424152 	 500.13 	
-410.95579 	-0.21378996 	 500.129 	
-409.98283 	-0.21330291 	 500.129 	
-408.92647 	-0.21284458 	 500.128 	
-407.93188 	-0.21237584 	 500.128 	
-406.98055 	-0.2119121 	 500.128 	
-405.98286 	-0.21143631 	 500.132 	
-404.98515 	-0.210975 	 500.132 	
-403.93188 	-0.2104854 	 500.128 	
-402.98366 	-0.21006226 	 500.132 	
-401.95203 	-0.20957356 	 500.127 	
-401.00685 	-0.20914871 	 500.134 	
-400.02461 	-0.20865669 	 500.134 	
-398.90338 	-0.20813094 	 500.133 	
-397.99223 	-0.20772239 	 500.133 	
-396.97291 	-0.20721979 	 500.129 	
-395.95054 	-0.20677786 	 500.133 	
-394.98685 	-0.20632437 	 500.134 	
-393.99535 	-0.20584983 	 500.133 	
-392.92045 	-0.20535762 	 500.133 	
-391.99693 	-0.20488011 	 500.133 	
-390.98073 	-0.20443864 	 500.132 	
-390.01702 	-0.20396539 	 500.132 	
-388.94215 	-0.20349116 	 500.134 	
-387.97847 	-0.20302459 	 500.13 	
-386.97768 	-0.20254573 	 500.13 	
-385.97695 	-0.20208942 	 500.13 	
-384.96999 	-0.2016222 	 500.13 	
-383.97235 	-0.20112554 	 500.136 	
-382.96847 	-0.2006802 	 500.13 	
-381.97082 	-0.2001701 	 500.132 	
-380.95459 	-0.19970908 	 500.128 	
-379.9662 	-0.19926717 	 500.128 	
-378.96546 	-0.19880326 	 500.124 	
-378.00792 	-0.19831455 	 500.124 	
-376.95462 	-0.19784128 	 500.13 	
-375.95081 	-0.19736215 	 500.131 	
-374.95313 	-0.19689094 	 500.131 	
-373.95547 	-0.1964163 	 500.126 	
-373.03194 	-0.19593624 	 500.126 	
-371.97247 	-0.19545889 	 500.125 	
-370.98099 	-0.19500782 	 500.121 	
-369.97096 	-0.19451614 	 500.121 	
-368.95477 	-0.19403643 	 500.125 	
-367.99727 	-0.19358334 	 500.125 	
-366.97488 	-0.19309798 	 500.126 	
-365.9587 	-0.19262094 	 500.127 	
-364.92704 	-0.19213469 	 500.127 	
-364.00043 	-0.19168835 	 500.126 	
-362.94713 	-0.19119099 	 500.126 	
-361.98653 	-0.19071546 	 500.13 	
-360.98271 	-0.19026293 	 500.132 	
-359.96341 	-0.18977338 	 500.132 	
-359.01826 	-0.18931106 	 500.13 	
-357.92175 	-0.18882568 	 500.133 	
-356.99511 	-0.18832378 	 500.13 	
-355.96964 	-0.18783773 	 500.133 	
-354.99667 	-0.1873723 	 500.13 	
-353.91872 	-0.1869085 	 500.133 	
-352.97048 	-0.1864481 	 500.135 	
-351.94808 	-0.18592538 	 500.135 	
-350.99056 	-0.18549152 	 500.135 	
-349.97745 	-0.18504353 	 500.135 	
-348.97053 	-0.18451393 	 500.134 	
-347.92344 	-0.18406164 	 500.133 	
-346.9968 	-0.18356678 	 500.132 	
-346.00222 	-0.18311529 	 500.137 	
-344.96439 	-0.18264406 	 500.137 	
-343.90184 	-0.18211168 	 500.138 	
-342.96595 	-0.18166719 	 500.135 	
-341.95286 	-0.1811908 	 500.136 	
-340.99534 	-0.18071531 	 500.132 	
-339.9853 	-0.18024166 	 500.132 	
-338.95676 	-0.17974536 	 500.133 	
-337.99304 	-0.17928635 	 500.131 	
-337.0201 	-0.17881587 	 500.133 	
-335.95757 	-0.17830193 	 500.132 	
-334.98461 	-0.17782073 	 500.134 	
-333.99311 	-0.17732826 	 500.132 	
-332.94912 	-0.17689671 	 500.133 	
-332.03175 	-0.1764029 	 500.133 	
-330.98157 	-0.17590287 	 500.134 	
-330.02097 	-0.17545678 	 500.134 	
-328.98004 	-0.17495794 	 500.133 	
-327.96388 	-0.17447837 	 500.128 	
-326.97542 	-0.17401711 	 500.128 	
-326.00867 	-0.17352391 	 500.131 	
-324.98937 	-0.17305282 	 500.128 	
-323.97626 	-0.17253216 	 500.13 	
-323.0033 	-0.17208731 	 500.132 	
-322.00874 	-0.17161436 	 500.132 	
-320.9678 	-0.17110054 	 500.128 	
-319.96087 	-0.17060241 	 500.129 	
-318.94777 	-0.1701407 	 500.129 	
-318.00257 	-0.16967982 	 500.133 	
-316.99258 	-0.16918897 	 500.133 	
-315.964 	-0.16865716 	 500.129 	
-314.97561 	-0.16821216 	 500.13 	
-314.00575 	-0.16774357 	 500.125 	
-312.94013 	-0.16726192 	 500.129 	
-311.99495 	-0.16677979 	 500.129 	
-310.9911 	-0.16628491 	 500.127 	
-309.97798 	-0.16578364 	 500.129 	
-309.03901 	-0.16530073 	 500.13 	
-307.99501 	-0.16484333 	 500.126 	
-306.93246 	-0.16432222 	 500.126 	
-305.97805 	-0.16382385 	 500.126 	
-304.97728 	-0.16337322 	 500.126 	
-304.01367 	-0.16289103 	 500.126 	
-302.96971 	-0.16238356 	 500.127 	
-301.97518 	-0.16189706 	 500.127 	
-300.92503 	-0.16141035 	 500.132 	
-299.9552 	-0.16094919 	 500.128 	
-299.00083 	-0.16044531 	 500.128 	
-298.00014 	-0.1599434 	 500.13 	
-297.01174 	-0.15948389 	 500.13 	
-295.93075 	-0.15897848 	 500.129 	
-295.00108 	-0.15852371 	 500.13 	
-293.96023 	-0.15799685 	 500.13 	
-292.99347 	-0.15753858 	 500.13 	
-292.00511 	-0.15705443 	 500.13 	
-290.99819 	-0.15654586 	 500.128 	
-289.92338 	-0.15607662 	 500.13 	
-289.01223 	-0.15559081 	 500.128 	
-287.97137 	-0.15509123 	 500.133 	
-287.02934 	-0.15462637 	 500.132 	
-285.93597 	-0.15409393 	 500.133 	
-284.98466 	-0.15362529 	 500.13 	
-283.99015 	-0.15314806 	 500.131 	
-282.99561 	-0.15265728 	 500.128 	
-281.98254 	-0.15217073 	 500.13 	
-280.97872 	-0.15167258 	 500.129 	
-279.94407 	-0.15117467 	 500.13 	
-279.02362 	-0.15066845 	 500.128 	
-277.92411 	-0.15017468 	 500.129 	
-277.03147 	-0.14970949 	 500.127 	
-275.98446 	-0.14923761 	 500.13 	
-274.93123 	-0.14872401 	 500.13 	
-273.98303 	-0.14822435 	 500.126 	
-272.97923 	-0.1477315 	 500.127 	
-272.00631 	-0.14726665 	 500.123 	
-270.98706 	-0.14675941 	 500.126 	
-269.96472 	-0.14627336 	 500.128 	
-269.0165 	-0.14578047 	 500.128 	
-267.95713 	-0.14530113 	 500.125 	
-266.99967 	-0.14480079 	 500.127 	
-265.95262 	-0.14427607 	 500.127 	
-264.96114 	-0.14383632 	 500.132 	
-264.04077 	-0.14337555 	 500.127 	
-262.98753 	-0.1428471 	 500.125 	
-261.98374 	-0.14233248 	 500.125 	
-260.94598 	-0.14182364 	 500.129 	
-260.00083 	-0.14137334 	 500.128 	
-259.00014 	-0.14086911 	 500.13 	
-257.97162 	-0.14036428 	 500.129 	
-256.98635 	-0.13989098 	 500.129 	
-255.95475 	-0.13936033 	 500.132 	
-254.96948 	-0.1388843 	 500.129 	
-253.97496 	-0.13841389 	 500.129 	
-253.02673 	-0.13792815 	 500.128 	
-252.02295 	-0.1374391 	 500.133 	
-250.98517 	-0.13690571 	 500.131 	
-249.98753 	-0.13643493 	 500.127 	
-248.98682 	-0.13596364 	 500.127 	
-247.97994 	-0.13544572 	 500.125 	
-247.01322 	-0.13492078 	 500.129 	
-245.98161 	-0.13446464 	 500.128 	
-244.99634 	-0.13399369 	 500.124 	
-244.01107 	-0.13346139 	 500.124 	
-242.97329 	-0.13296065 	 500.129 	
-241.99729 	-0.13247673 	 500.129 	
-240.97188 	-0.13198232 	 500.125 	
-240.0175 	-0.13148937 	 500.123 	
-238.97664 	-0.13096454 	 500.123 	
-237.97284 	-0.13047845 	 500.125 	
-236.95357 	-0.12998605 	 500.125 	
-236.02081 	-0.12946715 	 500.121 	
-234.95217 	-0.128996 	 500.122 	
-234.05337 	-0.12851521 	 500.122 	
-232.95996 	-0.12798349 	 500.122 	
-232.03959 	-0.12750877 	 500.121 	
-230.96474 	-0.12698552 	 500.125 	
-229.98566 	-0.12652322 	 500.126 	
-229.05288 	-0.12601554 	 500.126 	
-227.94098 	-0.1254783 	 500.122 	
-226.98351 	-0.12501388 	 500.122 	
-226.01676 	-0.12450988 	 500.123 	
-224.98517 	-0.12401481 	 500.118 	
-224.01535 	-0.12350173 	 500.118 	
-222.98373 	-0.1230027 	 500.123 	
-222.00774 	-0.12251065 	 500.123 	
-221.00394 	-0.12198864 	 500.123 	
-219.96926 	-0.1215176 	 500.12 	
-219.02412 	-0.1210291 	 500.124 	
-217.97709 	-0.12053343 	 500.122 	
-217.04124 	-0.12002741 	 500.122 	
-215.9417 	-0.11948035 	 500.121 	
-215.0182 	-0.11903653 	 500.123 	
-214.0669 	-0.11853235 	 500.123 	
-212.96737 	-0.11800779 	 500.121 	
-211.98827 	-0.11749613 	 500.123 	
-210.9721 	-0.11699497 	 500.123 	
-210.07022 	-0.11652392 	 500.122 	
-209.00466 	-0.11598731 	 500.123 	
-207.99777 	-0.11549066 	 500.121 	
-207.0125 	-0.11501176 	 500.121 	
-206.02414 	-0.1145099 	 500.126 	
-205.00182 	-0.11398674 	 500.126 	
-203.99183 	-0.11349098 	 500.126 	
-202.93862 	-0.11298722 	 500.123 	
-202.05217 	-0.11249447 	 500.123 	
-201.00822 	-0.11198261 	 500.124 	
-199.98897 	-0.11146387 	 500.124 	
-199.01298 	-0.11098266 	 500.124 	
-198.0308 	-0.1104712 	 500.122 	
-196.99303 	-0.10998149 	 500.12 	
-195.92434 	-0.1094598 	 500.119 	
-195.02558 	-0.10896717 	 500.123 	
-194.02485 	-0.10846941 	 500.123 	
-192.95 	-0.10794038 	 500.121 	
-192.03579 	-0.10743922 	 500.121 	
-190.98875 	-0.10695249 	 500.117 	
-190.05598 	-0.10645456 	 500.117 	
-188.98733 	-0.10591212 	 500.115 	
-188.02985 	-0.10539075 	 500.118 	
-187.0415 	-0.10494677 	 500.115 	
-185.99755 	-0.10441138 	 500.115 	
-184.98755 	-0.103914 	 500.114 	
-184.02083 	-0.10338457 	 500.116 	
-183.02321 	-0.10288358 	 500.114 	
-181.96998 	-0.10240797 	 500.116 	
-181.00015 	-0.10188491 	 500.116 	
-179.99636 	-0.10138066 	 500.115 	
-179.00801 	-0.10088992 	 500.115 	
-178.01036 	-0.10036198 	 500.115 	
-176.98803 	-0.099873974 	 500.115 	
-175.95644 	-0.099352765 	 500.115 	
-174.98043 	-0.098846187 	 500.116 	
-174.01988 	-0.09831596 	 500.116 	
-173.02533 	-0.097801517 	 500.117 	
-171.98447 	-0.097316527 	 500.116 	
-171.02083 	-0.096823919 	 500.116 	
-169.96143 	-0.096279631 	 500.114 	
-169.03793 	-0.095782908 	 500.114 	
-168.01561 	-0.095289024 	 500.115 	
-166.99635 	-0.094788321 	 500.115 	
-165.99565 	-0.094258289 	 500.115 	
-164.98257 	-0.093733673 	 500.117 	
-164.03746 	-0.093246625 	 500.117 	
-162.98733 	-0.092722876 	 500.116 	
-162.02986 	-0.092237974 	 500.117 	
-161.04149 	-0.091739704 	 500.117 	
-159.98518 	-0.091176368 	 500.115 	
-159.01536 	-0.090702084 	 500.117 	
-157.99304 	-0.09017301 	 500.117 	
-157.02321 	-0.08966501 	 500.113 	
-155.98852 	-0.089122944 	 500.113 	
-154.9631 	-0.088649226 	 500.118 	
-154.07668 	-0.088148807 	 500.111 	
-152.97402 	-0.087617891 	 500.111 	
-151.9764 	-0.087092189 	 500.113 	
-151.04676 	-0.086607145 	 500.113 	
-149.99056 	-0.086080969 	 500.112 	
-149.0116 	-0.085570538 	 500.115 	
-147.96467 	-0.085061242 	 500.115 	
-146.97026 	-0.084543938 	 500.115 	
-145.99745 	-0.084036899 	 500.115 	
-145.03083 	-0.08352961 	 500.116 	
-144.00244 	-0.083010692 	 500.12 	
-143.0142 	-0.082488222 	 500.12 	
-142.03522 	-0.081998334 	 500.116 	
-140.99755 	-0.08147077 	 500.116 	
-140.00005 	-0.080978394 	 500.118 	
-138.9933 	-0.080470503 	 500.117 	
-138.01431 	-0.079913786 	 500.117 	
-137.01062 	-0.079412693 	 500.116 	
-136.03473 	-0.078878596 	 500.116 	
-135.02796 	-0.07837933 	 500.116 	
-133.97177 	-0.077868988 	 500.117 	
-132.99897 	-0.077362427 	 500.117 	
-131.98292 	-0.076813898 	 500.119 	
-131.04719 	-0.076319586 	 500.119 	
-130.01572 	-0.075792805 	 500.118 	
-129.04909 	-0.075291232 	 500.117 	
-128.0485 	-0.07476752 	 500.114 	
-126.98923 	-0.074243348 	 500.115 	
-126.01641 	-0.073734336 	 500.115 	
-125.02199 	-0.073228857 	 500.118 	
-124.01214 	-0.072732593 	 500.117 	
-123.03008 	-0.072194237 	 500.119 	
-121.98623 	-0.071647339 	 500.118 	
-121.01961 	-0.071148182 	 500.118 	
-120.0221 	-0.070610675 	 500.119 	
-119.04003 	-0.070101787 	 500.117 	
-118.03018 	-0.069604264 	 500.118 	
-117.00178 	-0.069068994 	 500.116 	
-116.03208 	-0.068558368 	 500.117 	
-115.03147 	-0.068037941 	 500.114 	
-114 	-0.067527261 	 500.116 	
-113.00866 	-0.067001741 	 500.117 	
-112.04512 	-0.066484916 	 500.119 	
-111.03835 	-0.065982101 	 500.116 	
-110.04394 	-0.065436092 	 500.118 	
-108.98775 	-0.06492291 	 500.116 	
-108.00878 	-0.064403208 	 500.12 	
-107.002 	-0.063858033 	 500.118 	
-106.00759 	-0.063370059 	 500.118 	
-105.05331 	-0.062831791 	 500.118 	
-103.95698 	-0.0622899 	 500.12 	
-103.0583 	-0.06179431 	 500.12 	
-102.01446 	-0.061264278 	 500.12 	
-101.02311 	-0.060743178 	 500.119 	
-100.00698 	-0.060229179 	 500.119 	
-99.034103 	-0.05972764 	 500.115 	
-98.00562 	-0.05920668 	 500.115 	
-96.97406 	-0.058628358 	 500.119 	
-95.979548 	-0.058143617 	 500.116 	
-95.012843 	-0.057622605 	 500.116 	
-94.024521 	-0.057105623 	 500.118 	
-93.008397 	-0.056575734 	 500.118 	
-92.063309 	-0.056059726 	 500.117 	
-90.979248 	-0.055504938 	 500.115 	
-90.037242 	-0.055000969 	 500.115 	
-88.987142 	-0.054473512 	 500.117 	
-88.072942 	-0.053974427 	 500.117 	
-86.961075 	-0.053389127 	 500.118 	
-86.031433 	-0.052901065 	 500.119 	
-85.015315 	-0.052381775 	 500.119 	
-84.057861 	-0.0518475 	 500.118 	
-82.964528 	-0.051305592 	 500.118 	
-81.997818 	-0.050780724 	 500.12 	
-80.994054 	-0.050293268 	 500.116 	
-80.042786 	-0.049738166 	 500.119 	
-78.992686 	-0.04920929 	 500.119 	
-78.035248 	-0.048708996 	 500.117 	
-77.009857 	-0.048162754 	 500.118 	
-76.009171 	-0.047614969 	 500.12 	
-75.054815 	-0.047114426 	 500.119 	
-74.017075 	-0.046592686 	 500.12 	
-73.047277 	-0.046088095 	 500.12 	
-71.991005 	-0.045528503 	 500.12 	
-71.015027 	-0.044998827 	 500.12 	
-69.986549 	-0.044429718 	 500.12 	
-69.044548 	-0.043920849 	 500.12 	
-68.071673 	-0.043424105 	 500.12 	
-66.96906 	-0.042858761 	 500.117 	
-66.023979 	-0.042334339 	 500.119 	
-65.060359 	-0.041820305 	 500.119 	
-64.013351 	-0.04130286 	 500.122 	
-62.966345 	-0.040745665 	 500.122 	
-62.042875 	-0.040222716 	 500.119 	
-61.032926 	-0.039683861 	 500.12 	
-60.029156 	-0.039160079 	 500.12 	
-59.043912 	-0.038622448 	 500.124 	
-58.012356 	-0.038103211 	 500.124 	
-56.962252 	-0.03755578 	 500.126 	
-56.041876 	-0.037039207 	 500.123 	
-55.022666 	-0.036510381 	 500.127 	
-53.994188 	-0.035955067 	 500.125 	
-52.990417 	-0.035422763 	 500.125 	
-52.023712 	-0.03488009 	 500.124 	
-51.010676 	-0.034378074 	 500.127 	
-50.065693 	-0.033841917 	 500.127 	
-48.960602 	-0.033273501 	 500.125 	
-48.034602 	-0.032748085 	 500.125 	
-47.04996 	-0.032226807 	 500.125 	
-46.059143 	-0.031708706 	 500.123 	
-45.037458 	-0.031148296 	 500.123 	
-44.025037 	-0.03062311 	 500.124 	
-43.058909 	-0.030103129 	 500.124 	
-41.990926 	-0.029530469 	 500.124 	
-41.021716 	-0.028997703 	 500.125 	
-40.030897 	-0.028481963 	 500.125 	
-39.012299 	-0.027946817 	 500.122 	
-38.033829 	-0.027431183 	 500.122 	
-37.009054 	-0.026860156 	 500.12 	
-36.046021 	-0.026335202 	 500.123 	
-35.033595 	-0.025785037 	 500.123 	
-34.005735 	-0.025225178 	 500.129 	
-33.002569 	-0.024710876 	 500.129 	
-32.033358 	-0.024146082 	 500.123 	
-30.990069 	-0.023607014 	 500.127 	
-30.042463 	-0.023078207 	 500.126 	
-29.005343 	-0.022545973 	 500.127 	
-28.03922 	-0.022008805 	 500.127 	
-27.07001 	-0.021458533 	 500.129 	
-25.998937 	-0.020901941 	 500.126 	
-24.980338 	-0.020321914 	 500.126 	
-24.026561 	-0.019813524 	 500.121 	
-23.051177 	-0.019289103 	 500.121 	
-22.004798 	-0.018708826 	 500.122 	
-21.026328 	-0.018196087 	 500.121 	
-20.041683 	-0.017636211 	 500.121 	
-19.026171 	-0.017077204 	 500.125 	
-18.01992 	-0.016530661 	 500.125 	
-16.995147 	-0.01599319 	 500.125 	
-16.019764 	-0.015443895 	 500.126 	
-15.078333 	-0.01490227 	 500.126 	
-14.035043 	-0.014324994 	 500.124 	
-13.025706 	-0.013796932 	 500.124 	
-12.028713 	-0.013245506 	 500.127 	
-11.013203 	-0.012715173 	 500.129 	
-9.9791711 	-0.0121276 	 500.129 	
-9.0037864 	-0.011585175 	 500.129 	
-8.009882 	-0.011047474 	 500.129 	
-7.0406713 	-0.010473589 	 500.132 	
-6.009727 	-0.0099279694 	 500.125 	
-5.0065624 	-0.0093605117 	 500.125 	
-4.0435244 	-0.0088191706 	 500.126 	
-3.1545664 	-0.0082877186 	 500.126 	
-1.7563095 	-0.0076439891 	 500.125 	
-0.92908464 	-0.0070614406 	 500.129 	
 0.0062840258 	-0.0065465887 	 500.129 	
 1.0196724 	-0.0060056734 	 500.125 	
 1.9713666 	-0.005457497 	 500.124 	
 2.9570498 	-0.0048689121 	 500.122 	
 4.0477901 	-0.0043381877 	 500.126 	
 4.9114219 	-0.003795728 	 500.126 	
 5.9527235 	-0.0031851632 	 500.128 	
 6.9507666 	-0.0026523441 	 500.124 	
 7.9503539 	-0.0020501239 	 500.124 	
 9.1013479 	-0.0014873003 	 500.125 	
 10.042227 	-0.00093269669 	 500.125 	
 11.023276 	-0.00040151076 	 500.12 	
 11.917807 	 0.00015415805 	 500.121 	
 13.017818 	 0.00077221481 	 500.121 	
 13.882994 	 0.0012994059 	 500.118 	
 15.067976 	 0.0019154741 	 500.124 	
 15.886803 	 0.0024814757 	 500.122 	
 16.994539 	 0.0030393461 	 500.119 	
 17.912244 	 0.0036231372 	 500.121 	
 19.018434 	 0.0041473457 	 500.121 	
 19.956223 	 0.0047252782 	 500.121 	
 20.935727 	 0.005301826 	 500.12 	
 22.032649 	 0.0059032293 	 500.12 	
 22.916363 	 0.0064788538 	 500.122 	
 24.076627 	 0.0070247217 	 500.125 	
 25.01751 	 0.0075525874 	 500.124 	
 25.986201 	 0.008102859 	 500.125 	
 26.951797 	 0.0086687543 	 500.125 	
 27.756724 	 0.0092604993 	 500.123 	
 28.929347 	 0.0099271669 	 500.122 	
 30.174583 	 0.010561486 	 500.12 	
 30.817284 	 0.011011802 	 500.118 	
 32.022354 	 0.011645802 	 500.118 	
 32.96169 	 0.012193588 	 500.123 	
 33.907204 	 0.012677069 	 500.12 	
 35.053561 	 0.013268814 	 500.12 	
 35.921827 	 0.013847137 	 500.118 	
 37.125353 	 0.014430431 	 500.118 	
 37.931819 	 0.014967778 	 500.121 	
 39.011744 	 0.015513149 	 500.12 	
 40.077766 	 0.016119453 	 500.123 	
 41.120613 	 0.01665829 	 500.123 	
 41.954892 	 0.017194785 	 500.125 	
 42.66866 	 0.01776764 	 500.124 	
 43.740863 	 0.018299695 	 500.126 	
 44.643115 	 0.018877521 	 500.121 	
 45.909983 	 0.019459537 	 500.128 	
 47.050161 	 0.020002494 	 500.128 	
 47.983317 	 0.020542894 	 500.128 	
 48.8933 	 0.021077542 	 500.123 	
 50.056561 	 0.021650361 	 500.125 	
 50.902817 	 0.022190797 	 500.123 	
 52.026728 	 0.022767948 	 500.123 	
 52.95767 	 0.023300821 	 500.125 	
 54.089307 	 0.02381775 	 500.123 	
 54.788667 	 0.024364258 	 500.128 	
 55.994411 	 0.02496275 	 500.125 	
 57.258817 	 0.025538267 	 500.129 	
 57.623166 	 0.025993874 	 500.129 	
 59.140765 	 0.026661997 	 500.129 	
 59.97907 	 0.027217347 	 500.129 	
 60.840533 	 0.027742547 	 500.126 	
 61.98298 	 0.028352862 	 500.126 	
 63.111523 	 0.028903596 	 500.126 	
 64.000782 	 0.029314036 	 500.125 	
 64.990379 	 0.029934543 	 500.129 	
 66.010862 	 0.030470363 	 500.123 	
 66.86307 	 0.030975042 	 500.127 	
 68.027128 	 0.031534581 	 500.126 	
 68.902484 	 0.032086947 	 500.126 	
 69.967738 	 0.032634805 	 500.127 	
 71.009834 	 0.033160148 	 500.126 	
 72.024134 	 0.033721641 	 500.126 	
 72.73276 	 0.034290199 	 500.126 	
 74.09597 	 0.03477265 	 500.126 	
 75.300173 	 0.035406969 	 500.126 	
 76.214132 	 0.035917614 	 500.13 	
 77.21608 	 0.036442355 	 500.125 	
 77.900009 	 0.037010842 	 500.125 	
 79.167506 	 0.037509733 	 500.127 	
 79.888474 	 0.038071474 	 500.124 	
 81.032461 	 0.03862409 	 500.122 	
 81.957225 	 0.039168821 	 500.122 	
 82.892797 	 0.039692355 	 500.123 	
 84.075373 	 0.040254095 	 500.123 	
 85.071157 	 0.040827093 	 500.125 	
 86.009811 	 0.041306739 	 500.125 	
 86.951558 	 0.041835492 	 500.124 	
 87.902568 	 0.042384735 	 500.124 	
 89.068171 	 0.042905675 	 500.124 	
 89.920369 	 0.043440288 	 500.125 	
 90.72934 	 0.043972521 	 500.128 	
 91.913472 	 0.044629247 	 500.128 	
 93.224187 	 0.045227526 	 500.127 	
 93.850998 	 0.045626105 	 500.127 	
 94.922419 	 0.046154326 	 500.124 	
 95.970683 	 0.046758853 	 500.123 	
 96.943303 	 0.047301882 	 500.123 	
 98.048701 	 0.047807307 	 500.124 	
 98.79747 	 0.048306375 	 500.124 	
 99.913666 	 0.048871206 	 500.127 	
 100.98217 	 0.049447398 	 500.126 	
 102.03229 	 0.049956906 	 500.126 	
 102.93878 	 0.050515665 	 500.12 	
 103.95957 	 0.051012389 	 500.12 	
 104.98497 	 0.051563406 	 500.119 	
 106.04745 	 0.05210022 	 500.12 	
 106.85511 	 0.0526098 	 500.12 	
 107.96392 	 0.053180986 	 500.12 	
 109.10824 	 0.053723267 	 500.12 	
 109.8356 	 0.054266578 	 500.12 	
 110.96293 	 0.054783009 	 500.119 	
 111.92195 	 0.055311976 	 500.119 	
 112.94426 	 0.055852907 	 500.114 	
 113.94342 	 0.056396324 	 500.117 	
 114.94876 	 0.056927455 	 500.116 	
 115.95254 	 0.057475421 	 500.114 	
 116.9826 	 0.058018874 	 500.114 	
 117.91689 	 0.058525933 	 500.113 	
 118.94075 	 0.059039878 	 500.118 	
 119.99089 	 0.059618096 	 500.112 	
 120.94371 	 0.060126716 	 500.112 	
 121.97529 	 0.060684907 	 500.112 	
 122.98836 	 0.061215188 	 500.11 	
 123.97979 	 0.061714963 	 500.108 	
 124.94652 	 0.062275107 	 500.111 	
 126.06922 	 0.062846932 	 500.109 	
 126.93403 	 0.063326755 	 500.113 	
 128.02429 	 0.063870245 	 500.112 	
 128.9447 	 0.064406315 	 500.112 	
 129.96086 	 0.064952324 	 500.11 	
 130.96463 	 0.065463748 	 500.111 	
 131.99161 	 0.065998078 	 500.11 	
 132.97685 	 0.066525767 	 500.11 	
 133.89262 	 0.067077246 	 500.108 	
 135.00142 	 0.067616863 	 500.112 	
 136.02065 	 0.068157476 	 500.11 	
 136.94415 	 0.06866159 	 500.11 	
 137.97728 	 0.069211753 	 500.111 	
 138.96408 	 0.06971803 	 500.111 	
 139.97097 	 0.070240996 	 500.111 	
 140.96548 	 0.070763998 	 500.111 	
 141.90135 	 0.071284723 	 500.111 	
 143.0055 	 0.071854563 	 500.114 	
 143.96605 	 0.072363679 	 500.114 	
 144.94822 	 0.07291498 	 500.112 	
 145.95047 	 0.073438764 	 500.114 	
 146.95889 	 0.073962544 	 500.114 	
 147.97041 	 0.074506318 	 500.113 	
 148.94795 	 0.075018773 	 500.113 	
 150.02587 	 0.075585664 	 500.115 	
 150.95708 	 0.076082673 	 500.12 	
 151.97941 	 0.07664832 	 500.12 	
 152.9662 	 0.077170575 	 500.117 	
 153.95892 	 0.077665132 	 500.117 	
 154.92996 	 0.078197758 	 500.117 	
 155.96122 	 0.07872541 	 500.12 	
 156.96005 	 0.079270285 	 500.12 	
 157.98359 	 0.079814521 	 500.119 	
 158.97932 	 0.080308618 	 500.119 	
 160.00132 	 0.080868194 	 500.117 	
 160.96928 	 0.08137511 	 500.117 	
 161.98509 	 0.081905317 	 500.117 	
 162.99012 	 0.082436166 	 500.116 	
 163.921 	 0.082949937 	 500.11 	
 164.9816 	 0.083507734 	 500.117 	
 165.97272 	 0.084001228 	 500.112 	
 166.93449 	 0.084535698 	 500.112 	
 168.02133 	 0.085083556 	 500.113 	
 168.99082 	 0.085603007 	 500.113 	
 169.98965 	 0.086120573 	 500.11 	
 170.9746 	 0.086632073 	 500.111 	
 171.86691 	 0.087116582 	 500.111 	
 173.05101 	 0.087713762 	 500.109 	
 173.90934 	 0.08820182 	 500.109 	
 174.95603 	 0.088759762 	 500.111 	
 175.96413 	 0.089281164 	 500.109 	
 176.98613 	 0.089817767 	 500.109 	
 177.95253 	 0.090328729 	 500.111 	
 178.90352 	 0.090828118 	 500.111 	
 179.99189 	 0.091377359 	 500.115 	
 180.94439 	 0.091878063 	 500.116 	
 181.94324 	 0.092408875 	 500.116 	
 182.93281 	 0.092936207 	 500.112 	
 183.97024 	 0.093466098 	 500.112 	
 185.02155 	 0.093992686 	 500.116 	
 185.92006 	 0.09449914 	 500.111 	
 186.99916 	 0.095040748 	 500.111 	
 187.90691 	 0.095551747 	 500.113 	
 188.98602 	 0.096100811 	 500.11 	
 189.95706 	 0.096603358 	 500.11 	
 190.92812 	 0.097123484 	 500.108 	
 191.97633 	 0.097665481 	 500.111 	
 192.9798 	 0.098174495 	 500.108 	
 193.95086 	 0.098675834 	 500.107 	
 194.97284 	 0.099227029 	 500.107 	
 195.97012 	 0.099746303 	 500.111 	
 196.95044 	 0.10026046 	 500.11 	
 197.97243 	 0.10079856 	 500.106 	
 198.90488 	 0.10127532 	 500.107 	
 199.99326 	 0.10181984 	 500.107 	
 200.94579 	 0.10234206 	 500.109 	
 201.95077 	 0.10286009 	 500.109 	
 202.9527 	 0.10342112 	 500.109 	
 203.91449 	 0.1039035 	 500.106 	
 205.01058 	 0.10446109 	 500.106 	
 205.94304 	 0.10495462 	 500.107 	
 206.96039 	 0.10548916 	 500.107 	
 207.97622 	 0.10600449 	 500.11 	
 208.89477 	 0.1064972 	 500.11 	
 209.97696 	 0.10703728 	 500.11 	
 210.91867 	 0.10753429 	 500.109 	
 211.94221 	 0.10808947 	 500.109 	
 212.975 	 0.10862014 	 500.112 	
 213.94604 	 0.10910976 	 500.11 	
 214.94178 	 0.10963596 	 500.11 	
 215.96225 	 0.11015679 	 500.109 	
 216.89779 	 0.11066161 	 500.109 	
 218.00314 	 0.11119335 	 500.112 	
 218.95874 	 0.11172895 	 500.112 	
 219.91744 	 0.11225415 	 500.11 	
 220.99809 	 0.1127568 	 500.11 	
 221.95216 	 0.11327093 	 500.11 	
 222.94946 	 0.11377259 	 500.108 	
 223.9313 	 0.11429026 	 500.112 	
 224.94558 	 0.11486411 	 500.113 	
 225.97528 	 0.11536375 	 500.112 	
 226.89847 	 0.1158576 	 500.111 	
 228.00232 	 0.11638812 	 500.111 	
 228.93939 	 0.11687058 	 500.112 	
 229.94906 	 0.11741172 	 500.112 	
 231.00962 	 0.11794576 	 500.106 	
 231.94672 	 0.11843489 	 500.111 	
 232.9625 	 0.11895474 	 500.108 	
 233.94592 	 0.11946606 	 500.111 	
 234.98024 	 0.11999633 	 500.111 	
 235.95129 	 0.12047466 	 500.112 	
 236.9424 	 0.12099962 	 500.111 	
 237.99837 	 0.12154886 	 500.111 	
 238.96324 	 0.12206235 	 500.109 	
 239.96824 	 0.12256482 	 500.109 	
 240.97943 	 0.12311098 	 500.106 	
 241.95976 	 0.12359371 	 500.106 	
 242.94932 	 0.12411092 	 500.11 	
 243.95587 	 0.12463272 	 500.113 	
 244.97168 	 0.12516392 	 500.113 	
 245.92885 	 0.12565696 	 500.111 	
 246.92149 	 0.12617158 	 500.111 	
 247.98515 	 0.12671599 	 500.114 	
 248.95624 	 0.12722039 	 500.111 	
 249.96895 	 0.12773476 	 500.111 	
 250.97394 	 0.12822172 	 500.113 	
 251.97585 	 0.12874894 	 500.113 	
 252.95463 	 0.12926488 	 500.114 	
 253.9056 	 0.12978561 	 500.108 	
 254.96466 	 0.13029156 	 500.108 	
 255.97276 	 0.13078847 	 500.112 	
 256.92682 	 0.1313082 	 500.112 	
 258.00749 	 0.13185993 	 500.115 	
 258.93992 	 0.13234003 	 500.114 	
 259.9295 	 0.13286187 	 500.114 	
 260.98543 	 0.13340983 	 500.113 	
 261.95652 	 0.13387886 	 500.113 	
 263.00165 	 0.13441674 	 500.112 	
 263.96189 	 0.134907 	 500.113 	
 264.93911 	 0.13539996 	 500.113 	
 266.00431 	 0.13593514 	 500.115 	
 266.90279 	 0.13644177 	 500.115 	
 267.95258 	 0.13693952 	 500.115 	
 268.9823 	 0.1374779 	 500.113 	
 269.93945 	 0.13797715 	 500.113 	
 270.96604 	 0.13850967 	 500.116 	
 271.89543 	 0.13900824 	 500.116 	
 272.973 	 0.13953905 	 500.117 	
 273.94712 	 0.14000971 	 500.12 	
 274.92898 	 0.14053815 	 500.113 	
 275.98494 	 0.14108956 	 500.116 	
 276.96372 	 0.14156227 	 500.115 	
 277.94401 	 0.14208279 	 500.113 	
 278.98145 	 0.14260079 	 500.113 	
 279.91545 	 0.14308374 	 500.118 	
 280.97447 	 0.14361746 	 500.114 	
 281.91309 	 0.14409824 	 500.114 	
 282.9953 	 0.14463438 	 500.117 	
 283.96326 	 0.14513103 	 500.117 	
 284.88796 	 0.14562236 	 500.117 	
 285.96556 	 0.14617278 	 500.114 	
 286.91345 	 0.14666066 	 500.116 	
 287.9694 	 0.14719943 	 500.113 	
 288.95125 	 0.1476633 	 500.117 	
 289.91919 	 0.1481654 	 500.117 	
 290.93038 	 0.14868907 	 500.115 	
 291.98946 	 0.14920511 	 500.115 	
 292.91414 	 0.14970251 	 500.117 	
 293.98092 	 0.15023109 	 500.116 	
 294.93807 	 0.15074695 	 500.118 	
 295.96932 	 0.15125159 	 500.116 	
 296.89868 	 0.1517469 	 500.116 	
 297.96391 	 0.15226408 	 500.115 	
 298.89636 	 0.15275711 	 500.12 	
 299.92143 	 0.15328973 	 500.12 	
 301.00362 	 0.1538127 	 500.12 	
 301.91719 	 0.15428172 	 500.12 	
 302.9214 	 0.15480263 	 500.122 	
 303.95953 	 0.15529901 	 500.116 	
 304.96526 	 0.15581977 	 500.116 	
 305.95562 	 0.15633471 	 500.118 	
 306.95825 	 0.15681808 	 500.118 	
 307.94547 	 0.15733593 	 500.116 	
 308.95741 	 0.15785425 	 500.117 	
 309.93542 	 0.15836528 	 500.117 	
 310.95349 	 0.15884369 	 500.111 	
 311.96852 	 0.15935629 	 500.111 	
 312.94188 	 0.15988756 	 500.115 	
 313.91985 	 0.16037583 	 500.112 	
 314.93947 	 0.16088058 	 500.112 	
 315.95449 	 0.16138739 	 500.114 	
 316.88927 	 0.1618828 	 500.114 	
 317.99992 	 0.16243915 	 500.115 	
 318.92238 	 0.16289529 	 500.114 	
 319.93122 	 0.16340646 	 500.114 	
 320.95701 	 0.16391093 	 500.114 	
 321.88717 	 0.16440904 	 500.114 	
 322.97007 	 0.16492732 	 500.115 	
 323.9095 	 0.16541921 	 500.115 	
 324.94608 	 0.16594512 	 500.115 	
 325.94568 	 0.16644597 	 500.111 	
 326.90514 	 0.16693002 	 500.115 	
 327.95715 	 0.16744407 	 500.113 	
 328.96291 	 0.16794854 	 500.111 	
 329.89308 	 0.16843493 	 500.111 	
 330.94202 	 0.16894085 	 500.113 	
 331.9092 	 0.16945774 	 500.113 	
 332.93964 	 0.16998749 	 500.111 	
 333.97162 	 0.17048727 	 500.109 	
 334.92493 	 0.17095137 	 500.109 	
 335.93377 	 0.17146354 	 500.109 	
 336.9256 	 0.17198874 	 500.114 	
 337.99616 	 0.17248816 	 500.112 	
 338.91398 	 0.172965 	 500.116 	
 339.93361 	 0.17349422 	 500.112 	
 340.94555 	 0.17397496 	 500.11 	
 341.92507 	 0.17447659 	 500.11 	
 342.91538 	 0.1749948 	 500.105 	
 343.92886 	 0.17548343 	 500.109 	
 344.95467 	 0.17600398 	 500.109 	
 345.92031 	 0.17649754 	 500.114 	
 346.88749 	 0.17698028 	 500.114 	
 347.97809 	 0.17752167 	 500.115 	
 348.93139 	 0.17798484 	 500.115 	
 349.91093 	 0.17848171 	 500.115 	
 350.94442 	 0.17901263 	 500.112 	
 351.94244 	 0.17950516 	 500.112 	
 352.92354 	 0.17998147 	 500.11 	
 353.93852 	 0.18051452 	 500.109 	
 354.89956 	 0.18097591 	 500.109 	
 355.90377 	 0.18149834 	 500.106 	
 356.87869 	 0.18199955 	 500.106 	
 357.95382 	 0.18253285 	 500.109 	
 358.91176 	 0.18302428 	 500.109 	
 359.93602 	 0.18350865 	 500.109 	
 360.94638 	 0.18399223 	 500.105 	
 361.93675 	 0.18448594 	 500.105 	
 362.92859 	 0.18499261 	 500.107 	
 363.89266 	 0.18550396 	 500.109 	
 364.91847 	 0.18600758 	 500.109 	
 365.97051 	 0.18650051 	 500.108 	
 366.90993 	 0.18696946 	 500.108 	
 367.92804 	 0.18749445 	 500.113 	
 368.96307 	 0.18802739 	 500.109 	
 369.9241 	 0.18850963 	 500.109 	
 370.92521 	 0.18897486 	 500.113 	
 371.9063 	 0.18949204 	 500.113 	
 372.929 	 0.19000464 	 500.11 	
 373.89465 	 0.19047963 	 500.11 	
 374.92972 	 0.19099546 	 500.11 	
 375.93854 	 0.19149087 	 500.116 	
 376.87951 	 0.19197879 	 500.116 	
 377.97935 	 0.19251447 	 500.113 	
 378.93573 	 0.19297508 	 500.11 	
 379.85361 	 0.1934837 	 500.11 	
 380.94416 	 0.19396203 	 500.114 	
 381.87124 	 0.19447594 	 500.114 	
 382.92483 	 0.19498385 	 500.111 	
 383.92286 	 0.19546431 	 500.114 	
 384.93166 	 0.19598888 	 500.114 	
 385.94051 	 0.19645418 	 500.111 	
 386.89073 	 0.19695953 	 500.111 	
 387.95047 	 0.19747607 	 500.106 	
 388.91459 	 0.1979615 	 500.11 	
 389.92804 	 0.19844204 	 500.109 	
 390.92454 	 0.19893078 	 500.107 	
 391.92872 	 0.1994308 	 500.107 	
 392.92215 	 0.19994531 	 500.108 	
 393.9433 	 0.200425 	 500.105 	
 394.9352 	 0.20092825 	 500.105 	
 395.9363 	 0.20142438 	 500.103 	
 396.90199 	 0.20192181 	 500.103 	
 397.94164 	 0.20244023 	 500.102 	
 398.90423 	 0.20290397 	 500.106 	
 399.93 	 0.20341802 	 500.106 	
 400.91881 	 0.20388336 	 500.104 	
 401.89989 	 0.2043868 	 500.104 	
 402.92259 	 0.20488391 	 500.107 	
 403.94073 	 0.20538671 	 500.108 	
 404.8786 	 0.20584977 	 500.111 	
 405.92139 	 0.20636312 	 500.11 	
 406.91014 	 0.20686562 	 500.11 	
 407.87577 	 0.20735493 	 500.112 	
 408.94171 	 0.20787793 	 500.105 	
 409.91195 	 0.20834781 	 500.105 	
 410.96556 	 0.20886552 	 500.106 	
 411.88802 	 0.20932518 	 500.106 	
 412.95083 	 0.2098278 	 500.11 	
 413.92421 	 0.21035051 	 500.108 	
 414.88983 	 0.21081073 	 500.108 	
 415.97579 	 0.21132561 	 500.108 	
 416.88129 	 0.21177859 	 500.11 	
 417.87004 	 0.21228192 	 500.106 	
 418.95911 	 0.21279277 	 500.112 	
 419.92167 	 0.21326901 	 500.109 	
 420.91661 	 0.21378282 	 500.109 	
 421.91777 	 0.21427844 	 500.106 	
 422.96515 	 0.21474448 	 500.106 	
 423.92002 	 0.21523521 	 500.106 	
 424.93345 	 0.21572508 	 500.108 	
 425.85744 	 0.21623225 	 500.105 	
 426.8894 	 0.21671601 	 500.105 	
 427.89518 	 0.21720709 	 500.103 	
 428.94102 	 0.21770396 	 500.107 	
 429.87272 	 0.21818247 	 500.107 	
 430.95408 	 0.21872147 	 500.108 	
 431.88888 	 0.21917257 	 500.107 	
 432.89768 	 0.21967221 	 500.107 	
 433.93585 	 0.2201874 	 500.107 	
 434.93081 	 0.22068207 	 500.107 	
 435.84709 	 0.22113963 	 500.107 	
 436.89758 	 0.22163075 	 500.107 	
 437.9527 	 0.22213553 	 500.108 	
 438.87667 	 0.22259159 	 500.108 	
 439.89014 	 0.22309488 	 500.107 	
 440.89742 	 0.22359358 	 500.109 	
 441.9032 	 0.22405854 	 500.109 	
 442.89813 	 0.22456779 	 500.113 	
 443.94399 	 0.22507854 	 500.107 	
 444.89111 	 0.22556351 	 500.107 	
 445.89842 	 0.22606254 	 500.11 	
 446.89337 	 0.22650519 	 500.11 	
 447.89911 	 0.22701555 	 500.108 	
 448.928 	 0.22750446 	 500.11 	
 449.89982 	 0.22797605 	 500.11 	
 450.86857 	 0.22844682 	 500.111 	
 451.92365 	 0.22897198 	 500.111 	
 452.94484 	 0.22944961 	 500.104 	
 453.90894 	 0.2299231 	 500.105 	
 454.92857 	 0.23041459 	 500.105 	
 455.86332 	 0.23088655 	 500.105 	
 456.91386 	 0.23138832 	 500.105 	
 457.9011 	 0.23185941 	 500.104 	
 458.91302 	 0.23236871 	 500.105 	
 459.93418 	 0.23286224 	 500.105 	
 460.90908 	 0.23334192 	 500.104 	
 461.9071 	 0.23380509 	 500.105 	
 462.91597 	 0.23432269 	 500.103 	
 463.89396 	 0.23478693 	 500.104 	
 464.91359 	 0.23526263 	 500.106 	
 465.91933 	 0.23579167 	 500.105 	
 466.87417 	 0.23621667 	 500.105 	
 467.93547 	 0.23673367 	 500.105 	
 468.89956 	 0.23721697 	 500.107 	
 469.88062 	 0.2376785 	 500.107 	
 470.91571 	 0.23819277 	 500.103 	
 471.91833 	 0.23868818 	 500.107 	
 472.90867 	 0.23917679 	 500.103 	
 473.92676 	 0.23965263 	 500.104 	
 474.85848 	 0.24010702 	 500.104 	
 475.93821 	 0.24062142 	 500.103 	
 476.91933 	 0.24109519 	 500.103 	
 477.9374 	 0.24159933 	 500.102 	
 478.87685 	 0.24206001 	 500.1 	
 479.94739 	 0.2425398 	 500.1 	
 480.90379 	 0.24303684 	 500.102 	
 481.88175 	 0.24350445 	 500.105 	
 482.91683 	 0.2440102 	 500.105 	
 483.86857 	 0.24448857 	 500.109 	
 484.91443 	 0.24494815 	 500.109 	
 485.90476 	 0.24545532 	 500.108 	
 486.89201 	 0.2459133 	 500.105 	
 487.88847 	 0.24642604 	 500.105 	
 488.91895 	 0.24690998 	 500.109 	
 489.88302 	 0.24739876 	 500.108 	
 490.89648 	 0.24787598 	 500.111 	
 491.88678 	 0.24831976 	 500.111 	
 492.91412 	 0.24884272 	 500.11 	
 493.91528 	 0.24932223 	 500.109 	
 494.89325 	 0.24977635 	 500.109 	
 495.88515 	 0.25025891 	 500.105 	
 496.91866 	 0.25072307 	 500.108 	
 497.94908 	 0.2512444 	 500.11 	
 498.87307 	 0.25176055 	 500.111 	
 499.92204 	 0.25219081 	 500.111 	
 500.91233 	 0.25267105 	 500.109 	
 501.86719 	 0.25312463 	 500.11 	
 502.93311 	 0.25365627 	 500.106 	
 503.8679 	 0.25410938 	 500.111 	
 504.91064 	 0.25461236 	 500.111 	
 505.88869 	 0.25507635 	 500.112 	
 506.88485 	 0.2555725 	 500.112 	
 507.89935 	 0.2560487 	 500.114 	
 508.87215 	 0.25653801 	 500.114 	
 509.91896 	 0.25699713 	 500.114 	
 510.88719 	 0.25749147 	 500.112 	
 511.90781 	 0.25799303 	 500.112 	
 512.8961 	 0.25847257 	 500.113 	
 513.88584 	 0.25893684 	 500.113 	
 514.88487 	 0.25940374 	 500.113 	
 515.92712 	 0.25990597 	 500.113 	
 516.88914 	 0.26036828 	 500.113 	
 517.88045 	 0.2608334 	 500.113 	
 518.8795 	 0.26134039 	 500.113 	
 519.89394 	 0.26181465 	 500.113 	
 520.91915 	 0.26230217 	 500.116 	
 521.88737 	 0.26277429 	 500.113 	
 522.93266 	 0.26327254 	 500.116 	
 523.87622 	 0.26374491 	 500.116 	
 524.87986 	 0.26420318 	 500.117 	
 525.95907 	 0.26470871 	 500.114 	
 526.85024 	 0.26513271 	 500.114 	
 527.87388 	 0.26565582 	 500.115 	
 528.91152 	 0.26613194 	 500.109 	
 529.87042 	 0.26661195 	 500.109 	
 530.90342 	 0.2670824 	 500.111 	
 531.86855 	 0.26755911 	 500.111 	
 532.93693 	 0.26805536 	 500.111 	
 533.8928 	 0.26850791 	 500.111 	
 534.86873 	 0.26897851 	 500.113 	
 535.98029 	 0.26951482 	 500.114 	
 536.83907 	 0.26994717 	 500.111 	
 537.89207 	 0.27042568 	 500.113 	
 538.84947 	 0.2709233 	 500.114 	
 539.92253 	 0.2713855 	 500.114 	
 540.89689 	 0.27187875 	 500.114 	
 541.87901 	 0.27232148 	 500.113 	
 542.94118 	 0.27281649 	 500.115 	
 543.93099 	 0.27332333 	 500.111 	
 544.80672 	 0.27375398 	 500.111 	
 545.89819 	 0.27422699 	 500.108 	
 546.88182 	 0.27473241 	 500.112 	
 547.88243 	 0.27520584 	 500.112 	
 548.87225 	 0.27567274 	 500.113 	
 549.79879 	 0.27613115 	 500.113 	

	
	
