Start Time:  20/09/15 5:45:09 AM          Time Completed:  20/09/15 5:57:06 AM      Elapsed Time:  00:11:57
Sample ID:     2020-09-14_BM5B-66MG-F7_1100ox_after_press

Experiment:    C:\IDEASVSM\Inducat\Experiments\hys_c_550(1)_03s_master06\hys_c_550(1)_03s_master06.exp
Data File:     C:\IDEASVSM\Inducat\2020-09-14_BM5B-66MG-F7_1100ox_after_press (ProfileData)\2020-09-14_BM5B-66MG-F7_1100ox_after_press#64.txt
Plot File:     C:\IDEASVSM\Inducat\2020-09-14_BM5B-66MG-F7_1100ox_after_press (ProfileData)\2020-09-14_BM5B-66MG-F7_1100ox_after_press#64.oc2
VSM Exp File:  C:\IDEASVSM\Inducat\Experiments\hys_c_550(1)_03s_master06\hys_c_550(1)_03s_master06.stp
VSM Data File: C:\IDEASVSM\Inducat\2020-09-14_BM5B-66MG-F7_1100ox_after_press (ProfileData)\2020-09-14_BM5B-66MG-F7_1100ox_after_press#64.dat

***DATA***

Field(Oe)	 Moment(emu)	 Temperature(C)	
 549.84568 	 0.24174403 	 899.98 	
 549.00269 	 0.24176537 	 899.98 	
 548.02804 	 0.24134083 	 899.98 	
 546.99599 	 0.24092719 	 899.99 	
 546.01434 	 0.24051991 	 899.99 	
 544.96997 	 0.24005113 	 899.98 	
 543.99516 	 0.23970393 	 899.99 	
 542.99733 	 0.23929605 	 899.99 	
 541.98649 	 0.23890362 	 899.98 	
 540.98138 	 0.23845298 	 899.98 	
 540.02893 	 0.23810133 	 899.99 	
 538.99351 	 0.23772826 	 899.98 	
 538.01292 	 0.23730986 	 899.98 	
 536.96259 	 0.23687854 	 899.99 	
 536.02706 	 0.23650748 	 899.99 	
 535.02354 	 0.23607929 	 899.99 	
 534.00952 	 0.23572719 	 899.99 	
 533.00665 	 0.23530386 	 899.99 	
 532.00279 	 0.23488258 	 899.99 	
 531.01103 	 0.23450978 	 899.99 	
 530.01369 	 0.23409974 	 900 	
 528.98863 	 0.23372058 	 899.99 	
 528.02195 	 0.23328567 	 899.99 	
 527.00824 	 0.23292505 	 899.99 	
 526.04513 	 0.23252531 	 899.99 	
 524.98352 	 0.2320591 	 900 	
 524.01868 	 0.23170183 	 900 	
 523.04338 	 0.23128463 	 900 	
 522.03125 	 0.23089469 	 900.01 	
 521.02836 	 0.2304943 	 900.01 	
 520.03579 	 0.23006745 	 900 	
 519.01036 	 0.22970108 	 900.01 	
 518.03005 	 0.22925797 	 900.01 	
 517.00153 	 0.22887337 	 900.02 	
 516.06215 	 0.22845685 	 900.02 	
 515.02718 	 0.22807618 	 900.01 	
 514.01569 	 0.22768496 	 900.02 	
 513.03864 	 0.2272379 	 900.02 	
 512.03268 	 0.2268646 	 900.02 	
 511.05211 	 0.22649667 	 900.02 	
 510.02087 	 0.22602675 	 900.02 	
 509.02885 	 0.22565415 	 900.02 	
 508.05476 	 0.2252356 	 900.02 	
 507.0292 	 0.22483769 	 900.03 	
 506.03937 	 0.22442377 	 900.03 	
 505.02472 	 0.22403016 	 900.03 	
 504.03392 	 0.22364503 	 900.03 	
 503.0576 	 0.2232229 	 900.03 	
 502.0187 	 0.22281131 	 900.03 	
 501.05332 	 0.22240184 	 900.03 	
 500.04207 	 0.22198341 	 900.03 	
 499.03876 	 0.22160972 	 900.03 	
 498.0756 	 0.22119893 	 900.03 	
 497.02559 	 0.22077069 	 900.03 	
 496.07227 	 0.22038873 	 900.03 	
 495.03507 	 0.21994349 	 900.03 	
 494.05953 	 0.21956973 	 900.03 	
 493.07444 	 0.21916789 	 900.03 	
 492.0249 	 0.21874491 	 900.03 	
 491.05863 	 0.21831988 	 900.03 	
 490.07338 	 0.21795975 	 900.03 	
 489.05548 	 0.21754179 	 900.03 	
 488.08378 	 0.21711331 	 900.03 	
 487.04875 	 0.21669225 	 900.03 	
 486.07615 	 0.21630227 	 900.03 	
 485.07135 	 0.21588033 	 900.03 	
 484.02488 	 0.21547975 	 900.03 	
 483.08728 	 0.21506913 	 900.03 	
 482.06057 	 0.21464797 	 900.02 	
 481.09973 	 0.21429161 	 900.03 	
 480.07497 	 0.21385316 	 900.02 	
 479.05103 	 0.21344691 	 900.03 	
 478.07674 	 0.21300469 	 900.03 	
 477.06624 	 0.21261371 	 900.03 	
 476.08128 	 0.21223473 	 900.03 	
 475.08929 	 0.21179318 	 900.03 	
 474.07686 	 0.21141068 	 900.03 	
 473.09639 	 0.21100522 	 900.03 	
 472.07802 	 0.21056612 	 900.03 	
 471.06982 	 0.21015081 	 900.03 	
 470.07546 	 0.20972948 	 900.03 	
 469.09855 	 0.20934332 	 900.03 	
 468.09052 	 0.2089517 	 900.04 	
 467.07886 	 0.20852589 	 900.03 	
 466.10075 	 0.20814346 	 900.03 	
 465.06429 	 0.20767841 	 900.03 	
 464.08232 	 0.20729439 	 900.04 	
 463.11037 	 0.2068924 	 900.03 	
 462.08948 	 0.20646357 	 900.03 	
 461.1189 	 0.20608409 	 900.03 	
 460.08354 	 0.2056325 	 900.03 	
 459.07912 	 0.20521631 	 900.03 	
 458.11723 	 0.20481051 	 900.03 	
 457.08232 	 0.20440565 	 900.03 	
 456.10354 	 0.20399748 	 900.03 	
 455.10923 	 0.20358587 	 900.03 	
 454.08712 	 0.20316716 	 900.03 	
 453.11127 	 0.20272703 	 900.03 	
 452.09365 	 0.2023368 	 900.03 	
 451.12014 	 0.20193854 	 900.03 	
 450.09125 	 0.20146049 	 900.03 	
 449.09477 	 0.20110523 	 900.03 	
 448.11743 	 0.20066486 	 900.03 	
 447.10286 	 0.20027334 	 900.03 	
 446.12488 	 0.1998884 	 900.03 	
 445.08659 	 0.19941777 	 900.03 	
 444.09871 	 0.19903833 	 900.03 	
 443.14388 	 0.1986183 	 900.03 	
 442.11159 	 0.19821848 	 900.03 	
 441.12728 	 0.1978112 	 900.03 	
 440.12048 	 0.19736383 	 900.03 	
 439.0874 	 0.19694323 	 900.03 	
 438.13643 	 0.19653553 	 900.03 	
 437.13035 	 0.19614274 	 900.03 	
 436.11705 	 0.19571469 	 900.03 	
 435.15973 	 0.19528301 	 900.03 	
 434.1097 	 0.194902 	 900.03 	
 433.11334 	 0.19445588 	 900.03 	
 432.11843 	 0.1940464 	 900.03 	
 431.1583 	 0.19363067 	 900.03 	
 430.14626 	 0.19322889 	 900.03 	
 429.08173 	 0.19280209 	 900.03 	
 428.14032 	 0.19237158 	 900.03 	
 427.13104 	 0.19196448 	 900.04 	
 426.13883 	 0.19158504 	 900.04 	
 425.1346 	 0.19114672 	 900.04 	
 424.08504 	 0.1906795 	 900.03 	
 423.16164 	 0.19028625 	 900.03 	
 422.13462 	 0.18988473 	 900.04 	
 421.12982 	 0.18947443 	 900.04 	
 420.13393 	 0.18903835 	 900.04 	
 419.11833 	 0.18860898 	 900.03 	
 418.16207 	 0.18820306 	 900.03 	
 417.1241 	 0.18779293 	 900.03 	
 416.15383 	 0.1874147 	 900.03 	
 415.15238 	 0.18694127 	 900.03 	
 414.12689 	 0.18653385 	 900.03 	
 413.16785 	 0.18612649 	 900.03 	
 412.15798 	 0.18569585 	 900.03 	
 411.16722 	 0.18530558 	 900.03 	
 410.1389 	 0.18484688 	 900.03 	
 409.14317 	 0.1844613 	 900.03 	
 408.16689 	 0.18403758 	 900.03 	
 407.15159 	 0.1836065 	 900.03 	
 406.15369 	 0.18316887 	 900.03 	
 405.12974 	 0.18274071 	 900.03 	
 404.16149 	 0.18236095 	 900.02 	
 403.18066 	 0.18192668 	 900.02 	
 402.13881 	 0.18149497 	 900.02 	
 401.17915 	 0.1810709 	 900.02 	
 400.19812 	 0.18070581 	 900.02 	
 399.15842 	 0.18028723 	 900.02 	
 398.13294 	 0.1797876 	 900.02 	
 397.16748 	 0.17938252 	 900.03 	
 396.19409 	 0.17900074 	 900.03 	
 395.17616 	 0.17856373 	 900.03 	
 394.16623 	 0.178167 	 900.03 	
 393.16527 	 0.17769935 	 900.03 	
 392.19253 	 0.17730301 	 900.02 	
 391.17724 	 0.17690184 	 900.02 	
 390.17162 	 0.17643018 	 900.02 	
 389.15368 	 0.17603516 	 900.02 	
 388.20795 	 0.17560848 	 900.02 	
 387.18582 	 0.17520636 	 900.02 	
 386.1895 	 0.1747914 	 900.02 	
 385.1728 	 0.17432934 	 900.03 	
 384.19404 	 0.17395103 	 900.02 	
 383.20139 	 0.17351659 	 900.02 	
 382.18316 	 0.17308495 	 900.02 	
 381.16815 	 0.17266617 	 900.02 	
 380.21161 	 0.17224514 	 900.02 	
 379.17162 	 0.17180722 	 900.02 	
 378.20382 	 0.17140551 	 900.02 	
 377.18477 	 0.17096848 	 900.03 	
 376.16408 	 0.17055165 	 900.03 	
 375.20921 	 0.17010279 	 900.03 	
 374.20502 	 0.16971948 	 900.03 	
 373.21823 	 0.16929263 	 900.03 	
 372.16822 	 0.16885627 	 900.03 	
 371.1728 	 0.16841831 	 900.03 	
 370.21674 	 0.16798518 	 900.03 	
 369.20776 	 0.16759093 	 900.02 	
 368.19535 	 0.16716956 	 900.02 	
 367.19856 	 0.16672705 	 900.02 	
 366.19977 	 0.16630319 	 900.02 	
 365.22515 	 0.16589101 	 900.02 	
 364.19702 	 0.16548721 	 900.03 	
 363.21843 	 0.16502198 	 900.03 	
 362.18707 	 0.16459034 	 900.02 	
 361.22577 	 0.16421318 	 900.03 	
 360.22542 	 0.16376211 	 900.03 	
 359.18066 	 0.16332767 	 900.03 	
 358.24231 	 0.16290768 	 900.03 	
 357.20123 	 0.16248339 	 900.03 	
 356.24053 	 0.16207522 	 900.02 	
 355.21794 	 0.16161983 	 900.02 	
 354.21821 	 0.16122147 	 900.02 	
 353.24193 	 0.16080047 	 900.02 	
 352.20069 	 0.16034458 	 900.02 	
 351.20746 	 0.15990961 	 900.02 	
 350.2461 	 0.15950567 	 900.02 	
 349.22445 	 0.15907378 	 900.02 	
 348.26224 	 0.15865489 	 900.02 	
 347.17688 	 0.15819371 	 900.01 	
 346.22543 	 0.1577974 	 900.02 	
 345.23713 	 0.15735806 	 900.02 	
 344.22425 	 0.15694048 	 900.01 	
 343.23594 	 0.15650448 	 900.02 	
 342.24502 	 0.15609897 	 900.01 	
 341.23324 	 0.15564919 	 900.01 	
 340.24693 	 0.15524138 	 900.01 	
 339.24426 	 0.15479351 	 900.01 	
 338.24497 	 0.15439663 	 900.01 	
 337.21981 	 0.15392512 	 900.01 	
 336.23241 	 0.15350346 	 900.01 	
 335.23112 	 0.15308879 	 900.01 	
 334.25576 	 0.1526618 	 900.01 	
 333.26392 	 0.15225414 	 900.01 	
 332.25119 	 0.1517823 	 900.01 	
 331.2356 	 0.15138319 	 900.02 	
 330.25465 	 0.15093632 	 900.02 	
 329.22223 	 0.15048099 	 900.01 	
 328.27478 	 0.15008632 	 900.01 	
 327.25316 	 0.14963491 	 900.01 	
 326.24492 	 0.14920735 	 900.01 	
 325.2654 	 0.14877269 	 900.01 	
 324.23158 	 0.14834709 	 900.01 	
 323.2684 	 0.14791542 	 900.01 	
 322.24535 	 0.14750451 	 900.01 	
 321.23902 	 0.14707806 	 900.01 	
 320.30902 	 0.1466434 	 900.01 	
 319.23662 	 0.14621105 	 900.01 	
 318.28207 	 0.14577941 	 900.01 	
 317.272 	 0.14534348 	 900 	
 316.25995 	 0.14493581 	 900 	
 315.28103 	 0.14449416 	 900 	
 314.24953 	 0.14402641 	 900.01 	
 313.28741 	 0.14362719 	 900.01 	
 312.2835 	 0.14317368 	 900 	
 311.26033 	 0.14276238 	 900 	
 310.28003 	 0.14229573 	 900.01 	
 309.29696 	 0.14189833 	 900 	
 308.28179 	 0.14144379 	 900 	
 307.28223 	 0.14101368 	 900.01 	
 306.27138 	 0.140614 	 900.01 	
 305.28845 	 0.14014653 	 900 	
 304.27669 	 0.13971042 	 900 	
 303.29885 	 0.1393156 	 900 	
 302.25777 	 0.13884859 	 900 	
 301.29522 	 0.13844405 	 900.01 	
 300.31356 	 0.13801575 	 900.01 	
 299.29484 	 0.13757314 	 900.01 	
 298.29122 	 0.13714658 	 900.01 	
 297.2993 	 0.13671391 	 900 	
 296.29338 	 0.13629768 	 900.01 	
 295.29193 	 0.13583419 	 900.01 	
 294.29246 	 0.13539872 	 900 	
 293.31431 	 0.13499897 	 900 	
 292.2758 	 0.13452432 	 900.01 	
 291.29272 	 0.13412333 	 900 	
 290.31628 	 0.13368537 	 900 	
 289.28581 	 0.1332542 	 900 	
 288.33032 	 0.1328205 	 900 	
 287.25818 	 0.1323449 	 900.01 	
 286.31909 	 0.13193024 	 900.01 	
 285.33152 	 0.13149349 	 900.01 	
 284.27588 	 0.13104367 	 900 	
 283.32104 	 0.13062456 	 900 	
 282.30029 	 0.13019022 	 900 	
 281.27659 	 0.1297626 	 900.01 	
 280.32501 	 0.12929836 	 900.01 	
 279.31537 	 0.1289012 	 900.01 	
 278.34849 	 0.12844748 	 900.01 	
 277.29116 	 0.12801722 	 900.01 	
 276.33492 	 0.12758023 	 900.01 	
 275.30243 	 0.12711251 	 900.01 	
 274.30961 	 0.12671627 	 900.01 	
 273.34414 	 0.12627448 	 900.01 	
 272.33124 	 0.12585243 	 900.01 	
 271.35189 	 0.1254237 	 900.01 	
 270.32263 	 0.12496991 	 900.02 	
 269.31683 	 0.1245095 	 900.01 	
 268.33498 	 0.12407307 	 900.01 	
 267.3337 	 0.12365692 	 900.02 	
 266.34613 	 0.12323405 	 900.02 	
 265.32906 	 0.12275884 	 900.02 	
 264.33842 	 0.12235493 	 900.02 	
 263.36414 	 0.12192244 	 900.02 	
 262.29537 	 0.12144671 	 900.02 	
 261.31535 	 0.12099209 	 900.02 	
 260.34524 	 0.1205868 	 900.02 	
 259.33639 	 0.12015456 	 900.02 	
 258.3576 	 0.11972043 	 900.02 	
 257.34517 	 0.11927853 	 900.02 	
 256.35948 	 0.11883948 	 900.02 	
 255.33995 	 0.11837996 	 900.02 	
 254.368 	 0.1179707 	 900.02 	
 253.34507 	 0.11753458 	 900.02 	
 252.32833 	 0.1170718 	 900.02 	
 251.39404 	 0.11666296 	 900.02 	
 250.32912 	 0.11620568 	 900.02 	
 249.34479 	 0.11577092 	 900.02 	
 248.36694 	 0.11532636 	 900.02 	
 247.36011 	 0.11490704 	 900.02 	
 246.35988 	 0.11446755 	 900.02 	
 245.35579 	 0.1140155 	 900.02 	
 244.35573 	 0.11359363 	 900.02 	
 243.36292 	 0.11313887 	 900.02 	
 242.36747 	 0.11269335 	 900.02 	
 241.36646 	 0.11229161 	 900.01 	
 240.35512 	 0.11180842 	 900.01 	
 239.3583 	 0.11138719 	 900.02 	
 238.38249 	 0.11091944 	 900.02 	
 237.34304 	 0.11049479 	 900.01 	
 236.36212 	 0.11007334 	 900.01 	
 235.39079 	 0.10961781 	 900.01 	
 234.33049 	 0.10917151 	 900.02 	
 233.388 	 0.10872133 	 900.02 	
 232.35535 	 0.10831338 	 900.01 	
 231.37415 	 0.10786207 	 900.02 	
 230.36802 	 0.10741055 	 900.02 	
 229.37923 	 0.10698502 	 900.02 	
 228.3665 	 0.10654485 	 900.02 	
 227.38093 	 0.10608623 	 900.02 	
 226.36866 	 0.10565701 	 900.01 	
 225.40007 	 0.10520332 	 900.01 	
 224.38286 	 0.10477519 	 900.02 	
 223.39299 	 0.10433461 	 900.02 	
 222.40682 	 0.10388209 	 900.02 	
 221.38745 	 0.10344765 	 900.02 	
 220.39448 	 0.10299936 	 900.02 	
 219.36353 	 0.10257375 	 900.02 	
 218.36347 	 0.10211062 	 900.02 	
 217.40987 	 0.1016787 	 900.02 	
 216.38695 	 0.10123651 	 900.02 	
 215.39474 	 0.10079099 	 900.02 	
 214.36953 	 0.10033712 	 900.02 	
 213.38966 	 0.099912373 	 900.02 	
 212.41324 	 0.099474842 	 900.02 	
 211.36344 	 0.098995374 	 900.02 	
 210.42097 	 0.098585891 	 900.02 	
 209.36826 	 0.098109267 	 900.03 	
 208.38778 	 0.097676881 	 900.02 	
 207.41781 	 0.097240199 	 900.02 	
 206.37731 	 0.096799115 	 900.03 	
 205.41228 	 0.096346814 	 900.03 	
 204.3957 	 0.095907716 	 900.02 	
 203.38976 	 0.09547054 	 900.02 	
 202.41239 	 0.09500183 	 900.02 	
 201.40769 	 0.094570085 	 900.02 	
 200.43633 	 0.094116859 	 900.02 	
 199.406 	 0.093671796 	 900.03 	
 198.37891 	 0.093228333 	 900.03 	
 197.42332 	 0.092770384 	 900.03 	
 196.4129 	 0.092337005 	 900.03 	
 195.38966 	 0.091918719 	 900.03 	
 194.43745 	 0.09146645 	 900.03 	
 193.37518 	 0.090998913 	 900.03 	
 192.42359 	 0.090553922 	 900.03 	
 191.39974 	 0.090097323 	 900.03 	
 190.39458 	 0.089660037 	 900.03 	
 189.4314 	 0.089234577 	 900.03 	
 188.40109 	 0.088795446 	 900.03 	
 187.44764 	 0.088356103 	 900.03 	
 186.40233 	 0.087876778 	 900.03 	
 185.41585 	 0.087451069 	 900.03 	
 184.4184 	 0.086994611 	 900.03 	
 183.41124 	 0.086546001 	 900.02 	
 182.43524 	 0.086110101 	 900.02 	
 181.42484 	 0.085636561 	 900.02 	
 180.4362 	 0.085224631 	 900.02 	
 179.44941 	 0.084765117 	 900.02 	
 178.40024 	 0.08430191 	 900.01 	
 177.4272 	 0.083864414 	 900.02 	
 176.44025 	 0.083403127 	 900.02 	
 175.46811 	 0.082998865 	 900.02 	
 174.4168 	 0.082503312 	 900.02 	
 173.44761 	 0.082075791 	 900.02 	
 172.43719 	 0.081622671 	 900.02 	
 171.44515 	 0.081178144 	 900.02 	
 170.44848 	 0.080757408 	 900.02 	
 169.43513 	 0.080273428 	 900.02 	
 168.44803 	 0.079830464 	 900.02 	
 167.44164 	 0.079380325 	 900.02 	
 166.43601 	 0.078929192 	 900.01 	
 165.44846 	 0.078477812 	 900.02 	
 164.44853 	 0.078032325 	 900.02 	
 163.46621 	 0.077603031 	 900.01 	
 162.44345 	 0.077146998 	 900.01 	
 161.43535 	 0.076679992 	 900.02 	
 160.46075 	 0.076266604 	 900.02 	
 159.45437 	 0.075792144 	 900.01 	
 158.46325 	 0.075364734 	 900.02 	
 157.45176 	 0.074893714 	 900.02 	
 156.46866 	 0.074443327 	 900.01 	
 155.45997 	 0.073999014 	 900.01 	
 154.47578 	 0.073542909 	 900.01 	
 153.42292 	 0.073116242 	 900.02 	
 152.48314 	 0.072663937 	 900.02 	
 151.4111 	 0.072175737 	 900.01 	
 150.47124 	 0.071741751 	 900.01 	
 149.48243 	 0.071286251 	 900.01 	
 148.42628 	 0.070830292 	 900.01 	
 147.4923 	 0.070387468 	 900.01 	
 146.45255 	 0.069926749 	 900.01 	
 145.477 	 0.069502707 	 900.01 	
 144.47892 	 0.069029845 	 900.01 	
 143.43946 	 0.06857683 	 900.01 	
 142.47968 	 0.068104248 	 900.01 	
 141.48036 	 0.067691361 	 900.01 	
 140.48553 	 0.067258656 	 900.01 	
 139.47308 	 0.066776667 	 900.01 	
 138.43965 	 0.06628559 	 900.02 	
 137.50443 	 0.065880259 	 900.02 	
 136.47099 	 0.065408713 	 900.02 	
 135.47924 	 0.064969617 	 900.02 	
 134.50371 	 0.06451053 	 900.02 	
 133.44231 	 0.064052119 	 900.01 	
 132.48779 	 0.063596903 	 900.01 	
 131.46392 	 0.063142647 	 900.01 	
 130.50012 	 0.062705822 	 900.01 	
 129.48428 	 0.062249472 	 900.01 	
 128.44482 	 0.061781153 	 900.01 	
 127.50604 	 0.061329099 	 900.01 	
 126.4868 	 0.060877075 	 900.01 	
 125.47993 	 0.060437166 	 900.01 	
 124.48062 	 0.059958977 	 900.01 	
 123.48068 	 0.059523927 	 900.01 	
 122.51286 	 0.059081849 	 900.01 	
 121.46335 	 0.058570176 	 900 	
 120.50497 	 0.058159486 	 900.01 	
 119.4913 	 0.057703385 	 900.01 	
 118.47654 	 0.057239078 	 900.01 	
 117.50951 	 0.05679952 	 900.01 	
 116.51915 	 0.056328006 	 900.01 	
 115.49591 	 0.055888877 	 900.01 	
 114.48593 	 0.055414349 	 900.01 	
 113.47612 	 0.05494397 	 900.01 	
 112.53534 	 0.054521031 	 900 	
 111.48306 	 0.054032899 	 900.01 	
 110.4961 	 0.053586419 	 900 	
 109.50776 	 0.053150519 	 900.01 	
 108.50643 	 0.052681846 	 900.01 	
 107.52766 	 0.052252764 	 900.01 	
 106.47013 	 0.051743291 	 900 	
 105.51297 	 0.051312967 	 900 	
 104.51212 	 0.050847951 	 900 	
 103.51296 	 0.050409139 	 900 	
 102.53881 	 0.049968163 	 900 	
 101.49318 	 0.049482373 	 900 	
 100.51967 	 0.049027939 	 900 	
 99.513194 	 0.048569989 	 900 	
 98.504598 	 0.048097623 	 900 	
 97.501714 	 0.047662504 	 900 	
 96.53358 	 0.047179734 	 900 	
 95.504456 	 0.046739254 	 900 	
 94.527044 	 0.046267244 	 900 	
 93.517832 	 0.045818453 	 900 	
 92.550308 	 0.045390046 	 900 	
 91.48614 	 0.044885901 	 900 	
 90.524628 	 0.044453622 	 900.01 	
 89.554016 	 0.044000466 	 900.01 	
 88.527974 	 0.043541132 	 900 	
 87.512283 	 0.043047104 	 900.01 	
 86.565913 	 0.04260666 	 900 	
 85.52181 	 0.042150166 	 900.01 	
 84.526026 	 0.041678296 	 900.01 	
 83.523926 	 0.041219458 	 900.01 	
 82.540181 	 0.040766765 	 900.01 	
 81.510284 	 0.040296884 	 900.01 	
 80.535197 	 0.039848023 	 900.02 	
 79.547755 	 0.039383611 	 900.02 	
 78.521708 	 0.038919412 	 900.02 	
 77.562063 	 0.038454751 	 900.02 	
 76.537415 	 0.037994882 	 900.02 	
 75.516935 	 0.037526671 	 900.03 	
 74.54585 	 0.037044149 	 900.03 	
 73.520119 	 0.036595075 	 900.04 	
 72.574827 	 0.036159319 	 900.04 	
 71.496447 	 0.035670725 	 900.04 	
 70.543126 	 0.03521487 	 900.04 	
 69.555224 	 0.034768886 	 900.04 	
 68.534429 	 0.034294141 	 900.04 	
 67.56351 	 0.033816199 	 900.04 	
 66.546272 	 0.033347348 	 900.04 	
 65.522087 	 0.032885741 	 900.04 	
 64.567378 	 0.03243269 	 900.04 	
 63.534388 	 0.031961603 	 900.05 	
 62.568714 	 0.031509442 	 900.04 	
 61.550858 	 0.031026812 	 900.05 	
 60.540105 	 0.030588321 	 900.04 	
 59.558062 	 0.030086234 	 900.04 	
 58.55102 	 0.029615999 	 900.05 	
 57.563421 	 0.029175519 	 900.05 	
 56.553131 	 0.028714975 	 900.05 	
 55.555497 	 0.028257523 	 900.05 	
 54.588436 	 0.027778624 	 900.05 	
 53.532595 	 0.027288469 	 900.06 	
 52.591938 	 0.026861235 	 900.06 	
 51.536877 	 0.026367598 	 900.06 	
 50.561773 	 0.025912027 	 900.06 	
 49.561185 	 0.025438773 	 900.06 	
 48.567314 	 0.024979545 	 900.06 	
 47.581782 	 0.024511546 	 900.06 	
 46.583272 	 0.024034244 	 900.06 	
 45.55866 	 0.023556977 	 900.06 	
 44.620255 	 0.023081806 	 900.06 	
 43.512675 	 0.022609972 	 900.07 	
 42.57844 	 0.022149359 	 900.07 	
 41.57576 	 0.021675323 	 900.07 	
 40.55439 	 0.021203668 	 900.06 	
 39.603465 	 0.020742948 	 900.06 	
 38.556137 	 0.020256839 	 900.06 	
 37.59641 	 0.019798179 	 900.06 	
 36.587708 	 0.019329755 	 900.06 	
 35.583791 	 0.018868218 	 900.06 	
 34.562263 	 0.018363823 	 900.06 	
 33.576736 	 0.017889397 	 900.06 	
 32.604342 	 0.017447248 	 900.06 	
 31.571381 	 0.016941398 	 900.05 	
 30.553098 	 0.016451419 	 900.05 	
 29.612066 	 0.016025178 	 900.05 	
 28.591929 	 0.0155559 	 900.05 	
 27.583537 	 0.015060489 	 900.05 	
 26.585027 	 0.014568274 	 900.05 	
 25.663305 	 0.014105069 	 900.05 	
 24.508755 	 0.013656422 	 900.05 	
 23.461425 	 0.013055232 	 900.05 	
 22.592386 	 0.012624872 	 900.05 	
 21.618755 	 0.012175798 	 900.05 	
 20.578688 	 0.011688412 	 900.04 	
 19.590225 	 0.011208802 	 900.04 	
 18.580748 	 0.010729654 	 900.04 	
 17.610051 	 0.010275432 	 900.04 	
 16.595322 	 0.0097699718 	 900.04 	
 15.576114 	 0.0092946584 	 900.04 	
 14.614223 	 0.0087918616 	 900.04 	
 13.592388 	 0.0083248924 	 900.04 	
 12.608249 	 0.0078388552 	 900.04 	
 11.587959 	 0.0073162445 	 900.04 	
 10.617107 	 0.0068641536 	 900.04 	
 9.618137 	 0.0063954093 	 900.04 	
 8.5505708 	 0.005849967 	 900.04 	
 7.6422898 	 0.0053898863 	 900.04 	
 6.5889371 	 0.0048797036 	 900.04 	
 5.6319903 	 0.0044175991 	 900.04 	
 4.6277676 	 0.0038890943 	 900.03 	
 3.6033062 	 0.0033857291 	 900.03 	
 2.6463588 	 0.0029029944 	 900.03 	
 1.609692 	 0.0023845737 	 900.04 	
 0.5934184 	 0.0018791492 	 900.04 	
-0.37811582 	 0.0013868627 	 900.04 	
-1.4223329 	 0.00086318693 	 900.04 	
-2.3724069 	 0.00035889866 	 900.04 	
-3.3931652 	-0.00015710737 	 900.04 	
-4.3846005 	-0.00066672199 	 900.03 	
-5.3874564 	-0.001192706 	 900.03 	
-6.3878427 	-0.0016865371 	 900.04 	
-7.3734131 	-0.0021990456 	 900.04 	
-8.3830595 	-0.0026968892 	 900.03 	
-9.3874588 	-0.0032163927 	 900.03 	
-10.393402 	-0.003741862 	 900.03 	
-11.38175 	-0.0042374154 	 900.03 	
-12.335528 	-0.004747527 	 900.03 	
-13.391474 	-0.0052681848 	 900.02 	
-14.384144 	-0.0057702005 	 900.02 	
-15.359836 	-0.0062626292 	 900.02 	
-16.390163 	-0.0067778184 	 900.03 	
-17.349497 	-0.0072623996 	 900.03 	
-18.383529 	-0.0077705049 	 900.03 	
-19.341629 	-0.0082344028 	 900.02 	
-20.401587 	-0.0087726903 	 900.02 	
-21.376355 	-0.0092521762 	 900.03 	
-22.344023 	-0.0097142983 	 900.03 	
-23.353361 	-0.010200975 	 900.04 	
-24.372575 	-0.010689604 	 900.03 	
-25.34148 	-0.011190164 	 900.03 	
-26.383227 	-0.011704856 	 900.03 	
-27.349045 	-0.012172251 	 900.03 	
-28.372274 	-0.012651293 	 900.03 	
-29.352595 	-0.013118404 	 900.03 	
-30.37397 	-0.013625196 	 900.03 	
-31.354914 	-0.014116649 	 900.03 	
-32.328753 	-0.014567729 	 900.03 	
-33.343648 	-0.015069549 	 900.03 	
-34.376444 	-0.015549976 	 900.02 	
-35.346891 	-0.016033456 	 900.02 	
-36.345423 	-0.016499911 	 900.02 	
-37.319883 	-0.01697091 	 900.02 	
-38.369965 	-0.01748317 	 900.03 	
-39.344114 	-0.017937498 	 900.02 	
-40.320427 	-0.018399496 	 900.02 	
-41.356621 	-0.018888338 	 900.02 	
-42.317802 	-0.019352928 	 900.02 	
-43.390109 	-0.019871171 	 900.02 	
-44.313021 	-0.020298531 	 900.03 	
-45.349831 	-0.020774448 	 900.03 	
-46.340647 	-0.02125571 	 900.02 	
-47.312635 	-0.021698338 	 900.02 	
-48.36426 	-0.022222085 	 900.03 	
-49.335014 	-0.022660878 	 900.02 	
-50.308998 	-0.023115437 	 900.02 	
-51.364927 	-0.023625531 	 900.02 	
-52.327624 	-0.024077907 	 900.03 	
-53.331704 	-0.024536921 	 900.03 	
-54.326824 	-0.025000517 	 900.03 	
-55.313605 	-0.025463652 	 900.03 	
-56.384084 	-0.025967071 	 900.03 	
-57.332882 	-0.026409272 	 900.02 	
-58.311939 	-0.026889805 	 900.02 	
-59.331154 	-0.027345802 	 900.02 	
-60.327516 	-0.02781089 	 900.02 	
-61.321711 	-0.02828578 	 900.03 	
-62.323935 	-0.028758502 	 900.03 	
-63.295274 	-0.029216256 	 900.03 	
-64.357719 	-0.029700642 	 900.03 	
-65.289528 	-0.03015062 	 900.03 	
-66.320778 	-0.030602357 	 900.03 	
-67.31591 	-0.03107886 	 900.03 	
-68.317515 	-0.031559517 	 900.03 	
-69.304298 	-0.032019029 	 900.03 	
-70.304362 	-0.032471849 	 900.03 	
-71.321719 	-0.03297445 	 900.03 	
-72.291827 	-0.033392916 	 900.03 	
-73.343465 	-0.033862423 	 900.02 	
-74.323758 	-0.034325877 	 900.02 	
-75.323522 	-0.034814685 	 900.02 	
-76.316798 	-0.035282487 	 900.03 	
-77.287211 	-0.035723552 	 900.03 	
-78.299011 	-0.036214277 	 900.03 	
-79.324712 	-0.036670541 	 900.02 	
-80.28153 	-0.037126521 	 900.02 	
-81.303523 	-0.03758005 	 900.02 	
-82.301122 	-0.038032052 	 900.02 	
-83.321253 	-0.038532683 	 900.03 	
-84.323786 	-0.038976447 	 900.02 	
-85.284322 	-0.039449915 	 900.02 	
-86.307546 	-0.039921783 	 900.02 	
-87.277959 	-0.040367768 	 900.02 	
-88.307988 	-0.040861634 	 900.03 	
-89.300939 	-0.041279832 	 900.03 	
-90.279388 	-0.041749412 	 900.03 	
-91.317123 	-0.042229892 	 900.02 	
-92.277339 	-0.042675663 	 900.02 	
-93.290075 	-0.043153462 	 900.02 	
-94.294149 	-0.043616223 	 900.02 	
-95.293294 	-0.044090844 	 900.02 	
-96.310649 	-0.044556678 	 900.02 	
-97.269323 	-0.044985741 	 900.03 	
-98.30984 	-0.04547675 	 900.03 	
-99.268209 	-0.045912845 	 900.02 	
-100.26827 	-0.04636048 	 900.03 	
-101.29366 	-0.04683574 	 900.03 	
-102.25906 	-0.047296459 	 900.03 	
-103.30134 	-0.047779798 	 900.03 	
-104.27415 	-0.048211188 	 900.03 	
-105.26393 	-0.0486813 	 900.03 	
-106.28367 	-0.049131882 	 900.02 	
-107.27965 	-0.049594163 	 900.03 	
-108.26634 	-0.050061346 	 900.03 	
-109.27465 	-0.050531794 	 900.03 	
-110.28452 	-0.051004623 	 900.02 	
-111.2604 	-0.051413854 	 900.03 	
-112.25606 	-0.051873066 	 900.03 	
-113.27333 	-0.052358535 	 900.02 	
-114.28227 	-0.052812331 	 900.03 	
-115.25538 	-0.053275749 	 900.03 	
-116.29304 	-0.053740392 	 900.03 	
-117.26646 	-0.054195342 	 900.03 	
-118.27383 	-0.054668186 	 900.03 	
-119.25993 	-0.055125231 	 900.03 	
-120.24848 	-0.055559851 	 900.03 	
-121.29879 	-0.056051347 	 900.03 	
-122.26882 	-0.05648311 	 900.02 	
-123.25026 	-0.056938909 	 900.02 	
-124.26445 	-0.057394073 	 900.02 	
-125.27586 	-0.057862249 	 900.02 	
-126.26904 	-0.058311393 	 900.02 	
-127.24093 	-0.058736872 	 900.02 	
-128.26251 	-0.059227471 	 900.02 	
-129.2804 	-0.059685884 	 900.02 	
-130.23251 	-0.060133766 	 900.02 	
-131.24082 	-0.060594309 	 900.02 	
-132.27077 	-0.061038587 	 900.02 	
-133.25407 	-0.061506124 	 900.02 	
-134.26764 	-0.061970129 	 900.02 	
-135.22901 	-0.062412864 	 900.02 	
-136.25183 	-0.062868401 	 900.02 	
-137.24935 	-0.063320119 	 900.02 	
-138.22647 	-0.063776044 	 900.02 	
-139.28203 	-0.064245215 	 900.02 	
-140.22581 	-0.064686192 	 900.02 	
-141.2508 	-0.065147943 	 900.02 	
-142.25911 	-0.065597103 	 900.02 	
-143.26835 	-0.066079109 	 900.02 	
-144.23221 	-0.066510375 	 900.02 	
-145.20779 	-0.06696703 	 900.02 	
-146.2683 	-0.067429383 	 900.02 	
-147.24449 	-0.067892089 	 900.02 	
-148.2284 	-0.068333975 	 900.02 	
-149.24784 	-0.068789085 	 900.02 	
-150.20828 	-0.069235227 	 900.02 	
-151.27901 	-0.069732379 	 900.02 	
-152.23833 	-0.070150345 	 900.02 	
-153.2202 	-0.070603556 	 900.02 	
-154.23697 	-0.071060493 	 900.02 	
-155.21822 	-0.071496713 	 900.02 	
-156.22759 	-0.071950419 	 900.01 	
-157.24867 	-0.072438976 	 900.02 	
-158.21078 	-0.072866141 	 900.02 	
-159.21243 	-0.07329762 	 900.02 	
-160.2079 	-0.073752515 	 900.02 	
-161.24721 	-0.074251568 	 900.02 	
-162.2022 	-0.07468081 	 900.02 	
-163.19396 	-0.075129776 	 900.02 	
-164.25181 	-0.07558691 	 900.02 	
-165.21146 	-0.076036019 	 900.01 	
-166.20012 	-0.076484787 	 900.01 	
-167.23264 	-0.076948722 	 900.01 	
-168.20772 	-0.077394901 	 900.02 	
-169.22171 	-0.077838044 	 900.01 	
-170.2042 	-0.078292512 	 900.01 	
-171.21326 	-0.078755988 	 900.01 	
-172.23065 	-0.07920467 	 900.01 	
-173.19027 	-0.079642433 	 900.01 	
-174.20458 	-0.080111834 	 900.01 	
-175.19479 	-0.080552083 	 900.01 	
-176.21805 	-0.08101408 	 900.01 	
-177.24966 	-0.081452734 	 900.01 	
-178.18024 	-0.081917161 	 900.01 	
-179.22729 	-0.082376868 	 900.01 	
-180.18322 	-0.082781184 	 900.01 	
-181.22471 	-0.083280378 	 900.01 	
-182.21923 	-0.083709815 	 900.01 	
-183.19307 	-0.084162901 	 900.01 	
-184.19626 	-0.084602385 	 900.01 	
-185.18307 	-0.085044925 	 900.01 	
-186.23259 	-0.085532682 	 900.01 	
-187.20302 	-0.085959564 	 900 	
-188.17966 	-0.086384883 	 900 	
-189.20198 	-0.086865646 	 900.01 	
-190.17148 	-0.087289613 	 900.01 	
-191.20093 	-0.087758466 	 900.01 	
-192.22142 	-0.088215955 	 900.01 	
-193.1545 	-0.088654783 	 900.01 	
-194.18208 	-0.089106004 	 900.01 	
-195.1627 	-0.089534483 	 900.01 	
-196.22641 	-0.090009352 	 900.01 	
-197.18297 	-0.090453578 	 900.01 	
-198.17102 	-0.090892744 	 900.01 	
-199.19705 	-0.09134324 	 900.01 	
-200.1913 	-0.091788157 	 900.01 	
-201.18583 	-0.092242521 	 900.01 	
-202.19766 	-0.092691522 	 900.01 	
-203.14771 	-0.093141539 	 900.01 	
-204.16788 	-0.09358917 	 900.01 	
-205.20195 	-0.094012997 	 900.01 	
-206.16778 	-0.094483376 	 900.01 	
-207.20431 	-0.09494131 	 900 	
-208.15869 	-0.095361798 	 900 	
-209.18595 	-0.095828982 	 900 	
-210.14839 	-0.096252094 	 900 	
-211.17905 	-0.096733198 	 900 	
-212.18656 	-0.097167695 	 900 	
-213.13971 	-0.097599421 	 900 	
-214.17933 	-0.098070172 	 900.01 	
-215.16306 	-0.09851715 	 900.01 	
-216.15759 	-0.098950724 	 900 	
-217.17653 	-0.099398784 	 900 	
-218.17971 	-0.099866679 	 900 	
-219.13224 	-0.10028624 	 900 	
-220.16414 	-0.10071538 	 899.99 	
-221.1587 	-0.10118039 	 899.99 	
-222.1662 	-0.10162204 	 900 	
-223.149 	-0.1020624 	 900 	
-224.16701 	-0.10251762 	 899.99 	
-225.14827 	-0.10293367 	 900 	
-226.14495 	-0.1033962 	 900 	
-227.17346 	-0.10384973 	 899.99 	
-228.12818 	-0.10428921 	 899.99 	
-229.16783 	-0.10473953 	 900 	
-230.16231 	-0.10520007 	 900 	
-231.13094 	-0.10564469 	 900 	
-232.15851 	-0.10607366 	 900 	
-233.1453 	-0.10651208 	 900 	
-234.15407 	-0.10696876 	 900 	
-235.131 	-0.1074008 	 900 	
-236.15887 	-0.10785632 	 900 	
-237.14815 	-0.10829391 	 899.99 	
-238.11304 	-0.1087355 	 899.99 	
-239.15855 	-0.10920192 	 899.99 	
-240.12069 	-0.10960872 	 900 	
-241.14669 	-0.11006527 	 900 	
-242.14246 	-0.11051695 	 899.99 	
-243.11013 	-0.11094537 	 899.99 	
-244.15409 	-0.1114211 	 899.99 	
-245.12423 	-0.11184385 	 900 	
-246.13574 	-0.11228721 	 899.99 	
-247.15438 	-0.11273703 	 900 	
-248.10567 	-0.11317505 	 900 	
-249.14067 	-0.11362745 	 900 	
-250.14105 	-0.11406106 	 900 	
-251.11119 	-0.11449572 	 900 	
-252.16347 	-0.11497306 	 900 	
-253.11108 	-0.11538469 	 900 	
-254.1405 	-0.11583212 	 900 	
-255.11251 	-0.11625913 	 900 	
-256.12063 	-0.11669837 	 900 	
-257.13802 	-0.11718393 	 900 	
-258.11031 	-0.11758937 	 900 	
-259.15179 	-0.11804758 	 900 	
-260.12069 	-0.11846743 	 900 	
-261.10844 	-0.11891209 	 900 	
-262.11749 	-0.11936539 	 900 	
-263.11973 	-0.11980982 	 900 	
-264.12199 	-0.12025402 	 900 	
-265.10728 	-0.12067089 	 900 	
-266.13332 	-0.12113752 	 900 	
-267.11825 	-0.12157825 	 900 	
-268.07943 	-0.12198377 	 900 	
-269.1049 	-0.1224241 	 900 	
-270.09414 	-0.12289515 	 900 	
-271.10722 	-0.12333555 	 900 	
-272.09619 	-0.12379519 	 900 	
-273.08858 	-0.12419448 	 900 	
-274.13991 	-0.12464689 	 900 	
-275.12396 	-0.12506186 	 900 	
-276.07434 	-0.12552662 	 900 	
-277.09668 	-0.12597224 	 900 	
-278.08472 	-0.12639718 	 900 	
-279.10518 	-0.12684817 	 900 	
-280.09912 	-0.12727725 	 900 	
-281.06862 	-0.12768899 	 900 	
-282.13452 	-0.12816482 	 900 	
-283.06852 	-0.12859268 	 900 	
-284.08004 	-0.12903298 	 900 	
-285.07644 	-0.12946146 	 900 	
-286.09163 	-0.12991992 	 900 	
-287.0899 	-0.13035721 	 900 	
-288.10789 	-0.13080081 	 900 	
-289.0663 	-0.13121894 	 900 	
-290.08956 	-0.13166881 	 900 	
-291.06093 	-0.13210774 	 900 	
-292.08046 	-0.13253549 	 900 	
-293.07843 	-0.13297752 	 900 	
-294.0816 	-0.13341903 	 900 	
-295.10022 	-0.1338553 	 900 	
-296.0614 	-0.1342937 	 900 	
-297.08498 	-0.13472925 	 900 	
-298.04368 	-0.13515668 	 900.01 	
-299.08516 	-0.13560575 	 899.99 	
-300.07751 	-0.13603945 	 899.99 	
-301.05941 	-0.13647576 	 899.99 	
-302.0734 	-0.13691743 	 899.99 	
-303.071 	-0.13734882 	 900 	
-304.10229 	-0.13780237 	 900 	
-305.06655 	-0.13821705 	 900 	
-306.04539 	-0.13864966 	 900 	
-307.08476 	-0.13911882 	 900 	
-308.06264 	-0.13953508 	 900 	
-309.06959 	-0.1399681 	 900 	
-310.05276 	-0.14039967 	 899.99 	
-311.03901 	-0.1408284 	 899.99 	
-312.08826 	-0.14129187 	 900 	
-313.04081 	-0.14168802 	 900 	
-314.06014 	-0.14214918 	 899.99 	
-315.0544 	-0.14257324 	 899.99 	
-316.05946 	-0.14301904 	 899.99 	
-317.05434 	-0.14345198 	 900 	
-318.05048 	-0.14389297 	 900 	
-319.04939 	-0.14432685 	 900 	
-320.0381 	-0.14476059 	 900 	
-321.0271 	-0.1451911 	 900 	
-322.07111 	-0.14563966 	 900 	
-323.04561 	-0.14606359 	 900 	
-324.03931 	-0.14650445 	 900 	
-325.03756 	-0.14691895 	 900 	
-326.03246 	-0.14735638 	 900 	
-327.06656 	-0.14781372 	 900 	
-328.01144 	-0.14821014 	 900 	
-329.04646 	-0.1486778 	 900 	
-330.04969 	-0.14909277 	 900 	
-331.02791 	-0.14953731 	 900 	
-332.00209 	-0.14996565 	 900 	
-333.02325 	-0.15038406 	 900 	
-334.06198 	-0.15084044 	 900 	
-335.03526 	-0.15126012 	 900 	
-335.99555 	-0.15169605 	 900 	
-337.07108 	-0.15215908 	 900 	
-338.01036 	-0.15254941 	 900 	
-339.04261 	-0.15298965 	 899.99 	
-340.0511 	-0.15342052 	 899.99 	
-341.0046 	-0.15387067 	 899.99 	
-342.03472 	-0.15429501 	 899.99 	
-343.00335 	-0.15472299 	 899.99 	
-344.06371 	-0.15519405 	 899.99 	
-345.00671 	-0.15559697 	 899.99 	
-346.00996 	-0.15603172 	 899.99 	
-347.0521 	-0.15647208 	 899.99 	
-348.00405 	-0.15685193 	 899.99 	
-349.03384 	-0.15734299 	 899.99 	
-350.01019 	-0.15775502 	 900 	
-351.02115 	-0.15818601 	 900 	
-352.0247 	-0.15860958 	 899.99 	
-352.99023 	-0.15904293 	 899.99 	
-354.02466 	-0.15949589 	 900 	
-355.00009 	-0.15988848 	 900 	
-356.02184 	-0.16034756 	 900 	
-357.00686 	-0.16079233 	 899.99 	
-357.99772 	-0.16119821 	 899.99 	
-358.99571 	-0.16162697 	 899.99 	
-360.01255 	-0.16207068 	 900 	
-360.99257 	-0.16248959 	 900 	
-361.99244 	-0.16291482 	 900 	
-362.99194 	-0.16332638 	 900 	
-364.01926 	-0.16378692 	 900 	
-365.00799 	-0.16421916 	 900 	
-365.984 	-0.16464345 	 900 	
-367.00854 	-0.16507994 	 900 	
-367.99819 	-0.16550264 	 900.01 	
-368.98447 	-0.16592899 	 900.01 	
-369.99476 	-0.16634481 	 900.01 	
-370.98133 	-0.16678178 	 900.01 	
-372.00588 	-0.16724539 	 900 	
-372.96307 	-0.16761006 	 899.99 	
-374.00182 	-0.16808376 	 899.99 	
-375.0044 	-0.16850515 	 900 	
-375.97061 	-0.16892132 	 900 	
-376.99638 	-0.16936402 	 899.99 	
-377.96965 	-0.16977057 	 899.99 	
-378.97103 	-0.17020997 	 900 	
-379.98658 	-0.17063478 	 900 	
-380.97344 	-0.17108465 	 900 	
-381.9736 	-0.17149588 	 900 	
-382.97777 	-0.17190807 	 900 	
-383.98903 	-0.17235377 	 900 	
-384.97402 	-0.17279075 	 900 	
-385.97046 	-0.17320818 	 899.99 	
-386.97584 	-0.17364607 	 900 	
-387.96115 	-0.17404272 	 900 	
-388.97458 	-0.17450809 	 900 	
-389.99418 	-0.17491604 	 900 	
-390.97085 	-0.17533079 	 900 	
-391.99633 	-0.17576073 	 900 	
-392.96651 	-0.17620922 	 900 	
-393.95983 	-0.17662901 	 899.99 	
-394.95226 	-0.17703735 	 899.99 	
-395.97465 	-0.17748191 	 899.99 	
-396.96029 	-0.17789002 	 900 	
-397.95949 	-0.17829739 	 900 	
-398.9439 	-0.17873778 	 899.99 	
-399.96471 	-0.17919055 	 899.99 	
-400.9491 	-0.17959871 	 899.99 	
-401.96623 	-0.18003284 	 899.99 	
-402.90892 	-0.18044284 	 899.99 	
-403.9455 	-0.18088852 	 900 	
-404.9407 	-0.18129729 	 900 	
-405.94181 	-0.18171438 	 900 	
-406.98706 	-0.18217043 	 900 	
-407.92078 	-0.18256118 	 900 	
-408.97992 	-0.18302984 	 900 	
-409.95199 	-0.18343311 	 900 	
-410.90735 	-0.18381986 	 900 	
-411.94822 	-0.18426271 	 900 	
-412.95361 	-0.18468041 	 900 	
-413.93492 	-0.18512215 	 900 	
-414.95542 	-0.18556586 	 900 	
-415.91701 	-0.18594269 	 900 	
-416.93471 	-0.18639695 	 900 	
-417.93518 	-0.186794 	 900 	
-418.94271 	-0.18724702 	 899.99 	
-419.95335 	-0.18770179 	 900 	
-420.91154 	-0.18807807 	 900 	
-421.92554 	-0.18849605 	 900 	
-422.9059 	-0.18891963 	 900 	
-423.96566 	-0.18939237 	 900 	
-424.93062 	-0.18978255 	 899.99 	
-425.9116 	-0.19021881 	 899.99 	
-426.96297 	-0.19064349 	 899.99 	
-427.92916 	-0.19104264 	 899.99 	
-428.91292 	-0.19147388 	 899.99 	
-429.92485 	-0.19190909 	 900 	
-430.93327 	-0.19233303 	 900 	
-431.90873 	-0.19272848 	 899.99 	
-432.90765 	-0.19314514 	 900 	
-433.89756 	-0.19356542 	 899.99 	
-434.928 	-0.19401553 	 899.99 	
-435.92596 	-0.19445198 	 899.99 	
-436.88841 	-0.19483877 	 899.99 	
-437.90495 	-0.19522111 	 899.99 	
-438.93286 	-0.19569509 	 900 	
-439.89256 	-0.19612343 	 900 	
-440.90749 	-0.19651728 	 900 	
-441.92281 	-0.19696607 	 899.99 	
-442.92419 	-0.19738875 	 900 	
-443.91846 	-0.19779405 	 900 	
-444.93958 	-0.19822339 	 900 	
-445.8727 	-0.19861816 	 900 	
-446.91178 	-0.19905044 	 900 	
-447.89463 	-0.19946214 	 900 	
-448.91331 	-0.19989896 	 900 	
-449.9199 	-0.20032943 	 900 	
-450.88112 	-0.20074838 	 900 	
-451.91276 	-0.20115973 	 900.01 	
-452.91972 	-0.20158836 	 900 	
-453.89331 	-0.20199108 	 900.01 	
-454.90674 	-0.20242684 	 900.01 	
-455.86916 	-0.20282433 	 900.01 	
-456.92739 	-0.20327554 	 900.01 	
-457.8843 	-0.2036717 	 900.01 	
-458.88904 	-0.20409285 	 900.01 	
-459.89168 	-0.20449752 	 900.01 	
-460.86833 	-0.20491873 	 900.01 	
-461.89349 	-0.20533725 	 900.01 	
-462.88157 	-0.20576711 	 900.01 	
-463.85057 	-0.20614975 	 900.01 	
-464.90535 	-0.20662574 	 900.01 	
-465.8857 	-0.2070142 	 900.01 	
-466.87321 	-0.20742201 	 900.01 	
-467.86654 	-0.20784032 	 900.02 	
-468.90002 	-0.20828103 	 900.02 	
-469.89555 	-0.20869289 	 900.01 	
-470.84412 	-0.20910919 	 900.01 	
-471.86896 	-0.2095387 	 900.02 	
-472.85398 	-0.20992472 	 900.01 	
-473.88902 	-0.21037988 	 900.01 	
-474.84652 	-0.21077788 	 900.01 	
-475.8726 	-0.2111951 	 900.01 	
-476.87767 	-0.21160078 	 900.01 	
-477.8936 	-0.21203926 	 900.01 	
-478.88261 	-0.21246019 	 900.01 	
-479.87626 	-0.21286525 	 900.01 	
-480.83315 	-0.21323812 	 900.01 	
-481.86879 	-0.21370722 	 900.01 	
-482.84829 	-0.21408853 	 900.01 	
-483.87744 	-0.21454053 	 900.01 	
-484.855 	-0.21493259 	 900.01 	
-485.86196 	-0.21533698 	 900 	
-486.8751 	-0.21578962 	 900.01 	
-487.85826 	-0.21620349 	 900 	
-488.84692 	-0.21662694 	 900 	
-489.84556 	-0.21701302 	 900.01 	
-490.85925 	-0.21745087 	 900.01 	
-491.86682 	-0.21786006 	 900.01 	
-492.86975 	-0.21825728 	 900.01 	
-493.84149 	-0.21867272 	 900.01 	
-494.86169 	-0.21907569 	 900.01 	
-495.83868 	-0.21948854 	 900.01 	
-496.86015 	-0.21991934 	 900 	
-497.87077 	-0.22035069 	 900 	
-498.83075 	-0.2207235 	 900.01 	
-499.84139 	-0.22115353 	 900.01 	
-500.83352 	-0.22156493 	 900.01 	
-501.87073 	-0.22199451 	 900 	
-502.8551 	-0.22238648 	 900 	
-503.82125 	-0.22279097 	 900 	
-504.85974 	-0.22322121 	 900 	
-505.8067 	-0.22360741 	 900 	
-506.85316 	-0.22405022 	 900 	
-507.82889 	-0.22443963 	 900 	
-508.82747 	-0.22487674 	 900 	
-509.86651 	-0.22530356 	 899.99 	
-510.82307 	-0.22570215 	 899.99 	
-511.83737 	-0.2261011 	 899.99 	
-512.83124 	-0.22651706 	 899.99 	
-513.82365 	-0.22692088 	 899.99 	
-514.8291 	-0.22736953 	 899.99 	
-515.83809 	-0.2277495 	 899.99 	
-516.83453 	-0.22817084 	 899.99 	
-517.83252 	-0.22857382 	 899.99 	
-518.78284 	-0.22897079 	 899.99 	
-519.83518 	-0.22941016 	 899.99 	
-520.82631 	-0.22981965 	 899.99 	
-521.81405 	-0.23019011 	 899.98 	
-522.82503 	-0.23062514 	 899.99 	
-523.81706 	-0.23105068 	 899.98 	
-524.82896 	-0.23145845 	 899.99 	
-525.76599 	-0.23183325 	 899.99 	
-526.85758 	-0.23230823 	 899.99 	
-527.79502 	-0.23266309 	 899.99 	
-528.79572 	-0.23308907 	 899.99 	
-529.82951 	-0.23353136 	 899.99 	
-530.79411 	-0.23393188 	 899.99 	
-531.80686 	-0.23431315 	 899.99 	
-532.80328 	-0.2347401 	 899.99 	
-533.79751 	-0.23514473 	 899.99 	
-534.79205 	-0.23554347 	 899.99 	
-535.77488 	-0.23595535 	 899.99 	
-536.81299 	-0.23638029 	 899.99 	
-537.80324 	-0.2367886 	 899.99 	
-538.8104 	-0.23719216 	 899.99 	
-539.78896 	-0.23760409 	 899.99 	
-540.78471 	-0.23801661 	 899.99 	
-541.80334 	-0.23840856 	 900 	
-542.7679 	-0.2388218 	 899.99 	
-543.7866 	-0.23925414 	 900 	
-544.80182 	-0.2396678 	 900 	
-545.79364 	-0.24003896 	 900 	
-546.77675 	-0.24045552 	 900 	
-547.81264 	-0.24087205 	 900 	
-548.77791 	-0.24128805 	 900 	
-549.72518 	-0.24168546 	 900 	
-549.30703 	-0.2417354 	 900 	
-548.16793 	-0.24130204 	 900 	
-547.11621 	-0.24089927 	 900 	
-546.12783 	-0.2404903 	 900 	
-545.10638 	-0.24011901 	 900 	
-544.09981 	-0.23970966 	 900 	
-543.10836 	-0.23932043 	 900 	
-542.10883 	-0.2389533 	 900 	
-541.08557 	-0.23855698 	 900 	
-540.10614 	-0.23816333 	 900 	
-539.098 	-0.23774741 	 900 	
-538.0899 	-0.23737186 	 899.99 	
-537.08108 	-0.23697761 	 899.99 	
-536.08441 	-0.23655474 	 900 	
-535.10899 	-0.23618703 	 900 	
-534.10366 	-0.2357912 	 900 	
-533.07387 	-0.2353772 	 900 	
-532.07833 	-0.23496699 	 899.99 	
-531.09924 	-0.23458295 	 899.99 	
-530.08307 	-0.23420742 	 900 	
-529.08266 	-0.23378867 	 900 	
-528.06679 	-0.233376 	 899.99 	
-527.08834 	-0.23301691 	 899.99 	
-526.10614 	-0.23261352 	 900 	
-525.06769 	-0.23221603 	 900 	
-524.09444 	-0.2317948 	 900 	
-523.09778 	-0.23140857 	 900 	
-522.08744 	-0.23102477 	 900 	
-521.07961 	-0.23061358 	 900 	
-520.08816 	-0.23021852 	 900 	
-519.08529 	-0.22980009 	 900 	
-518.0777 	-0.22940475 	 900 	
-517.12085 	-0.22903052 	 900 	
-516.06234 	-0.228603 	 900 	
-515.07336 	-0.22818927 	 900.01 	
-514.09269 	-0.22780921 	 900.01 	
-513.06232 	-0.22739538 	 900.01 	
-512.07678 	-0.22699715 	 900.01 	
-511.07109 	-0.22656368 	 900.01 	
-510.08331 	-0.22620194 	 900.01 	
-509.10079 	-0.22578886 	 900.01 	
-508.07537 	-0.22538879 	 900.01 	
-507.08604 	-0.22498817 	 900.01 	
-506.06769 	-0.22457027 	 900.01 	
-505.06881 	-0.22417364 	 900.01 	
-504.07792 	-0.22375266 	 900.01 	
-503.04659 	-0.22334808 	 900.01 	
-502.1181 	-0.22296978 	 900.01 	
-501.07874 	-0.22255168 	 900.01 	
-500.05516 	-0.22216163 	 900.01 	
-499.04911 	-0.22172389 	 900.01 	
-498.09249 	-0.22133313 	 900.01 	
-497.10415 	-0.22094789 	 900.01 	
-496.04751 	-0.22052821 	 900 	
-495.04826 	-0.22012143 	 900 	
-494.0969 	-0.21970357 	 900 	
-493.06187 	-0.21931816 	 900 	
-492.10988 	-0.21891468 	 900 	
-491.0307 	-0.21848095 	 900 	
-490.08464 	-0.21807804 	 900 	
-489.08199 	-0.21768828 	 900 	
-488.07381 	-0.21729269 	 900 	
-487.10059 	-0.21687987 	 900 	
-486.03711 	-0.2164306 	 899.99 	
-485.06877 	-0.21607079 	 899.99 	
-484.07853 	-0.2156271 	 899.99 	
-483.054 	-0.21523944 	 899.99 	
-482.10173 	-0.21483266 	 899.99 	
-481.05739 	-0.21441472 	 899.99 	
-480.07141 	-0.21399779 	 899.99 	
-479.08028 	-0.21358907 	 899.99 	
-478.07365 	-0.21318886 	 899.98 	
-477.05621 	-0.21275645 	 899.98 	
-476.06596 	-0.21236 	 899.99 	
-475.04913 	-0.21195803 	 899.98 	
-474.10891 	-0.21154333 	 899.99 	
-473.05874 	-0.21113747 	 899.98 	
-472.08179 	-0.21074569 	 899.98 	
-471.07483 	-0.21031364 	 899.98 	
-470.08087 	-0.20993578 	 899.98 	
-469.06559 	-0.20948815 	 899.98 	
-468.08339 	-0.20910299 	 899.98 	
-467.07275 	-0.20867057 	 899.98 	
-466.0874 	-0.20826198 	 899.98 	
-465.08325 	-0.2078714 	 899.98 	
-464.08187 	-0.20744093 	 899.98 	
-463.03569 	-0.20700296 	 899.98 	
-462.08034 	-0.20662494 	 899.98 	
-461.06696 	-0.20618766 	 899.98 	
-460.05259 	-0.20581262 	 899.99 	
-459.06728 	-0.20536397 	 899.99 	
-458.08598 	-0.20498149 	 899.98 	
-457.08274 	-0.20457569 	 899.98 	
-456.07922 	-0.20415448 	 899.98 	
-455.06702 	-0.20375511 	 899.98 	
-454.06596 	-0.20330854 	 899.98 	
-453.10352 	-0.20292537 	 899.98 	
-452.08946 	-0.20252161 	 899.98 	
-451.05412 	-0.20207017 	 899.98 	
-450.06659 	-0.20167283 	 899.99 	
-449.11188 	-0.20125106 	 899.98 	
-448.05957 	-0.20086008 	 899.99 	
-447.06006 	-0.20042071 	 899.99 	
-446.07349 	-0.20000244 	 899.99 	
-445.08291 	-0.19960625 	 899.99 	
-444.09605 	-0.19920375 	 899.99 	
-443.05882 	-0.19875469 	 899.99 	
-442.0933 	-0.19838285 	 899.99 	
-441.04281 	-0.1979314 	 900 	
-440.07418 	-0.19755068 	 900 	
-439.08486 	-0.19712332 	 900 	
-438.06215 	-0.19670681 	 900 	
-437.08301 	-0.19630599 	 900 	
-436.05941 	-0.19583938 	 900 	
-435.07501 	-0.19546258 	 900 	
-434.09554 	-0.19503099 	 900 	
-433.07318 	-0.19463492 	 900 	
-432.09312 	-0.19423117 	 899.99 	
-431.05898 	-0.19377933 	 899.99 	
-430.08545 	-0.19340142 	 900 	
-429.06986 	-0.19297732 	 900 	
-428.07371 	-0.19252949 	 900 	
-427.05937 	-0.19213517 	 900 	
-426.07839 	-0.19171041 	 900 	
-425.07733 	-0.19131058 	 900 	
-424.10527 	-0.19090082 	 900 	
-423.02517 	-0.19044342 	 900 	
-422.07963 	-0.19004265 	 899.99 	
-421.06932 	-0.18961041 	 899.99 	
-420.06177 	-0.18921472 	 899.99 	
-419.09747 	-0.18880671 	 899.99 	
-418.07507 	-0.18838282 	 899.99 	
-417.078 	-0.18795334 	 900 	
-416.07082 	-0.18753245 	 900 	
-415.09165 	-0.18713026 	 900 	
-414.07729 	-0.18671631 	 900 	
-413.05927 	-0.18626413 	 900 	
-412.08506 	-0.1858799 	 900 	
-411.0812 	-0.18544693 	 900 	
-410.08478 	-0.18504229 	 900 	
-409.08004 	-0.18462646 	 900 	
-408.05701 	-0.18417307 	 900 	
-407.11216 	-0.18378963 	 900 	
-406.05855 	-0.18332978 	 900 	
-405.0723 	-0.18295369 	 900 	
-404.09779 	-0.18249798 	 900 	
-403.07109 	-0.18208915 	 899.99 	
-402.09655 	-0.18169969 	 899.99 	
-401.07758 	-0.18125177 	 900 	
-400.05953 	-0.18082997 	 900 	
-399.08101 	-0.18040095 	 900 	
-398.0889 	-0.17999659 	 900 	
-397.10141 	-0.17959707 	 900 	
-396.0608 	-0.17913947 	 900 	
-395.05358 	-0.17871312 	 900 	
-394.11673 	-0.17831315 	 900 	
-393.07275 	-0.17789941 	 899.99 	
-392.0723 	-0.17746689 	 900 	
-391.04684 	-0.1769979 	 899.99 	
-390.09768 	-0.17662566 	 900 	
-389.09907 	-0.1762171 	 900 	
-388.08163 	-0.17576654 	 900 	
-387.0472 	-0.17535326 	 900 	
-386.08351 	-0.17489091 	 900 	
-385.0772 	-0.1745203 	 900 	
-384.11689 	-0.17409166 	 900 	
-383.05315 	-0.17364 	 900 	
-382.12002 	-0.17324282 	 900 	
-381.06181 	-0.17280327 	 899.99 	
-380.05239 	-0.17237296 	 900 	
-379.09733 	-0.17197069 	 900 	
-378.06665 	-0.17152932 	 900 	
-377.06216 	-0.17112719 	 900 	
-376.09352 	-0.17068717 	 900 	
-375.08693 	-0.17028543 	 900 	
-374.06883 	-0.16986146 	 900 	
-373.05016 	-0.16940055 	 899.99 	
-372.07844 	-0.16900309 	 899.99 	
-371.08259 	-0.16855806 	 899.99 	
-370.06302 	-0.16815698 	 899.99 	
-369.09871 	-0.1677302 	 899.99 	
-368.07697 	-0.16729636 	 899.98 	
-367.0731 	-0.16687773 	 899.99 	
-366.07452 	-0.16643777 	 899.99 	
-365.0895 	-0.16602016 	 899.99 	
-364.09771 	-0.1656017 	 899.99 	
-363.07657 	-0.16517559 	 899.99 	
-362.06257 	-0.16473637 	 899.99 	
-361.07229 	-0.16429943 	 899.99 	
-360.06443 	-0.16389264 	 899.98 	
-359.10196 	-0.16346314 	 899.98 	
-358.09039 	-0.16303622 	 899.99 	
-357.08346 	-0.16263033 	 899.99 	
-356.07311 	-0.16217625 	 899.98 	
-355.05445 	-0.16173868 	 899.98 	
-354.11393 	-0.16134301 	 899.99 	
-353.09896 	-0.16090045 	 899.98 	
-352.08214 	-0.16049745 	 899.99 	
-351.08755 	-0.16003787 	 899.99 	
-350.09824 	-0.15962537 	 899.99 	
-349.08511 	-0.15919456 	 899.99 	
-348.07602 	-0.15877308 	 899.99 	
-347.07775 	-0.15836005 	 899.99 	
-346.08193 	-0.15792478 	 899.99 	
-345.07251 	-0.15747635 	 900 	
-344.11405 	-0.15708393 	 900 	
-343.06109 	-0.15663215 	 900 	
-342.07609 	-0.15619234 	 899.99 	
-341.09296 	-0.15576622 	 899.99 	
-340.07981 	-0.15535502 	 899.99 	
-339.11244 	-0.15493548 	 899.99 	
-338.08973 	-0.15448327 	 899.99 	
-337.05594 	-0.15406813 	 899.99 	
-336.09932 	-0.15362593 	 899.99 	
-335.0853 	-0.15321888 	 899.99 	
-334.10955 	-0.1527801 	 899.99 	
-333.05382 	-0.15232533 	 899.99 	
-332.08456 	-0.15192301 	 899.99 	
-331.09863 	-0.15148721 	 899.99 	
-330.0778 	-0.15105818 	 899.99 	
-329.11196 	-0.15062825 	 899.99 	
-328.07227 	-0.15019471 	 899.99 	
-327.06318 	-0.14976125 	 899.99 	
-326.10288 	-0.14933504 	 899.99 	
-325.05272 	-0.14887997 	 899.99 	
-324.12975 	-0.14848126 	 899.99 	
-323.0861 	-0.14805241 	 899.99 	
-322.05907 	-0.14761019 	 899.99 	
-321.08086 	-0.14717007 	 899.99 	
-320.10296 	-0.14675918 	 899.99 	
-319.0778 	-0.14633141 	 899.99 	
-318.0928 	-0.14587531 	 900 	
-317.07816 	-0.1454464 	 899.99 	
-316.11011 	-0.14503135 	 900 	
-315.06489 	-0.14458982 	 899.99 	
-314.10242 	-0.14416159 	 899.99 	
-313.08963 	-0.14372003 	 899.99 	
-312.10399 	-0.14331563 	 899.99 	
-311.08038 	-0.14286636 	 899.99 	
-310.09785 	-0.14244225 	 900 	
-309.07915 	-0.14199238 	 900 	
-308.08829 	-0.14155035 	 900 	
-307.08352 	-0.14115624 	 900 	
-306.109 	-0.14071129 	 900 	
-305.04279 	-0.14025486 	 900.01 	
-304.13507 	-0.13982078 	 900.01 	
-303.05341 	-0.13938512 	 900.01 	
-302.07216 	-0.13897492 	 900.01 	
-301.1051 	-0.13853334 	 900.01 	
-300.09021 	-0.13809096 	 900 	
-299.10616 	-0.13769687 	 900 	
-298.07023 	-0.13722685 	 900 	
-297.0717 	-0.13678956 	 900 	
-296.09723 	-0.1363439 	 900 	
-295.10301 	-0.1359414 	 900 	
-294.08716 	-0.13551869 	 900 	
-293.08183 	-0.13506079 	 900.01 	
-292.07863 	-0.13464092 	 900 	
-291.12577 	-0.1342041 	 900 	
-290.06362 	-0.13375697 	 900 	
-289.08112 	-0.13331453 	 900 	
-288.06991 	-0.13288568 	 900 	
-287.09855 	-0.13246367 	 900 	
-286.09381 	-0.1320121 	 900 	
-285.08879 	-0.13160354 	 900 	
-284.12174 	-0.13117601 	 900 	
-283.09509 	-0.13072621 	 900 	
-282.0882 	-0.13028263 	 900 	
-281.11837 	-0.12984724 	 900.01 	
-280.07133 	-0.12941011 	 900 	
-279.08573 	-0.1289658 	 900 	
-278.09709 	-0.12852841 	 900 	
-277.09049 	-0.1281101 	 900 	
-276.08144 	-0.12765439 	 900 	
-275.0875 	-0.127232 	 900 	
-274.1248 	-0.12680546 	 900 	
-273.06909 	-0.12635072 	 900 	
-272.10423 	-0.12593996 	 900 	
-271.11218 	-0.12548283 	 900 	
-270.06512 	-0.1250425 	 900 	
-269.10797 	-0.12460599 	 900 	
-268.09705 	-0.12416126 	 900 	
-267.07566 	-0.12375413 	 900 	
-266.08419 	-0.12330279 	 900 	
-265.0705 	-0.12285772 	 900 	
-264.12292 	-0.12242853 	 900 	
-263.07001 	-0.12196974 	 900 	
-262.09186 	-0.12155104 	 900 	
-261.10352 	-0.12109378 	 900 	
-260.06014 	-0.12067061 	 900 	
-259.12646 	-0.12022895 	 900 	
-258.07017 	-0.11977663 	 899.99 	
-257.09694 	-0.11936182 	 899.99 	
-256.10828 	-0.11892521 	 899.99 	
-255.08809 	-0.11847424 	 899.99 	
-254.11363 	-0.11804789 	 899.99 	
-253.08636 	-0.11759367 	 899.99 	
-252.11684 	-0.11716855 	 899.99 	
-251.09174 	-0.11670606 	 899.99 	
-250.06846 	-0.11627324 	 899.99 	
-249.13507 	-0.1158458 	 899.99 	
-248.11462 	-0.11540293 	 899.99 	
-247.06079 	-0.11496056 	 899.98 	
-246.10299 	-0.11449952 	 899.98 	
-245.06771 	-0.11405636 	 899.98 	
-244.113 	-0.11363862 	 899.98 	
-243.09068 	-0.11320153 	 899.98 	
-242.09829 	-0.11277193 	 899.98 	
-241.08771 	-0.11229751 	 899.98 	
-240.11076 	-0.11186663 	 899.98 	
-239.12244 	-0.11144398 	 899.98 	
-238.06793 	-0.11096718 	 899.98 	
-237.08144 	-0.11053707 	 899.98 	
-236.1249 	-0.1101022 	 899.98 	
-235.10443 	-0.10967285 	 899.98 	
-234.12008 	-0.10925356 	 899.98 	
-233.10022 	-0.10877691 	 899.98 	
-232.06462 	-0.10832142 	 899.98 	
-231.1133 	-0.10789726 	 899.98 	
-230.09656 	-0.10746127 	 899.98 	
-229.12333 	-0.10704643 	 899.98 	
-228.07166 	-0.10658549 	 899.98 	
-227.09872 	-0.1061439 	 899.98 	
-226.12982 	-0.10570326 	 899.98 	
-225.08803 	-0.10526461 	 899.98 	
-224.11388 	-0.10481291 	 899.98 	
-223.08413 	-0.10436238 	 899.99 	
-222.07971 	-0.10390178 	 899.98 	
-221.11636 	-0.10347357 	 899.98 	
-220.11628 	-0.1030417 	 899.98 	
-219.07882 	-0.10258657 	 899.98 	
-218.10929 	-0.10213438 	 899.98 	
-217.10056 	-0.10171886 	 899.98 	
-216.08224 	-0.1012539 	 899.98 	
-215.09047 	-0.10083286 	 899.98 	
-214.11634 	-0.10038646 	 899.98 	
-213.10791 	-0.099934252 	 899.98 	
-212.11243 	-0.099486703 	 899.98 	
-211.12315 	-0.099051194 	 899.98 	
-210.09217 	-0.09859541 	 899.98 	
-209.10412 	-0.098178864 	 899.98 	
-208.117 	-0.097713208 	 899.98 	
-207.0959 	-0.097274857 	 899.99 	
-206.12546 	-0.096838889 	 899.99 	
-205.10651 	-0.096378061 	 899.98 	
-204.10303 	-0.095938948 	 899.98 	
-203.07853 	-0.095451028 	 899.98 	
-202.11058 	-0.09503679 	 899.98 	
-201.1401 	-0.094604263 	 899.98 	
-200.09586 	-0.094146988 	 899.99 	
-199.13158 	-0.093717781 	 899.99 	
-198.07807 	-0.093256015 	 899.99 	
-197.11965 	-0.09282191 	 899.99 	
-196.13996 	-0.092385547 	 899.99 	
-195.07127 	-0.091900431 	 899.99 	
-194.12247 	-0.091468156 	 899.99 	
-193.11341 	-0.091030002 	 899.99 	
-192.08861 	-0.090558614 	 899.99 	
-191.11508 	-0.090125554 	 899.99 	
-190.12302 	-0.089676835 	 899.99 	
-189.09111 	-0.089255424 	 899.99 	
-188.11416 	-0.088790054 	 899.99 	
-187.10325 	-0.088360988 	 899.99 	
-186.12541 	-0.087896327 	 899.99 	
-185.12593 	-0.087467174 	 899.99 	
-184.13511 	-0.087038695 	 899.99 	
-183.11771 	-0.086568887 	 899.99 	
-182.09537 	-0.086101436 	 899.99 	
-181.10547 	-0.085645247 	 899.99 	
-180.10229 	-0.085206719 	 899.99 	
-179.11889 	-0.084778275 	 899.99 	
-178.08389 	-0.084305484 	 899.99 	
-177.10325 	-0.083849007 	 899.99 	
-176.15381 	-0.083437075 	 899.99 	
-175.07804 	-0.082973071 	 899.98 	
-174.11748 	-0.082542817 	 899.98 	
-173.12697 	-0.082055504 	 899.98 	
-172.11451 	-0.081621253 	 899.99 	
-171.11937 	-0.081184325 	 899.99 	
-170.11957 	-0.08073582 	 899.98 	
-169.09014 	-0.080279165 	 899.98 	
-168.13946 	-0.079815037 	 899.98 	
-167.11774 	-0.079392594 	 899.98 	
-166.11888 	-0.078935958 	 899.98 	
-165.10366 	-0.078467836 	 899.98 	
-164.11406 	-0.078022509 	 899.98 	
-163.10439 	-0.077568552 	 899.98 	
-162.12283 	-0.077127382 	 899.98 	
-161.13231 	-0.076690345 	 899.98 	
-160.12666 	-0.076230569 	 899.98 	
-159.12841 	-0.075808605 	 899.98 	
-158.107 	-0.075320243 	 899.98 	
-157.12513 	-0.074877577 	 899.98 	
-156.10218 	-0.074402335 	 899.98 	
-155.1132 	-0.073955587 	 899.98 	
-154.14957 	-0.073526577 	 899.98 	
-153.0948 	-0.073050288 	 899.98 	
-151.91062 	-0.072518408 	 899.98 	
-150.79197 	-0.072029337 	 899.98 	
-149.77039 	-0.071555619 	 899.98 	
-148.79542 	-0.071123751 	 899.98 	
-147.80163 	-0.070675812 	 899.98 	
-146.76211 	-0.070188659 	 899.98 	
-145.79456 	-0.069758653 	 899.98 	
-144.802 	-0.069291222 	 899.99 	
-143.77916 	-0.068868159 	 899.98 	
-142.79956 	-0.068406055 	 899.98 	
-141.78352 	-0.06795572 	 899.99 	
-140.7783 	-0.067504944 	 899.98 	
-139.77986 	-0.067020986 	 899.99 	
-138.77865 	-0.066589577 	 899.99 	
-137.80863 	-0.066141142 	 899.99 	
-136.76851 	-0.065673161 	 899.99 	
-135.83369 	-0.065242233 	 899.99 	
-134.76144 	-0.064751208 	 899.99 	
-133.77937 	-0.064316977 	 899.99 	
-132.79329 	-0.063864106 	 899.99 	
-131.77849 	-0.063415883 	 899.99 	
-130.80908 	-0.062960013 	 899.99 	
-129.78317 	-0.062500392 	 899.99 	
-128.79648 	-0.062063962 	 900 	
-127.81225 	-0.06159779 	 900 	
-126.76718 	-0.06114032 	 900 	
-125.78325 	-0.060688583 	 900 	
-124.7842 	-0.060207214 	 900 	
-123.79626 	-0.059778185 	 899.99 	
-122.77683 	-0.059311573 	 899.99 	
-121.77561 	-0.058849272 	 899.99 	
-120.79109 	-0.058410978 	 900 	
-119.79976 	-0.057944737 	 899.99 	
-118.79206 	-0.05750928 	 899.99 	
-117.81061 	-0.057064893 	 899.99 	
-116.75844 	-0.05658214 	 899.99 	
-115.81219 	-0.056131664 	 899.99 	
-114.78781 	-0.055665312 	 899.99 	
-113.78289 	-0.055225843 	 899.99 	
-112.81071 	-0.054765816 	 899.99 	
-111.76163 	-0.054270691 	 899.99 	
-110.82866 	-0.053844875 	 899.99 	
-109.75859 	-0.053360401 	 899.99 	
-108.80401 	-0.052935953 	 899.99 	
-107.81484 	-0.052487271 	 899.99 	
-106.77965 	-0.051987137 	 899.99 	
-105.78678 	-0.051550509 	 899.99 	
-104.8041 	-0.051099253 	 899.99 	
-103.78898 	-0.050650729 	 900 	
-102.789 	-0.050192105 	 900 	
-101.75814 	-0.049699108 	 899.99 	
-100.78962 	-0.049264824 	 899.99 	
-99.799438 	-0.048820882 	 899.99 	
-98.784866 	-0.048372182 	 899.99 	
-97.792516 	-0.047884441 	 899.99 	
-96.768061 	-0.047415784 	 900 	
-95.782506 	-0.046986171 	 900 	
-94.811478 	-0.046526764 	 899.99 	
-93.77095 	-0.046049818 	 900 	
-92.799001 	-0.045594761 	 900 	
-91.78596 	-0.045123193 	 900 	
-90.78034 	-0.044689301 	 900 	
-89.787384 	-0.044185492 	 900 	
-88.810486 	-0.043766565 	 899.99 	
-87.800842 	-0.043304941 	 899.99 	
-86.779785 	-0.042837899 	 899.99 	
-85.799484 	-0.042363706 	 899.99 	
-84.793869 	-0.041893239 	 900 	
-83.78299 	-0.04144697 	 900 	
-82.804235 	-0.040970378 	 900 	
-81.778539 	-0.040496823 	 900 	
-80.823563 	-0.040057461 	 900 	
-79.792928 	-0.039590155 	 900 	
-78.791011 	-0.039145004 	 900 	
-77.797429 	-0.038660353 	 900 	
-76.759384 	-0.038182111 	 900.01 	
-75.82294 	-0.037763131 	 900.01 	
-74.795687 	-0.037286627 	 900 	
-73.782346 	-0.036847585 	 900 	
-72.804827 	-0.036349511 	 900 	
-71.794884 	-0.035899781 	 900 	
-70.809649 	-0.035448701 	 900 	
-69.774368 	-0.034969269 	 900 	
-68.80983 	-0.03452357 	 900 	
-67.811925 	-0.034046836 	 900 	
-66.778503 	-0.033574789 	 900 	
-65.810562 	-0.033127101 	 900 	
-64.753367 	-0.032611716 	 900 	
-63.80519 	-0.032166656 	 899.99 	
-62.808833 	-0.031723974 	 899.99 	
-61.790239 	-0.03125246 	 899.99 	
-60.805313 	-0.030792858 	 899.99 	
-59.800617 	-0.030316887 	 899.99 	
-58.786954 	-0.029862755 	 899.99 	
-57.829207 	-0.02939298 	 899.99 	
-56.776328 	-0.028920153 	 899.99 	
-55.804371 	-0.028454976 	 899.99 	
-54.79597 	-0.027986781 	 899.99 	
-53.780773 	-0.027520663 	 899.99 	
-52.808197 	-0.027037325 	 899.99 	
-51.800106 	-0.026603431 	 899.99 	
-50.806835 	-0.026130248 	 899.99 	
-49.764371 	-0.025605702 	 899.99 	
-48.809359 	-0.025180971 	 899.99 	
-47.779338 	-0.024698733 	 899.99 	
-46.789449 	-0.024229367 	 900 	
-45.800171 	-0.023764865 	 900 	
-44.791453 	-0.02326356 	 900 	
-43.812983 	-0.022843532 	 900 	
-42.790062 	-0.02235485 	 900 	
-41.761279 	-0.021866399 	 900 	
-40.829725 	-0.021427712 	 900 	
-39.787666 	-0.020941764 	 900 	
-38.783269 	-0.020460467 	 900 	
-37.80881 	-0.019999889 	 900 	
-36.763049 	-0.019510088 	 900 	
-35.807111 	-0.019038751 	 900 	
-34.771843 	-0.018559692 	 900 	
-33.801709 	-0.018096984 	 900 	
-32.807187 	-0.017616361 	 900 	
-31.775932 	-0.017139148 	 900 	
-30.828018 	-0.016675109 	 900 	
-29.782567 	-0.016186036 	 900 	
-28.792366 	-0.015711254 	 900 	
-27.800626 	-0.015232922 	 900 	
-26.826475 	-0.014755549 	 900 	
-25.715584 	-0.014244763 	 900 	
-24.803165 	-0.013767229 	 900 	
-23.781173 	-0.013309439 	 900 	
-22.805478 	-0.012824094 	 900 	
-21.793672 	-0.012351337 	 900 	
-20.804396 	-0.011875597 	 900 	
-19.775305 	-0.011388868 	 900 	
-18.811032 	-0.010920762 	 900 	
-17.80015 	-0.010422102 	 900 	
-16.782788 	-0.0099302596 	 900 	
-15.836109 	-0.0094634148 	 900 	
-14.774606 	-0.008943272 	 900 	
-13.785024 	-0.0084648514 	 900 	
-12.791119 	-0.007988437 	 900 	
-11.80061 	-0.0075050455 	 900.01 	
-10.804545 	-0.0070052484 	 900.01 	
-9.7791557 	-0.0065085415 	 900 	
-8.7948198 	-0.0060350922 	 900 	
-7.7984468 	-0.0055222463 	 900 	
-6.7989858 	-0.0050515845 	 900 	
-5.7865613 	-0.0045449169 	 900 	
-4.7849402 	-0.0040363499 	 900.01 	
-3.7885664 	-0.0035502595 	 900.01 	
-2.9227583 	-0.0030626065 	 900.01 	
-1.6186444 	-0.0025257215 	 900.01 	
-0.70159778 	-0.0019472387 	 900.01 	
 0.20890926 	-0.0015091556 	 900 	
 1.2129466 	-0.0010174016 	 900.01 	
 2.1743741 	-0.00052042795 	 900.01 	
 3.2430216 	 0.0000020229025 	 900.01 	
 4.1933254 	 0.00050895657 	 900.01 	
 5.1964671 	 0.001022406 	 900.01 	
 6.2306619 	 0.0015542131 	 900.01 	
 7.1788026 	 0.0020670233 	 900.01 	
 8.2028004 	 0.0025706371 	 900.01 	
 9.18354 	 0.0030680012 	 900.01 	
 10.189926 	 0.0036253742 	 900.01 	
 11.204346 	 0.0041156368 	 900.01 	
 12.188175 	 0.0046125395 	 900.01 	
 13.207075 	 0.0051297173 	 900.01 	
 14.177927 	 0.0056154705 	 900.01 	
 15.222319 	 0.006155196 	 900.01 	
 16.186989 	 0.0066393867 	 900.01 	
 17.209442 	 0.0071384902 	 900.01 	
 18.20347 	 0.0076284686 	 900.01 	
 19.237356 	 0.0081397521 	 900.01 	
 20.198165 	 0.0086243687 	 900.01 	
 21.224172 	 0.0091213424 	 900.01 	
 22.19008 	 0.0095859325 	 900.01 	
 23.195383 	 0.010111561 	 900.01 	
 24.222317 	 0.01059593 	 900.01 	
 25.170154 	 0.011068651 	 900.01 	
 26.208214 	 0.011563281 	 900.01 	
 27.181691 	 0.0120512 	 900.01 	
 28.248639 	 0.012565573 	 900.01 	
 29.185193 	 0.01302228 	 900.01 	
 30.214137 	 0.013549826 	 900.01 	
 31.2077 	 0.014021233 	 900.01 	
 32.201879 	 0.014494062 	 900.01 	
 33.2061 	 0.014960676 	 900 	
 34.202601 	 0.015434676 	 900.01 	
 35.209602 	 0.015940349 	 900.01 	
 36.207954 	 0.016420101 	 900.01 	
 37.189776 	 0.016874749 	 900.01 	
 38.200025 	 0.01736075 	 900.01 	
 39.206721 	 0.017820795 	 900.01 	
 40.18854 	 0.018300832 	 900.01 	
 41.211924 	 0.018806469 	 900.01 	
 42.179835 	 0.019247801 	 900.01 	
 43.204455 	 0.019756564 	 900.01 	
 44.220573 	 0.020209649 	 900.01 	
 45.159131 	 0.020669055 	 900.01 	
 46.225622 	 0.021157613 	 900.01 	
 47.20373 	 0.021645035 	 900.01 	
 48.196523 	 0.022101317 	 900 	
 49.212331 	 0.022568676 	 900.01 	
 50.172309 	 0.023037527 	 900.01 	
 51.207109 	 0.023523777 	 900.01 	
 52.213696 	 0.023975762 	 900.01 	
 53.183381 	 0.024439038 	 900 	
 54.250954 	 0.024952736 	 900.01 	
 55.180033 	 0.025391334 	 900 	
 56.211478 	 0.025886852 	 900 	
 57.18271 	 0.02631004 	 900.01 	
 58.192692 	 0.026795189 	 900.01 	
 59.199894 	 0.027270964 	 900.01 	
 60.216512 	 0.027751001 	 900.01 	
 61.200714 	 0.028213883 	 900.01 	
 62.218882 	 0.028657133 	 900.01 	
 63.184551 	 0.029134186 	 900.01 	
 64.199941 	 0.029590042 	 900.01 	
 65.187688 	 0.030065142 	 900.01 	
 66.230865 	 0.030536408 	 900.01 	
 67.197004 	 0.0309896 	 900.01 	
 68.179189 	 0.03145142 	 900.01 	
 69.200137 	 0.031932451 	 900.01 	
 70.197304 	 0.03240084 	 900.01 	
 71.20961 	 0.032875693 	 900.01 	
 72.208005 	 0.033319581 	 900.01 	
 73.188044 	 0.033818472 	 900.01 	
 74.205592 	 0.034282282 	 900.01 	
 75.167094 	 0.03471573 	 900.01 	
 76.240845 	 0.035229606 	 900.01 	
 77.204819 	 0.03567804 	 900.01 	
 78.164159 	 0.036141991 	 900.02 	
 79.197759 	 0.036585773 	 900.01 	
 80.19956 	 0.037054908 	 900.01 	
 81.206762 	 0.037547656 	 900.01 	
 82.213201 	 0.037990658 	 900.01 	
 83.197398 	 0.03846668 	 900.02 	
 84.188548 	 0.038890047 	 900.01 	
 85.18602 	 0.039383753 	 900.01 	
 86.169139 	 0.039850793 	 900.01 	
 87.218801 	 0.040321171 	 900.01 	
 88.200989 	 0.040778198 	 900.01 	
 89.222402 	 0.041252908 	 900.01 	
 90.170781 	 0.041689872 	 900.01 	
 91.220439 	 0.042182621 	 900.01 	
 92.201859 	 0.042625054 	 900.01 	
 93.184362 	 0.043094047 	 900.01 	
 94.215953 	 0.043545926 	 900.01 	
 95.172053 	 0.044007817 	 900.01 	
 96.230367 	 0.044512459 	 900.01 	
 97.19341 	 0.044948359 	 900.01 	
 98.167114 	 0.04541334 	 900.01 	
 99.219554 	 0.045886806 	 900.01 	
 100.1942 	 0.046333608 	 900.01 	
 101.19157 	 0.04679692 	 900.01 	
 102.21467 	 0.047245317 	 900.01 	
 103.17877 	 0.04771424 	 900.02 	
 104.21654 	 0.048167432 	 900.02 	
 105.15686 	 0.048608693 	 900.02 	
 106.2445 	 0.049113478 	 900.02 	
 107.19239 	 0.049558822 	 900.01 	
 108.17704 	 0.050012512 	 900.02 	
 109.23256 	 0.050506041 	 900.02 	
 110.15651 	 0.050929335 	 900.02 	
 111.21775 	 0.051396411 	 900.02 	
 112.20208 	 0.051857095 	 900.02 	
 113.18657 	 0.052307127 	 900.02 	
 114.20735 	 0.052796076 	 900.01 	
 115.19678 	 0.053232081 	 900.01 	
 116.20459 	 0.053695215 	 900.02 	
 117.1974 	 0.054150077 	 900.01 	
 118.17819 	 0.054601101 	 900.01 	
 119.19002 	 0.055050244 	 900.01 	
 120.20276 	 0.055529074 	 900.01 	
 121.18386 	 0.055989613 	 900.01 	
 122.19953 	 0.056443549 	 900.01 	
 123.18649 	 0.056911762 	 900.01 	
 124.18828 	 0.057371596 	 900.01 	
 125.19763 	 0.057824929 	 900.01 	
 126.20884 	 0.058270486 	 900.01 	
 127.19148 	 0.0587469 	 900.01 	
 128.17473 	 0.059198529 	 900.01 	
 129.18191 	 0.059645436 	 900.01 	
 130.20779 	 0.060111198 	 900.01 	
 131.19814 	 0.060568014 	 900.01 	
 132.16966 	 0.061021171 	 900.01 	
 133.18442 	 0.061475178 	 900.01 	
 134.20674 	 0.061932204 	 900.01 	
 135.19155 	 0.062397008 	 900.01 	
 136.17248 	 0.062846932 	 900 	
 137.17627 	 0.063295224 	 900 	
 138.18902 	 0.063756762 	 900.01 	
 139.21581 	 0.06421773 	 900 	
 140.17312 	 0.064671381 	 900 	
 141.20238 	 0.065134022 	 900 	
 142.18442 	 0.065577375 	 900 	
 143.21646 	 0.066062597 	 900 	
 144.19386 	 0.066496652 	 900 	
 145.17093 	 0.06695705 	 900 	
 146.18999 	 0.067398168 	 900 	
 147.21061 	 0.067867162 	 899.99 	
 148.19047 	 0.068326105 	 899.99 	
 149.17991 	 0.068777026 	 899.99 	
 150.20949 	 0.069241332 	 899.99 	
 151.18394 	 0.069680356 	 900 	
 152.19282 	 0.07013266 	 900 	
 153.20059 	 0.07060034 	 900 	
 154.20207 	 0.071059782 	 899.99 	
 155.16756 	 0.071494828 	 899.99 	
 156.20005 	 0.071940705 	 899.99 	
 157.16522 	 0.072375148 	 899.99 	
 158.23446 	 0.072884268 	 899.99 	
 159.2092 	 0.073321516 	 899.99 	
 160.17223 	 0.07377826 	 899.99 	
 161.21212 	 0.074241746 	 899.98 	
 162.17684 	 0.074689399 	 899.98 	
 163.19081 	 0.075135844 	 899.98 	
 164.19288 	 0.075576288 	 899.98 	
 165.20004 	 0.076032998 	 899.98 	
 166.20058 	 0.076486545 	 899.98 	
 167.15187 	 0.076920598 	 899.98 	
 168.22989 	 0.077420587 	 899.98 	
 169.19385 	 0.077843988 	 899.99 	
 170.16734 	 0.078271828 	 899.99 	
 171.22979 	 0.078777998 	 899.99 	
 172.17258 	 0.079200938 	 899.99 	
 173.17667 	 0.079652532 	 900 	
 174.22089 	 0.08010743 	 899.99 	
 175.18391 	 0.080577769 	 899.99 	
 176.19879 	 0.081019921 	 900 	
 177.14375 	 0.081448788 	 900 	
 178.22487 	 0.081932909 	 899.99 	
 179.20997 	 0.082364831 	 899.99 	
 180.17993 	 0.082807971 	 899.99 	
 181.18709 	 0.083265498 	 899.99 	
 182.1765 	 0.083708285 	 899.99 	
 183.20745 	 0.084176817 	 899.99 	
 184.16646 	 0.084606182 	 899.99 	
 185.20049 	 0.085094139 	 899.99 	
 186.19809 	 0.085524037 	 899.99 	
 187.15107 	 0.085957308 	 899.99 	
 188.18756 	 0.086438126 	 899.99 	
 189.17498 	 0.086863692 	 899.99 	
 190.21133 	 0.087333571 	 900 	
 191.17527 	 0.087758713 	 899.99 	
 192.1812 	 0.088225077 	 899.99 	
 193.18391 	 0.088682851 	 900 	
 194.16066 	 0.08911268 	 900 	
 195.20519 	 0.089616611 	 900 	
 196.21361 	 0.090029042 	 900 	
 197.14574 	 0.090474174 	 900 	
 198.17606 	 0.09089871 	 900 	
 199.17676 	 0.091357049 	 900 	
 200.1958 	 0.091827285 	 899.99 	
 201.17533 	 0.092284098 	 899.99 	
 202.16801 	 0.092712327 	 899.99 	
 203.18382 	 0.093156822 	 899.99 	
 204.18187 	 0.093611716 	 899.99 	
 205.19939 	 0.094071123 	 899.99 	
 206.17168 	 0.094501162 	 899.99 	
 207.18193 	 0.094955988 	 899.99 	
 208.17799 	 0.095408894 	 899.99 	
 209.18686 	 0.095852574 	 899.98 	
 210.18876 	 0.096303883 	 899.98 	
 211.20166 	 0.096744826 	 899.98 	
 212.16776 	 0.097186475 	 899.98 	
 213.18775 	 0.097648828 	 899.99 	
 214.19584 	 0.098096552 	 899.99 	
 215.16873 	 0.098537778 	 899.99 	
 216.22932 	 0.098981276 	 899.98 	
 217.16702 	 0.099430383 	 899.98 	
 218.20925 	 0.099900833 	 899.99 	
 219.17056 	 0.10031273 	 899.99 	
 220.15504 	 0.10076038 	 899.99 	
 221.20512 	 0.10122409 	 899.98 	
 222.19114 	 0.1016754 	 899.98 	
 223.1807 	 0.1021114 	 899.99 	
 224.19932 	 0.1025511 	 899.99 	
 225.16958 	 0.10299769 	 899.99 	
 226.21303 	 0.10344555 	 899.98 	
 227.14379 	 0.10388543 	 899.98 	
 228.19065 	 0.10435062 	 899.99 	
 229.22113 	 0.10479423 	 899.99 	
 230.17013 	 0.10523076 	 899.99 	
 231.18978 	 0.10568683 	 899.99 	
 232.15342 	 0.10610029 	 899.99 	
 233.23053 	 0.1065825 	 899.99 	
 234.17997 	 0.10700565 	 899.99 	
 235.15426 	 0.10745422 	 899.99 	
 236.22473 	 0.10792421 	 899.99 	
 237.17893 	 0.10832939 	 899.99 	
 238.19999 	 0.10879658 	 899.99 	
 239.15747 	 0.10923407 	 899.99 	
 240.16311 	 0.10967459 	 899.99 	
 241.23387 	 0.11016119 	 899.99 	
 242.15582 	 0.11058438 	 899.99 	
 243.17303 	 0.11099454 	 899.99 	
 244.22479 	 0.11146289 	 899.98 	
 245.15403 	 0.11189587 	 899.98 	
 246.22542 	 0.11234828 	 899.99 	
 247.15989 	 0.11277108 	 899.99 	
 248.16748 	 0.11323425 	 899.98 	
 249.16372 	 0.11366074 	 899.98 	
 250.17952 	 0.11412287 	 899.98 	
 251.16909 	 0.11456492 	 899.98 	
 252.19942 	 0.11502315 	 899.98 	
 253.19425 	 0.11546686 	 899.98 	
 254.19493 	 0.11588749 	 899.98 	
 255.1618 	 0.11632396 	 899.98 	
 256.19415 	 0.11676658 	 899.98 	
 257.15607 	 0.11720325 	 899.98 	
 258.20276 	 0.11767342 	 899.98 	
 259.16284 	 0.11809757 	 899.98 	
 260.19826 	 0.1185601 	 899.98 	
 261.19078 	 0.11899056 	 899.98 	
 262.18005 	 0.11942643 	 899.98 	
 263.16376 	 0.11987613 	 899.98 	
 264.2098 	 0.12033455 	 899.99 	
 265.16064 	 0.12074929 	 899.99 	
 266.18573 	 0.12120703 	 899.98 	
 267.15798 	 0.1216573 	 899.99 	
 268.18787 	 0.1221034 	 899.98 	
 269.16986 	 0.12250173 	 899.98 	
 270.16392 	 0.1229568 	 899.98 	
 271.19287 	 0.12340594 	 899.99 	
 272.1628 	 0.12383336 	 899.99 	
 273.17324 	 0.1242841 	 899.98 	
 274.17826 	 0.12472912 	 899.99 	
 275.16795 	 0.12517525 	 899.99 	
 276.17684 	 0.1256174 	 899.99 	
 277.15499 	 0.12603413 	 899.99 	
 278.16262 	 0.12647453 	 899.99 	
 279.17395 	 0.12692794 	 899.99 	
 280.18638 	 0.12738234 	 899.99 	
 281.16115 	 0.12781511 	 900 	
 282.16026 	 0.12824562 	 900 	
 283.17562 	 0.12870523 	 899.99 	
 284.21629 	 0.12915441 	 899.99 	
 285.13761 	 0.12956659 	 899.99 	
 286.17395 	 0.13000519 	 900 	
 287.15367 	 0.13042131 	 900 	
 288.19248 	 0.1309071 	 900 	
 289.1606 	 0.13131204 	 900 	
 290.15881 	 0.13173906 	 900 	
 291.17912 	 0.13218873 	 900 	
 292.1662 	 0.13262559 	 900 	
 293.16998 	 0.13308279 	 900 	
 294.19104 	 0.13351458 	 900 	
 295.14465 	 0.13395279 	 900 	
 296.16107 	 0.13437931 	 900 	
 297.15391 	 0.1348182 	 900 	
 298.19006 	 0.13527206 	 900 	
 299.16962 	 0.13569418 	 900.01 	
 300.14606 	 0.13612152 	 900.01 	
 301.16773 	 0.13657631 	 900.01 	
 302.17463 	 0.13702119 	 900.01 	
 303.1699 	 0.1374609 	 900.01 	
 304.17318 	 0.13789797 	 900.01 	
 305.13759 	 0.13832925 	 900.01 	
 306.16154 	 0.13877655 	 900.01 	
 307.17439 	 0.13919707 	 900.01 	
 308.18401 	 0.13965982 	 900.01 	
 309.16675 	 0.14009554 	 900.01 	
 310.15739 	 0.1405168 	 900.01 	
 311.17425 	 0.14096861 	 900.01 	
 312.16163 	 0.14137785 	 900.01 	
 313.17325 	 0.14183974 	 900 	
 314.1688 	 0.14226502 	 900 	
 315.165 	 0.14270394 	 900 	
 316.17556 	 0.14315092 	 900.01 	
 317.13764 	 0.14356491 	 900.01 	
 318.18027 	 0.1440198 	 900.01 	
 319.17077 	 0.14444842 	 900.01 	
 320.14563 	 0.14486401 	 900.01 	
 321.17236 	 0.14533109 	 900.01 	
 322.14094 	 0.14574224 	 900.01 	
 323.16458 	 0.14618801 	 900.01 	
 324.15137 	 0.14660704 	 900.01 	
 325.14617 	 0.14703967 	 900.01 	
 326.18168 	 0.14749833 	 900 	
 327.12359 	 0.14792312 	 900 	
 328.1952 	 0.14838867 	 900 	
 329.15945 	 0.14879939 	 900 	
 330.14469 	 0.14921928 	 900 	
 331.16356 	 0.14967918 	 900 	
 332.15927 	 0.15009527 	 900 	
 333.17783 	 0.15053564 	 900 	
 334.17044 	 0.15095691 	 900 	
 335.13196 	 0.15138191 	 900 	
 336.18443 	 0.15183886 	 899.99 	
 337.1476 	 0.15225129 	 899.99 	
 338.1583 	 0.15270253 	 899.99 	
 339.14213 	 0.15310715 	 899.99 	
 340.17798 	 0.1535645 	 899.99 	
 341.16446 	 0.15399425 	 899.99 	
 342.12484 	 0.15440572 	 899.99 	
 343.15061 	 0.15486985 	 899.99 	
 344.16179 	 0.15527869 	 899.99 	
 345.17417 	 0.15575021 	 899.99 	
 346.14984 	 0.15618461 	 899.99 	
 347.15945 	 0.15661348 	 899.99 	
 348.17445 	 0.15703188 	 899.98 	
 349.1498 	 0.1574605 	 899.99 	
 350.13752 	 0.15787694 	 899.99 	
 351.16147 	 0.15832857 	 899.99 	
 352.137 	 0.15872995 	 899.99 	
 353.19104 	 0.15920204 	 899.99 	
 354.1653 	 0.15961301 	 899.99 	
 355.14005 	 0.16004781 	 899.99 	
 356.19407 	 0.16048594 	 899.99 	
 357.12395 	 0.16089535 	 899.99 	
 358.17595 	 0.16136932 	 899.99 	
 359.16413 	 0.16177564 	 899.99 	
 360.1347 	 0.16219992 	 899.99 	
 361.17149 	 0.16264271 	 899.98 	
 362.1317 	 0.16304087 	 899.98 	
 363.16753 	 0.16351409 	 899.98 	
 364.19151 	 0.1639502 	 899.98 	
 365.15036 	 0.16434796 	 899.98 	
 366.153 	 0.16478621 	 899.98 	
 367.12203 	 0.16521998 	 899.98 	
 368.19029 	 0.16567406 	 899.98 	
 369.15759 	 0.16607938 	 899.98 	
 370.1234 	 0.16652214 	 899.98 	
 371.15303 	 0.16695175 	 899.98 	
 372.1286 	 0.16736823 	 899.98 	
 373.17614 	 0.16782891 	 899.97 	
 374.1438 	 0.16823267 	 899.97 	
 375.14275 	 0.16866499 	 899.97 	
 376.16502 	 0.16910217 	 899.98 	
 377.13403 	 0.16953128 	 899.98 	
 378.21013 	 0.16999208 	 899.98 	
 379.15526 	 0.17035529 	 899.98 	
 380.1397 	 0.17079229 	 899.98 	
 381.16876 	 0.17125685 	 899.98 	
 382.13795 	 0.17167662 	 899.98 	
 383.19029 	 0.17213326 	 899.98 	
 384.14173 	 0.17252832 	 899.98 	
 385.12606 	 0.17294963 	 899.98 	
 386.16958 	 0.17336791 	 899.98 	
 387.15439 	 0.17381187 	 899.98 	
 388.15163 	 0.17424178 	 899.98 	
 389.1509 	 0.17468062 	 899.98 	
 390.14415 	 0.17509599 	 899.98 	
 391.16346 	 0.17554979 	 899.98 	
 392.13745 	 0.17594219 	 899.98 	
 393.1674 	 0.17638079 	 899.98 	
 394.12768 	 0.17676879 	 899.98 	
 395.14931 	 0.17724091 	 899.98 	
 396.13979 	 0.17764702 	 899.98 	
 397.12162 	 0.17807883 	 899.98 	
 398.16316 	 0.17851882 	 899.98 	
 399.12911 	 0.17893529 	 899.98 	
 400.17484 	 0.17936082 	 899.98 	
 401.14803 	 0.17977492 	 899.99 	
 402.13201 	 0.18019068 	 899.99 	
 403.16433 	 0.18064192 	 899.99 	
 404.15452 	 0.18105858 	 899.99 	
 405.1214 	 0.18147083 	 899.99 	
 406.14506 	 0.18192029 	 899.99 	
 407.12832 	 0.1823351 	 899.99 	
 408.14669 	 0.18276092 	 899.99 	
 409.16475 	 0.18317786 	 900 	
 410.13442 	 0.18360203 	 900 	
 411.16565 	 0.18403655 	 900 	
 412.10891 	 0.18444979 	 900 	
 413.16939 	 0.18491279 	 900 	
 414.14862 	 0.18531694 	 900 	
 415.12771 	 0.18572863 	 900 	
 416.18361 	 0.18617947 	 899.99 	
 417.10465 	 0.18656988 	 899.99 	
 418.16315 	 0.18702425 	 900 	
 419.14899 	 0.18743281 	 900 	
 420.11865 	 0.18784542 	 900 	
 421.17057 	 0.18830756 	 900 	
 422.13232 	 0.18871142 	 900 	
 423.14766 	 0.18915002 	 900 	
 424.15232 	 0.18955837 	 900 	
 425.11285 	 0.18998898 	 900 	
 426.16829 	 0.19040116 	 900 	
 427.11804 	 0.19082384 	 900 	
 428.17377 	 0.19126827 	 900 	
 429.15499 	 0.19169007 	 900 	
 430.13947 	 0.19210239 	 900 	
 431.13454 	 0.19250996 	 900.01 	
 432.13416 	 0.19295179 	 900.01 	
 433.14237 	 0.19339042 	 900 	
 434.10862 	 0.19378339 	 900 	
 435.13491 	 0.19422653 	 900 	
 436.12413 	 0.1946331 	 900 	
 437.12667 	 0.19505561 	 900 	
 438.13241 	 0.19547486 	 900 	
 439.16207 	 0.1959217 	 900.01 	
 440.12028 	 0.19631304 	 900.01 	
 441.13609 	 0.1967375 	 900.01 	
 442.14398 	 0.19717148 	 900.01 	
 443.15234 	 0.19758814 	 900.01 	
 444.12032 	 0.19799272 	 900.01 	
 445.12948 	 0.19839904 	 900.01 	
 446.16235 	 0.19882535 	 900.01 	
 447.11751 	 0.19924822 	 900.01 	
 448.16248 	 0.19968753 	 900.01 	
 449.12592 	 0.20008778 	 900.01 	
 450.14339 	 0.20052645 	 900.01 	
 451.17306 	 0.20095528 	 900.01 	
 452.09521 	 0.20134313 	 900.01 	
 453.14954 	 0.20180773 	 900.01 	
 454.12602 	 0.20218117 	 900.01 	
 455.12679 	 0.20262182 	 900.01 	
 456.15324 	 0.2030666 	 900.01 	
 457.13985 	 0.20347488 	 900.01 	
 458.13881 	 0.20391251 	 900 	
 459.13269 	 0.20430406 	 900 	
 460.12531 	 0.20471539 	 900 	
 461.16451 	 0.20516737 	 900 	
 462.11851 	 0.20557004 	 900 	
 463.11499 	 0.20598246 	 900 	
 464.15094 	 0.20638907 	 900 	
 465.12272 	 0.20682057 	 900 	
 466.14842 	 0.20725672 	 900 	
 467.12826 	 0.20765938 	 900 	
 468.13662 	 0.20807582 	 900 	
 469.14189 	 0.20848978 	 900 	
 470.12126 	 0.2089157 	 900 	
 471.14539 	 0.20935266 	 899.99 	
 472.10179 	 0.20972422 	 899.99 	
 473.1544 	 0.21017251 	 899.99 	
 474.11481 	 0.21056481 	 899.99 	
 475.13324 	 0.21099059 	 899.99 	
 476.15346 	 0.21140671 	 899.99 	
 477.10801 	 0.21182855 	 899.99 	
 478.13055 	 0.21225639 	 899.99 	
 479.1118 	 0.2126708 	 899.99 	
 480.13729 	 0.21308362 	 899.98 	
 481.13763 	 0.21350766 	 899.98 	
 482.08942 	 0.21390639 	 899.98 	
 483.11072 	 0.21433593 	 899.99 	
 484.13344 	 0.21474019 	 899.99 	
 485.14768 	 0.21520389 	 899.99 	
 486.12982 	 0.21558649 	 899.99 	
 487.09904 	 0.21599825 	 899.99 	
 488.13224 	 0.21642197 	 899.99 	
 489.14077 	 0.2168366 	 899.99 	
 490.11814 	 0.21726675 	 899.99 	
 491.09658 	 0.21765112 	 899.99 	
 492.13692 	 0.21805911 	 899.99 	
 493.12736 	 0.2185037 	 899.99 	
 494.11859 	 0.21890275 	 899.99 	
 495.15462 	 0.21935324 	 899.99 	
 496.11393 	 0.21971425 	 899.99 	
 497.10441 	 0.22015498 	 899.99 	
 498.12777 	 0.22056606 	 899.99 	
 499.10449 	 0.22096155 	 899.99 	
 500.1437 	 0.22140025 	 899.99 	
 501.11692 	 0.22180192 	 899.99 	
 502.11774 	 0.22220913 	 899.99 	
 503.13025 	 0.22266278 	 899.99 	
 504.08295 	 0.2230449 	 899.99 	
 505.11536 	 0.22346405 	 899.99 	
 506.17094 	 0.22390556 	 899.99 	
 507.09701 	 0.22429576 	 899.99 	
 508.15186 	 0.2247311 	 899.99 	
 509.09834 	 0.22509916 	 899.99 	
 510.14513 	 0.22553415 	 899.99 	
 511.12665 	 0.22593372 	 899.99 	
 512.12335 	 0.22634253 	 899.99 	
 513.1059 	 0.22678031 	 899.99 	
 514.09906 	 0.22717297 	 899.99 	
 515.1108 	 0.2275846 	 899.99 	
 516.14382 	 0.22801728 	 900 	
 517.12396 	 0.22842694 	 900 	
 518.11371 	 0.22881365 	 900 	
 519.10508 	 0.22923663 	 900 	
 520.11595 	 0.22965246 	 899.99 	
 521.14921 	 0.2300634 	 900 	
 522.08368 	 0.23047494 	 900 	
 523.15812 	 0.23092089 	 900 	
 524.10518 	 0.23129956 	 900 	
 525.10114 	 0.23170424 	 900 	
 526.09027 	 0.23210982 	 900 	
 527.13009 	 0.23252384 	 900 	
 528.1123 	 0.23293581 	 899.99 	
 529.09666 	 0.23334526 	 899.99 	
 530.14168 	 0.23378048 	 900 	
 531.10046 	 0.23417878 	 900 	
 532.12944 	 0.23461013 	 900 	
 533.12659 	 0.23500584 	 899.99 	
 534.10999 	 0.23541205 	 899.99 	
 535.11947 	 0.23581543 	 899.99 	
 536.10335 	 0.23623478 	 899.99 	
 537.087 	 0.23661971 	 899.99 	
 538.13413 	 0.23707256 	 900 	
 539.09973 	 0.2374564 	 899.99 	
 540.13253 	 0.23787537 	 899.99 	
 541.09564 	 0.23826986 	 900 	
 542.09513 	 0.23866269 	 900 	
 543.15336 	 0.23912589 	 900 	
 544.12451 	 0.23951925 	 900 	
 545.08689 	 0.23989479 	 900 	
 546.11566 	 0.2403336 	 900 	
 547.09886 	 0.24072518 	 900 	
 548.15458 	 0.24115416 	 900 	
 549.12465 	 0.24155229 	 900 	

	
	
