Start Time:  20/09/15 5:40:39 AM          Time Completed:  20/09/15 5:45:09 AM      Elapsed Time:  00:04:30
Sample ID:     2020-09-14_BM5B-66MG-F7_1100ox_after_press

Experiment:    C:\IDEASVSM\Inducat\Experiments\hys_c_200(1)_03s_master06\hys_c_200(1)_03s_master06.exp
Data File:     C:\IDEASVSM\Inducat\2020-09-14_BM5B-66MG-F7_1100ox_after_press (ProfileData)\2020-09-14_BM5B-66MG-F7_1100ox_after_press#63.txt
Plot File:     C:\IDEASVSM\Inducat\2020-09-14_BM5B-66MG-F7_1100ox_after_press (ProfileData)\2020-09-14_BM5B-66MG-F7_1100ox_after_press#63.oc2
VSM Exp File:  C:\IDEASVSM\Inducat\Experiments\hys_c_200(1)_03s_master06\hys_c_200(1)_03s_master06.stp
VSM Data File: C:\IDEASVSM\Inducat\2020-09-14_BM5B-66MG-F7_1100ox_after_press (ProfileData)\2020-09-14_BM5B-66MG-F7_1100ox_after_press#63.dat

***DATA***

Field(Oe)	 Moment(emu)	 Temperature(C)	
 199.87283 	 0.092246956 	 900.01 	
 199.01449 	 0.092053754 	 900.01 	
 198.00948 	 0.09165766 	 900.01 	
 196.93037 	 0.091174146 	 900.01 	
 196.01644 	 0.090777732 	 900.01 	
 195.01918 	 0.090328658 	 900.01 	
 193.99407 	 0.089886083 	 900.01 	
 193.03385 	 0.08948406 	 900.01 	
 191.97171 	 0.089011764 	 900.01 	
 191.01919 	 0.088619719 	 900.01 	
 190.01726 	 0.088166524 	 900.01 	
 188.97521 	 0.087729134 	 900.01 	
 188.02886 	 0.087285387 	 900.01 	
 186.96982 	 0.086846895 	 900.01 	
 186.05899 	 0.086419732 	 900.01 	
 184.96908 	 0.085944417 	 900.01 	
 184.03507 	 0.085543566 	 900.01 	
 183.01153 	 0.085118635 	 900.01 	
 182.00499 	 0.084657988 	 900.01 	
 181.05864 	 0.084245915 	 900.01 	
 179.99652 	 0.083765171 	 900.01 	
 179.04245 	 0.083373514 	 900.01 	
 178.02664 	 0.08291141 	 900 	
 177.01391 	 0.082473768 	 900.01 	
 176.07066 	 0.082043126 	 900.01 	
 175.00081 	 0.08155432 	 900.01 	
 174.08071 	 0.081142317 	 900.01 	
 173.03248 	 0.08068007 	 900.01 	
 171.99196 	 0.080253615 	 900.01 	
 171.07341 	 0.079798115 	 900.01 	
 170.02671 	 0.079342082 	 900.01 	
 169.0356 	 0.078957705 	 900.01 	
 168.09079 	 0.07850036 	 900.01 	
 167.04564 	 0.078061017 	 900.01 	
 166.04528 	 0.077596107 	 900.01 	
 165.04644 	 0.077152431 	 900.01 	
 164.05996 	 0.07672356 	 900.01 	
 163.08891 	 0.076280275 	 900.01 	
 162.06384 	 0.075832802 	 900.01 	
 161.05882 	 0.075386604 	 900.01 	
 160.08159 	 0.07493714 	 900.01 	
 159.03955 	 0.074502805 	 900.01 	
 158.09782 	 0.074067471 	 900.01 	
 157.06504 	 0.073618364 	 900.01 	
 156.10171 	 0.073174866 	 900.01 	
 155.06582 	 0.072729024 	 900.02 	
 154.08705 	 0.072306015 	 900.02 	
 153.12061 	 0.071869511 	 900.02 	
 152.0906 	 0.071402364 	 900.02 	
 151.03584 	 0.070926663 	 900.02 	
 150.10616 	 0.070511391 	 900.02 	
 149.09776 	 0.070074426 	 900.03 	
 148.05999 	 0.069615304 	 900.03 	
 147.09172 	 0.069167262 	 900.03 	
 146.17131 	 0.068739634 	 900.03 	
 145.08412 	 0.068290101 	 900.03 	
 144.04636 	 0.067836163 	 900.03 	
 143.14758 	 0.067378782 	 900.03 	
 142.10672 	 0.066947462 	 900.03 	
 141.11374 	 0.066514367 	 900.03 	
 140.09605 	 0.06604999 	 900.03 	
 139.15867 	 0.065627016 	 900.03 	
 138.107 	 0.065186892 	 900.03 	
 137.10629 	 0.064703056 	 900.04 	
 136.12876 	 0.06427369 	 900.03 	
 135.14813 	 0.063823127 	 900.04 	
 134.13044 	 0.063397951 	 900.04 	
 133.13129 	 0.062936769 	 900.04 	
 132.10279 	 0.062469906 	 900.04 	
 131.1762 	 0.062058828 	 900.04 	
 130.13226 	 0.061585075 	 900.04 	
 129.13311 	 0.061142713 	 900.04 	
 128.12315 	 0.060707737 	 900.04 	
 127.15024 	 0.060235089 	 900.04 	
 126.18195 	 0.059805295 	 900.04 	
 125.15191 	 0.059349299 	 900.04 	
 124.13268 	 0.058883892 	 900.04 	
 123.1119 	 0.058437872 	 900.04 	
 122.15443 	 0.057975802 	 900.05 	
 121.10586 	 0.057550093 	 900.05 	
 120.22406 	 0.057106882 	 900.05 	
 119.10445 	 0.056643569 	 900.05 	
 118.20876 	 0.056187535 	 900.05 	
 117.18643 	 0.055747839 	 900.05 	
 116.13015 	 0.055305585 	 900.05 	
 115.22364 	 0.054853847 	 900.05 	
 114.1658 	 0.054376584 	 900.06 	
 113.11105 	 0.05394846 	 900.06 	
 112.15051 	 0.053496619 	 900.05 	
 111.22084 	 0.053060258 	 900.06 	
 110.18462 	 0.052597905 	 900.06 	
 109.22406 	 0.052164633 	 900.06 	
 108.1863 	 0.05168882 	 900.06 	
 107.1995 	 0.051204773 	 900.06 	
 106.19261 	 0.050771573 	 900.07 	
 105.24441 	 0.050333968 	 900.07 	
 104.15878 	 0.049863875 	 900.06 	
 103.21367 	 0.049421087 	 900.06 	
 102.15892 	 0.048976026 	 900.06 	
 101.24161 	 0.048560579 	 900.06 	
 100.25794 	 0.048063925 	 900.06 	
 99.152552 	 0.04759653 	 900.06 	
 98.246307 	 0.04716024 	 900.06 	
 97.12085 	 0.046717984 	 900.06 	
 96.205348 	 0.046291424 	 900.06 	
 95.326899 	 0.045803007 	 900.06 	
 94.037801 	 0.04530884 	 900.07 	
 93.29366 	 0.044892363 	 900.07 	
 92.058589 	 0.0444244 	 900.06 	
 91.334524 	 0.044043999 	 900.06 	
 90.147319 	 0.043521034 	 900.06 	
 89.395462 	 0.043086376 	 900.06 	
 88.103266 	 0.042579497 	 900.06 	
 87.258779 	 0.042195901 	 900.05 	
 86.343282 	 0.041710858 	 900.06 	
 85.149892 	 0.041238563 	 900.06 	
 84.345551 	 0.040797799 	 900.05 	
 83.179947 	 0.040324828 	 900.05 	
 82.310766 	 0.039877708 	 900.05 	
 81.264043 	 0.039471351 	 900.05 	
 80.056753 	 0.038951759 	 900.05 	
 79.204554 	 0.038496579 	 900.04 	
 78.392492 	 0.038070125 	 900.04 	
 77.003031 	 0.037574039 	 900.05 	
 75.950124 	 0.037141086 	 900.05 	
 74.9667 	 0.036691375 	 900.05 	
 73.969381 	 0.036220464 	 900.05 	
 73.52166 	 0.035795961 	 900.05 	
 72.121401 	 0.035309003 	 900.05 	
 71.253754 	 0.034839796 	 900.05 	
 70.251795 	 0.034406951 	 900.05 	
 69.339389 	 0.03394797 	 900.05 	
 68.338982 	 0.033481213 	 900.05 	
 67.190358 	 0.033017583 	 900.05 	
 66.242444 	 0.03257419 	 900.05 	
 65.285258 	 0.032101079 	 900.05 	
 64.260152 	 0.031636631 	 900.05 	
 63.551517 	 0.031205135 	 900.04 	
 61.972165 	 0.030692751 	 900.05 	
 61.658768 	 0.030319594 	 900.05 	
 60.270852 	 0.029716948 	 900.05 	
 59.343006 	 0.029193344 	 900.04 	
 58.251509 	 0.028743382 	 900.04 	
 57.041134 	 0.02827446 	 900.04 	
 56.451388 	 0.027984714 	 900.05 	
 55.415469 	 0.027436361 	 900.05 	
 54.271483 	 0.026992899 	 900.04 	
 53.272619 	 0.026541234 	 900.05 	
 52.426589 	 0.026076537 	 900.05 	
 51.311934 	 0.025654806 	 900.06 	
 50.312978 	 0.025112914 	 900.05 	
 49.273356 	 0.024679074 	 900.06 	
 48.289215 	 0.024218035 	 900.05 	
 47.481204 	 0.023739774 	 900.05 	
 46.22052 	 0.023329547 	 900.05 	
 45.241018 	 0.022811304 	 900.05 	
 44.657021 	 0.022368232 	 900.05 	
 43.674431 	 0.021912945 	 900.05 	
 42.120201 	 0.021414161 	 900.05 	
 41.364718 	 0.020974852 	 900.05 	
 40.227628 	 0.020506995 	 900.05 	
 39.385628 	 0.020031681 	 900.05 	
 38.361315 	 0.019554451 	 900.04 	
 37.327736 	 0.019087765 	 900.04 	
 36.399221 	 0.018665821 	 900.04 	
 35.251317 	 0.018145589 	 900.04 	
 34.270271 	 0.017666086 	 900.04 	
 33.428263 	 0.017230932 	 900.04 	
 32.461118 	 0.016745214 	 900.04 	
 31.368833 	 0.016279381 	 900.04 	
 30.315175 	 0.015793522 	 900.04 	
 29.388199 	 0.015327937 	 900.04 	
 28.359258 	 0.014891399 	 900.04 	
 27.387479 	 0.01446562 	 900.03 	
 26.417244 	 0.014019601 	 900.03 	
 25.453188 	 0.013501819 	 900.03 	
 24.453597 	 0.013011415 	 900.03 	
 23.310327 	 0.01251895 	 900.03 	
 22.51313 	 0.012029682 	 900.03 	
 21.439384 	 0.011531289 	 900.03 	
 20.361004 	 0.011032078 	 900.03 	
 19.440208 	 0.010582436 	 900.03 	
 18.409721 	 0.01011458 	 900.03 	
 17.36842 	 0.0096301049 	 900.03 	
 16.512512 	 0.009163988 	 900.03 	
 15.46503 	 0.0086630019 	 900.03 	
 14.474712 	 0.0082159885 	 900.04 	
 13.167679 	 0.0076536087 	 900.04 	
 12.423008 	 0.0071664351 	 900.03 	
 11.370892 	 0.0067300038 	 900.04 	
 10.544339 	 0.0062538024 	 900.04 	
 9.4953121 	 0.0057880405 	 900.04 	
 8.3937572 	 0.005261098 	 900.04 	
 7.4157988 	 0.0047682432 	 900.04 	
 6.4424753 	 0.0042923615 	 900.03 	
 5.4367075 	 0.0037797642 	 900.03 	
 4.4911931 	 0.0033043088 	 900.03 	
 3.3880931 	 0.0027929897 	 900.03 	
 2.437944 	 0.0022945603 	 900.02 	
 1.4955194 	 0.0018326689 	 900.02 	
 0.46039754 	 0.001282788 	 900.02 	
-0.55251209 	 0.0008011185 	 900.02 	
-1.5093766 	 0.00032321286 	 900.02 	
-2.5897075 	-0.00021789753 	 900.02 	
-3.5064456 	-0.00068689069 	 900.02 	
-4.4972634 	-0.0012327415 	 900.02 	
-5.5529013 	-0.0017298927 	 900.02 	
-6.5005056 	-0.0022322458 	 900.02 	
-7.5191042 	-0.0027633429 	 900.02 	
-8.4883146 	-0.0032432902 	 900.02 	
-9.5408656 	-0.0037999002 	 900.02 	
-10.51625 	-0.0042637804 	 900.02 	
-11.454594 	-0.0047695954 	 900.02 	
-12.51332 	-0.0052713804 	 900.02 	
-13.47327 	-0.0057566718 	 900.02 	
-14.501127 	-0.0062598772 	 900.02 	
-15.488858 	-0.0067600822 	 900.02 	
-16.46733 	-0.0072313657 	 900.02 	
-17.526054 	-0.0077488803 	 900.02 	
-18.455139 	-0.0082168974 	 900.02 	
-19.479909 	-0.008734554 	 900.02 	
-20.486162 	-0.0092176622 	 900.02 	
-21.4492 	-0.0096998639 	 900.02 	
-22.541878 	-0.010204739 	 900.02 	
-23.449354 	-0.010678756 	 900.02 	
-24.467951 	-0.011154424 	 900.02 	
-25.529765 	-0.011640107 	 900.02 	
-26.418724 	-0.012105709 	 900.02 	
-27.449666 	-0.01260341 	 900.02 	
-28.455917 	-0.013094827 	 900.02 	
-29.474515 	-0.013546634 	 900.02 	
-30.471509 	-0.014048526 	 900.02 	
-31.428375 	-0.014517112 	 900.02 	
-32.453145 	-0.015004196 	 900.01 	
-33.397664 	-0.015458187 	 900.01 	
-34.493426 	-0.015958018 	 900.01 	
-35.44412 	-0.016419981 	 900.01 	
-36.41642 	-0.016891194 	 900.01 	
-37.459709 	-0.017375295 	 900.01 	
-38.435094 	-0.017840774 	 900.01 	
-39.432083 	-0.018322159 	 900.02 	
-40.395121 	-0.018768356 	 900.02 	
-41.450762 	-0.01928667 	 900.02 	
-42.450839 	-0.019736969 	 900.02 	
-43.39227 	-0.020185402 	 900.02 	
-44.454081 	-0.020676659 	 900.01 	
-45.46033 	-0.021118967 	 900.01 	
-46.395589 	-0.021578391 	 900.01 	
-47.40184 	-0.022053474 	 900.02 	
-48.423523 	-0.022546293 	 900.01 	
-49.389648 	-0.0229981 	 900.02 	
-50.39298 	-0.023468353 	 900.02 	
-51.446157 	-0.023938164 	 900.02 	
-52.369625 	-0.024372749 	 900.01 	
-53.391927 	-0.024862532 	 900.01 	
-54.432758 	-0.025341557 	 900.02 	
-55.356227 	-0.025764336 	 900.02 	
-56.43412 	-0.026276737 	 900.02 	
-57.425537 	-0.026718017 	 900.01 	
-58.389154 	-0.027187116 	 900.01 	
-59.383656 	-0.027657902 	 900.02 	
-60.371986 	-0.028112251 	 900.02 	
-61.415904 	-0.02859053 	 900.02 	
-62.394966 	-0.029035963 	 900.02 	
-63.39565 	-0.029495013 	 900.02 	
-64.396324 	-0.029967505 	 900.02 	
-65.350677 	-0.030410753 	 900.02 	
-66.403867 	-0.030912769 	 900.01 	
-67.342779 	-0.031348776 	 900.02 	
-68.368167 	-0.0318229 	 900.02 	
-69.325607 	-0.032285219 	 900.02 	
-70.36335 	-0.03272907 	 900.02 	
-71.373296 	-0.033220684 	 900.02 	
-72.333824 	-0.033679271 	 900.02 	
-73.328331 	-0.034133512 	 900.02 	
-74.40005 	-0.03462033 	 900.02 	
-75.301893 	-0.035064486 	 900.02 	
-76.364354 	-0.035527957 	 900.02 	
-77.334152 	-0.035973603 	 900.02 	
-78.31013 	-0.036448223 	 900.02 	
-79.381841 	-0.03691553 	 900.02 	
-80.289871 	-0.037355281 	 900.02 	
-81.336873 	-0.037832798 	 900.02 	
-82.322108 	-0.038286541 	 900.03 	
-83.335154 	-0.038753349 	 900.03 	
-84.326564 	-0.03923154 	 900.03 	
-85.336517 	-0.039686008 	 900.03 	
-86.327932 	-0.040135561 	 900.03 	
-87.310084 	-0.040598642 	 900.03 	
-88.332377 	-0.041067759 	 900.03 	
-89.292913 	-0.041517206 	 900.02 	
-90.318293 	-0.041980713 	 900.02 	
-91.322062 	-0.042457944 	 900.03 	
-92.282598 	-0.042900162 	 900.03 	
-93.317251 	-0.043367914 	 900.03 	
-94.305573 	-0.043808216 	 900.03 	
-95.250656 	-0.044253172 	 900.03 	
-96.322367 	-0.044733243 	 900.03 	
-97.267471 	-0.045163887 	 900.03 	
-98.246526 	-0.045641579 	 900.03 	
-99.318247 	-0.046110625 	 900.03 	
-100.30039 	-0.046558208 	 900.03 	
-101.2671 	-0.047025195 	 900.03 	
-102.26153 	-0.047469082 	 900.03 	
-103.293 	-0.047951588 	 900.03 	
-104.26581 	-0.048394518 	 900.03 	
-105.2664 	-0.048831501 	 900.03 	
-106.29787 	-0.049323537 	 900.04 	
-107.29538 	-0.049755318 	 900.04 	
-108.19098 	-0.050188679 	 900.04 	
-109.32437 	-0.050699181 	 900.04 	
-110.2354 	-0.051109691 	 900.04 	
-111.23601 	-0.051577122 	 900.05 	
-112.2644 	-0.052026567 	 900.04 	
-113.24029 	-0.052494016 	 900.04 	
-114.28103 	-0.052972101 	 900.04 	
-115.23839 	-0.05339882 	 900.05 	
-116.24207 	-0.053862949 	 900.04 	
-117.26738 	-0.054312093 	 900.04 	
-118.23091 	-0.05477567 	 900.04 	
-119.24077 	-0.055207877 	 900.04 	
-120.20739 	-0.055657126 	 900.04 	
-121.23888 	-0.056150165 	 900.04 	
-122.2333 	-0.056596043 	 900.04 	
-123.26786 	-0.057071146 	 900.05 	
-124.18817 	-0.057496283 	 900.04 	
-125.25361 	-0.057942745 	 900.04 	
-126.19244 	-0.058406256 	 900.04 	
-127.2548 	-0.058888849 	 900.04 	
-128.16276 	-0.059317451 	 900.04 	
-129.25291 	-0.059782786 	 900.04 	
-130.17321 	-0.060212719 	 900.04 	
-131.20162 	-0.060693184 	 900.03 	
-132.19293 	-0.061129881 	 900.04 	
-133.20895 	-0.061595554 	 900.04 	
-134.25281 	-0.062040205 	 900.04 	
-135.17001 	-0.062479088 	 900.04 	
-136.21385 	-0.062937001 	 900.04 	
-137.21753 	-0.0634039 	 900.03 	
-138.16254 	-0.063846917 	 900.03 	
-139.1693 	-0.064293079 	 900.04 	
-140.13595 	-0.064747658 	 900.04 	
-141.15505 	-0.065218853 	 900.04 	
-142.14021 	-0.065648537 	 900.03 	
-143.17787 	-0.06610221 	 900.03 	
-144.20626 	-0.066565644 	 900.03 	
-145.16671 	-0.067011292 	 900.03 	
-146.21673 	-0.067468691 	 900.03 	
-147.15247 	-0.067912648 	 900.04 	
-148.0851 	-0.068354904 	 900.04 	
-149.18762 	-0.068828069 	 900.04 	
-150.11411 	-0.069265356 	 900.04 	
-151.1425 	-0.069709562 	 900.03 	
-152.09067 	-0.07016959 	 900.03 	
-153.20567 	-0.070653249 	 900.03 	
-154.16932 	-0.071077963 	 900.03 	
-155.14842 	-0.071520503 	 900.03 	
-156.10279 	-0.071975028 	 900.03 	
-157.12514 	-0.072445458 	 900.03 	
-158.17527 	-0.072896537 	 900.03 	
-159.10185 	-0.073320114 	 900.03 	
-160.118 	-0.073786463 	 900.03 	
-161.1496 	-0.074255474 	 900.03 	
-162.10399 	-0.07468104 	 900.03 	
-163.12632 	-0.075121627 	 900.03 	
-164.15484 	-0.075586162 	 900.04 	
-165.09995 	-0.076029909 	 900.04 	
-166.15934 	-0.076507069 	 900.04 	
-167.09519 	-0.076941796 	 900.04 	
-168.11753 	-0.077389503 	 900.04 	
-169.13368 	-0.077828493 	 900.04 	
-170.10041 	-0.078293934 	 900.04 	
-171.14129 	-0.078740043 	 900.04 	
-172.02153 	-0.079175162 	 900.04 	
-173.10564 	-0.079639271 	 900.04 	
-174.10018 	-0.080079683 	 900.03 	
-175.07619 	-0.080521529 	 900.04 	
-176.1016 	-0.080968399 	 900.03 	
-177.06525 	-0.081419213 	 900.04 	
-178.10303 	-0.081883517 	 900.04 	
-179.0605 	-0.082302551 	 900.03 	
-180.10754 	-0.082781043 	 900.03 	
-181.05266 	-0.083216925 	 900.03 	
-182.06572 	-0.083654866 	 900.03 	
-183.04482 	-0.084116509 	 900.04 	
-184.11964 	-0.084558552 	 900.04 	
-185.03696 	-0.084995069 	 900.04 	
-186.07475 	-0.085458933 	 900.03 	
-187.04149 	-0.085881339 	 900.03 	
-188.08853 	-0.08635479 	 900.03 	
-189.03673 	-0.086776982 	 900.04 	
-189.99111 	-0.087222931 	 900.04 	
-191.07214 	-0.087683598 	 900.04 	
-192.03888 	-0.088133203 	 900.04 	
-193.06737 	-0.088582186 	 900.03 	
-194.08973 	-0.089027938 	 900.04 	
-195.03174 	-0.089472504 	 900.04 	
-196.03864 	-0.089894999 	 900.03 	
-197.02081 	-0.090345651 	 900.03 	
-198.03079 	-0.090826096 	 900.03 	
-199.00679 	-0.091258656 	 900.03 	
-199.9303 	-0.091684881 	 900.03 	
-200.08472 	-0.09184449 	 900.03 	
-199.7419 	-0.091810384 	 900.03 	
-198.77515 	-0.091464554 	 900.03 	
-197.77135 	-0.091049568 	 900.03 	
-196.7243 	-0.090599978 	 900.03 	
-195.73286 	-0.090177661 	 900.03 	
-194.71052 	-0.089722304 	 900.03 	
-193.74687 	-0.089311828 	 900.03 	
-192.76779 	-0.088885783 	 900.03 	
-191.72073 	-0.088419044 	 900.03 	
-190.70768 	-0.088002071 	 900.04 	
-189.75947 	-0.087569297 	 900.03 	
-188.66303 	-0.087110812 	 900.04 	
-187.75496 	-0.086690058 	 900.03 	
-186.7141 	-0.086245279 	 900.03 	
-185.73191 	-0.085826052 	 900.03 	
-184.7065 	-0.085371317 	 900.03 	
-183.75212 	-0.084953295 	 900.03 	
-182.74214 	-0.084531048 	 900.03 	
-181.70744 	-0.084054066 	 900.03 	
-180.69439 	-0.083623779 	 900.03 	
-179.74618 	-0.083197767 	 900.03 	
-178.71149 	-0.082748678 	 900.03 	
-177.71386 	-0.082309724 	 900.03 	
-176.74095 	-0.081889375 	 900.03 	
-175.73405 	-0.081459158 	 900.03 	
-174.72099 	-0.080983206 	 900.02 	
-173.68631 	-0.080568877 	 900.02 	
-172.72883 	-0.080128541 	 900.02 	
-171.72812 	-0.079682325 	 900.02 	
-170.72433 	-0.079238063 	 900.02 	
-169.70507 	-0.078802963 	 900.02 	
-168.70437 	-0.078372265 	 900.01 	
-167.70056 	-0.07788802 	 900.01 	
-166.67514 	-0.077455263 	 900.01 	
-165.7393 	-0.077051127 	 900.01 	
-164.77256 	-0.076600618 	 900.02 	
-163.6699 	-0.076146271 	 900.01 	
-162.71245 	-0.075694659 	 900.01 	
-161.72717 	-0.075268257 	 900.01 	
-160.72955 	-0.074839583 	 900.01 	
-159.67017 	-0.074365637 	 900.02 	
-158.7343 	-0.073943411 	 900.01 	
-157.70888 	-0.073493769 	 900.02 	
-156.67419 	-0.073033705 	 900.01 	
-155.72598 	-0.072610109 	 900.01 	
-154.71601 	-0.072162688 	 900.01 	
-153.6844 	-0.071722454 	 900.01 	
-152.7115 	-0.071276403 	 900.01 	
-151.73859 	-0.070829886 	 900.01 	
-150.72248 	-0.07039807 	 900.01 	
-149.68791 	-0.069920891 	 900.01 	
-148.746 	-0.069495377 	 900.01 	
-147.73923 	-0.069064982 	 900.01 	
-146.70465 	-0.068595315 	 900.01 	
-145.71333 	-0.0681638 	 900.01 	
-144.70965 	-0.067705957 	 900.01 	
-143.71832 	-0.067260699 	 900.01 	
-142.7208 	-0.066808324 	 900.01 	
-141.72948 	-0.066362076 	 900.01 	
-140.71961 	-0.065928342 	 900.01 	
-139.70975 	-0.065471795 	 900.01 	
-138.68754 	-0.06502494 	 900.01 	
-137.73328 	-0.064582153 	 900.01 	
-136.74502 	-0.064132884 	 900.01 	
-135.68884 	-0.063689208 	 900.01 	
-134.74075 	-0.063243153 	 900.02 	
-133.68147 	-0.062788277 	 900.02 	
-132.71485 	-0.062348347 	 900.02 	
-131.71117 	-0.061912944 	 900.01 	
-130.70129 	-0.06147202 	 900.01 	
-129.74087 	-0.060996387 	 900.01 	
-128.69394 	-0.06055122 	 900.01 	
-127.71186 	-0.060088847 	 900.01 	
-126.71744 	-0.059630419 	 900.01 	
-125.69523 	-0.05921572 	 900.01 	
-124.70699 	-0.058754093 	 900.01 	
-123.66007 	-0.058307329 	 900.01 	
-122.74285 	-0.0578522 	 900.01 	
-121.72064 	-0.057390311 	 900.01 	
-120.66755 	-0.056945159 	 900.01 	
-119.6824 	-0.05649314 	 900.01 	
-118.72504 	-0.056070023 	 900.01 	
-117.73063 	-0.055586695 	 900.01 	
-116.73001 	-0.055141279 	 900 	
-115.6831 	-0.054698848 	 900 	
-114.67015 	-0.05421947 	 900.01 	
-113.72205 	-0.05379955 	 900.01 	
-112.72145 	-0.053366366 	 900.01 	
-111.67763 	-0.052875979 	 900.01 	
-110.70791 	-0.052444093 	 900.01 	
-109.76908 	-0.051992214 	 900.01 	
-108.70055 	-0.051546213 	 900.01 	
-107.67833 	-0.051069869 	 900.01 	
-106.71171 	-0.050633242 	 900.01 	
-105.70185 	-0.05019475 	 900.01 	
-104.71051 	-0.049726555 	 900.01 	
-103.71609 	-0.049281957 	 900.01 	
-102.73711 	-0.048831729 	 900.01 	
-101.67476 	-0.048370122 	 900.01 	
-100.74206 	-0.047921439 	 900.01 	
-99.688868 	-0.047452962 	 900.01 	
-98.66039 	-0.046992189 	 900.02 	
-97.678233 	-0.046525592 	 900.02 	
-96.699173 	-0.046094096 	 900.01 	
-95.704671 	-0.045652356 	 900.01 	
-94.673106 	-0.045180381 	 900.02 	
-93.724935 	-0.044736669 	 900.01 	
-92.684102 	-0.044261799 	 900.01 	
-91.652532 	-0.043797723 	 900.01 	
-90.67038 	-0.043361718 	 900.01 	
-89.69751 	-0.042901886 	 900.01 	
-88.669032 	-0.042451073 	 900.01 	
-87.705404 	-0.041980358 	 900.01 	
-86.664576 	-0.04152429 	 900.02 	
-85.734934 	-0.041084449 	 900.02 	
-84.660126 	-0.040628043 	 900.02 	
-83.671799 	-0.040164483 	 900.01 	
-82.735982 	-0.039701028 	 900.01 	
-81.676615 	-0.039258223 	 900.01 	
-80.722265 	-0.038803825 	 900.01 	
-79.619659 	-0.038299234 	 900.01 	
-78.776494 	-0.037894049 	 900.01 	
-77.71404 	-0.037406787 	 900.01 	
-76.694824 	-0.036950241 	 900.01 	
-75.725026 	-0.036497279 	 900.01 	
-74.66566 	-0.036039968 	 900.01 	
-73.754545 	-0.035598582 	 900.01 	
-72.676651 	-0.035099745 	 900.01 	
-71.675969 	-0.034648239 	 900.01 	
-70.703089 	-0.034212445 	 900.01 	
-69.70241 	-0.033744111 	 900.01 	
-68.726435 	-0.033281598 	 900 	
-67.682518 	-0.03282102 	 900 	
-66.700368 	-0.032346345 	 900 	
-65.67189 	-0.0319105 	 900 	
-64.714439 	-0.031418248 	 900.01 	
-63.707587 	-0.030985331 	 900.01 	
-62.68529 	-0.03051696 	 900.01 	
-61.678431 	-0.030050026 	 900.01 	
-60.739517 	-0.029602763 	 900.01 	
-59.701776 	-0.029130522 	 900 	
-58.679469 	-0.028654872 	 900 	
-57.712774 	-0.028193459 	 900.01 	
-56.699727 	-0.027751768 	 900.01 	
-55.742289 	-0.02728155 	 900.01 	
-54.679839 	-0.026799207 	 900.01 	
-53.685333 	-0.026338913 	 900.01 	
-52.730981 	-0.025881424 	 900.01 	
-51.727214 	-0.025409892 	 900.01 	
-50.695644 	-0.024934171 	 900.01 	
-49.72301 	-0.02449923 	 900.01 	
-48.719844 	-0.024034533 	 900.01 	
-47.707415 	-0.023538642 	 900.01 	
-46.753644 	-0.023085504 	 900.01 	
-45.676402 	-0.022619209 	 900.01 	
-44.704099 	-0.022147908 	 900.01 	
-43.719454 	-0.021703877 	 900.01 	
-42.703944 	-0.021196287 	 900.01 	
-41.663737 	-0.020737289 	 900.01 	
-40.728483 	-0.02028115 	 900.01 	
-39.685188 	-0.019812423 	 900.01 	
-38.719065 	-0.019341565 	 900.01 	
-37.657252 	-0.018845729 	 900.01 	
-36.706561 	-0.018413433 	 900.01 	
-35.691055 	-0.017936539 	 900.01 	
-34.66937 	-0.017435607 	 900.01 	
-33.721764 	-0.016989197 	 900.01 	
-32.681559 	-0.016510812 	 900.01 	
-31.700002 	-0.016048477 	 900.01 	
-30.761658 	-0.015585448 	 900.01 	
-29.672063 	-0.015095701 	 900 	
-28.699766 	-0.014628607 	 900 	
-27.712034 	-0.014119082 	 900 	
-26.678004 	-0.013672617 	 900.01 	
-25.755091 	-0.013209217 	 900.01 	
-24.625373 	-0.012706349 	 900 	
-23.711723 	-0.012244226 	 900 	
-22.683863 	-0.011765522 	 900 	
-21.714654 	-0.0113045 	 900 	
-20.708401 	-0.010814415 	 900 	
-19.640417 	-0.010307943 	 900 	
-18.720592 	-0.0098600244 	 900 	
-17.705081 	-0.0093612751 	 900 	
-16.630922 	-0.0088882163 	 900 	
-15.649365 	-0.008366298 	 900 	
-14.689414 	-0.0079175446 	 900 	
-13.692424 	-0.0074326972 	 900 	
-12.754079 	-0.006950708 	 900.01 	
-11.713874 	-0.0064710982 	 900.01 	
-10.707623 	-0.0059666321 	 900.01 	
-9.6180325 	-0.0054656286 	 900.01 	
-8.722901 	-0.0049940787 	 900.01 	
-7.6796098 	-0.0044978328 	 900.01 	
-6.7196587 	-0.0040335447 	 900.01 	
-5.735014 	-0.0035251197 	 900 	
-4.7195029 	-0.0030272048 	 900.01 	
-3.7502918 	-0.0025021441 	 900.01 	
-2.6020541 	-0.0019854101 	 900.01 	
-1.7285295 	-0.0015290047 	 900.01 	
-0.70684514 	-0.00099639852 	 900.01 	
 0.31827767 	-0.00049844833 	 900.01 	
 1.2946748 	 0.0000077042271 	 900 	
 2.3359769 	 0.00053434497 	 900.01 	
 3.2691312 	 0.0010298272 	 900.01 	
 4.2872589 	 0.0015200897 	 900.01 	
 5.3007515 	 0.0020239873 	 900 	
 6.2709851 	 0.0025327497 	 900 	
 7.4714176 	 0.0031424266 	 900 	
 8.3288689 	 0.00357442 	 900 	
 9.3655361 	 0.0041009008 	 900 	
 10.280152 	 0.0045732673 	 900 	
 11.239571 	 0.0050779819 	 900 	
 12.314861 	 0.0055836549 	 900 	
 13.332988 	 0.0060621998 	 900.01 	
 14.283138 	 0.0065631503 	 900 	
 15.378513 	 0.0070471276 	 900.01 	
 16.279223 	 0.0075466578 	 900 	
 17.343699 	 0.0080656465 	 900 	
 18.306209 	 0.0085232412 	 900 	
 19.315067 	 0.0090648844 	 900 	
 20.348645 	 0.0095132472 	 900 	
 21.257079 	 0.0099853295 	 900 	
 22.392623 	 0.010489795 	 900 	
 23.155832 	 0.010943236 	 900 	
 24.462866 	 0.0115021 	 900.01 	
 25.207542 	 0.011907285 	 900 	
 26.264292 	 0.012398258 	 900.01 	
 27.480176 	 0.012922537 	 900 	
 28.275828 	 0.013330527 	 900 	
 29.306315 	 0.013796254 	 900 	
 30.15141 	 0.014301998 	 900 	
 31.487801 	 0.014901803 	 900 	
 32.179939 	 0.015329926 	 900 	
 33.377281 	 0.015809004 	 900 	
 34.270269 	 0.016277216 	 900 	
 35.27449 	 0.01672217 	 900 	
 36.252449 	 0.017209414 	 900 	
 37.438978 	 0.017688811 	 900 	
 38.194458 	 0.018147862 	 900 	
 39.33773 	 0.018624808 	 900 	
 40.283246 	 0.019071681 	 900 	
 41.590279 	 0.019598871 	 900 	
 42.160372 	 0.020042086 	 900 	
 42.979197 	 0.020493999 	 900 	
 44.320223 	 0.02100823 	 900 	
 45.026265 	 0.021449882 	 900 	
 46.308578 	 0.021913158 	 900 	
 47.223198 	 0.022375333 	 900 	
 48.313937 	 0.022854589 	 900 	
 49.293447 	 0.023312539 	 900 	
 50.257342 	 0.023768997 	 900 	
 51.253268 	 0.024251306 	 900 	
 52.369466 	 0.024722784 	 900.01 	
 53.335911 	 0.025177539 	 900.01 	
 54.302359 	 0.025647917 	 900.01 	
 55.345996 	 0.026108566 	 900 	
 56.147255 	 0.026563852 	 900.01 	
 57.366889 	 0.027041829 	 900.01 	
 58.166598 	 0.027497897 	 900.01 	
 59.494305 	 0.028054026 	 900.01 	
 60.294008 	 0.028416814 	 900.01 	
 61.098358 	 0.028890493 	 900.01 	
 62.501714 	 0.029457205 	 900.01 	
 63.156298 	 0.029884617 	 900.01 	
 64.442322 	 0.030330814 	 900.01 	
 65.311501 	 0.030777332 	 900 	
 66.222366 	 0.031229458 	 900.01 	
 67.414213 	 0.031693551 	 900 	
 68.192314 	 0.032163574 	 900.01 	
 69.362549 	 0.032642474 	 900 	
 70.355245 	 0.033096767 	 900.01 	
 71.252213 	 0.03354545 	 900 	
 72.139923 	 0.033998143 	 900.01 	
 73.419767 	 0.034488265 	 900.01 	
 74.335264 	 0.034960453 	 900.01 	
 75.008392 	 0.035383782 	 900.01 	
 75.953217 	 0.035862895 	 900 	
 77.240784 	 0.036314277 	 900 	
 78.526805 	 0.03679449 	 900 	
 79.278661 	 0.037262916 	 900 	
 80.32075 	 0.037717387 	 900 	
 81.291829 	 0.03821088 	 900 	
 82.369425 	 0.038627534 	 900 	
 83.192301 	 0.039103841 	 900 	
 84.444356 	 0.039584055 	 900 	
 85.202382 	 0.040020878 	 900 	
 86.357178 	 0.040474461 	 899.99 	
 87.238714 	 0.040918101 	 899.99 	
 88.34256 	 0.041420045 	 900 	
 89.153076 	 0.041886197 	 900 	
 90.301697 	 0.042399186 	 900 	
 91.329895 	 0.042866688 	 900 	
 92.327215 	 0.043346581 	 900 	
 93.494359 	 0.04377371 	 900 	
 94.175196 	 0.044108553 	 900 	
 95.302205 	 0.044609469 	 900 	
 96.407593 	 0.045117165 	 900 	
 97.035934 	 0.045478923 	 900 	
 98.41922 	 0.046059875 	 899.99 	
 99.28686 	 0.046490199 	 899.99 	
 100.32128 	 0.046931354 	 899.99 	
 101.23235 	 0.047401306 	 899.99 	
 102.3813 	 0.047873921 	 899.99 	
 103.29398 	 0.048316246 	 899.99 	
 104.32402 	 0.048760845 	 899.99 	
 105.3448 	 0.04922714 	 899.99 	
 106.29454 	 0.049667372 	 899.99 	
 107.17324 	 0.050129867 	 899.99 	
 108.40559 	 0.050624534 	 899.99 	
 109.35378 	 0.051056525 	 900 	
 110.19079 	 0.051508013 	 900 	
 111.32894 	 0.051974202 	 900 	
 112.27714 	 0.052418551 	 900 	
 113.29791 	 0.052895002 	 900 	
 114.31406 	 0.05334198 	 900 	
 115.29776 	 0.053805114 	 900 	
 116.32627 	 0.054252127 	 900 	
 117.30691 	 0.054712738 	 900 	
 118.28289 	 0.055180205 	 900 	
 119.34691 	 0.055622851 	 900 	
 120.24414 	 0.056084632 	 900 	
 121.2711 	 0.056540381 	 900 	
 122.32122 	 0.056978483 	 900 	
 123.26324 	 0.057434941 	 900 	
 124.31027 	 0.057909758 	 900.01 	
 125.27082 	 0.058376692 	 900.01 	
 126.32711 	 0.058819551 	 900 	
 127.27069 	 0.059258291 	 900 	
 128.32236 	 0.059753274 	 900 	
 129.24121 	 0.060161728 	 900.01 	
 130.29287 	 0.060631645 	 900 	
 131.28431 	 0.061086468 	 900.01 	
 132.2742 	 0.061533378 	 900.01 	
 133.3058 	 0.061984792 	 900.01 	
 134.27253 	 0.062424419 	 900.01 	
 135.29485 	 0.062905417 	 900.01 	
 136.27238 	 0.063358889 	 900.01 	
 137.30552 	 0.063835624 	 900.01 	
 138.25989 	 0.064273905 	 900.01 	
 139.30538 	 0.064700537 	 900.01 	
 140.26746 	 0.065165729 	 900.01 	
 141.30061 	 0.065623925 	 900.01 	
 142.26579 	 0.066077796 	 900.01 	
 143.28657 	 0.066531059 	 900.01 	
 144.21004 	 0.066973098 	 900.01 	
 145.34047 	 0.067462438 	 900.01 	
 146.31028 	 0.06789145 	 900.01 	
 147.2585 	 0.068334911 	 900.01 	
 148.3256 	 0.06880696 	 900.01 	
 149.3016 	 0.069242114 	 900 	
 150.29921 	 0.069698535 	 900 	
 151.31536 	 0.070164796 	 900 	
 152.23267 	 0.07059036 	 900 	
 153.32595 	 0.07104998 	 900.01 	
 154.32942 	 0.071507504 	 900 	
 155.30512 	 0.071972557 	 900 	
 156.28696 	 0.072403981 	 900.01 	
 157.29505 	 0.072831996 	 900.01 	
 158.33402 	 0.073336676 	 900.01 	
 159.26803 	 0.073744418 	 900.01 	
 160.29155 	 0.074211671 	 900.01 	
 161.30428 	 0.074670758 	 900 	
 162.2321 	 0.075105451 	 900 	
 163.34208 	 0.0755732 	 900.01 	
 164.273 	 0.076003276 	 900.01 	
 165.28881 	 0.076473546 	 900.01 	
 166.28146 	 0.076923936 	 900.01 	
 167.27567 	 0.077349324 	 900.01 	
 168.3378 	 0.077826412 	 900 	
 169.26254 	 0.078257875 	 900 	
 170.29842 	 0.078704177 	 900 	
 171.2957 	 0.079166105 	 900 	
 172.29454 	 0.079604027 	 900 	
 173.2841 	 0.080059102 	 900 	
 174.30765 	 0.080512329 	 900.01 	
 175.29722 	 0.080968895 	 900.01 	
 176.2976 	 0.081412924 	 900 	
 177.27326 	 0.08185067 	 900 	
 178.33694 	 0.082310076 	 900 	
 179.29564 	 0.082758617 	 900 	
 180.29139 	 0.083201937 	 900 	
 181.32881 	 0.083671569 	 900 	
 182.28133 	 0.084080127 	 900 	
 183.30177 	 0.084572451 	 900 	
 184.28825 	 0.085006504 	 900 	
 185.25777 	 0.085436116 	 900 	
 186.2921 	 0.085895948 	 900 	
 187.33416 	 0.086346795 	 900 	
 188.32218 	 0.086791821 	 900 	
 189.30558 	 0.087227829 	 900 	
 190.28589 	 0.087675054 	 900 	
 191.29708 	 0.088134711 	 900 	
 192.29436 	 0.088573344 	 900 	
 193.28702 	 0.089017125 	 900 	
 194.29512 	 0.089470209 	 899.99 	
 195.26926 	 0.089910727 	 899.99 	
 196.30821 	 0.09038011 	 900 	
 197.27927 	 0.090814161 	 900 	

	
	
