Start Time:  20/09/16 9:52:17 AM          Time Completed:  20/09/16 9:59:59 AM      Elapsed Time:  00:07:43
Sample ID:     2020-09-14_BM5B-66MG-F7_1100ox_after_press

Experiment:    C:\IDEASVSM\Inducat\Experiments\hys_c_5000(1_5)_03s_master05\hys_c_5000(1_5)_03s_master05.exp
Data File:     C:\IDEASVSM\Inducat\2020-09-14_BM5B-66MG-F7_1100ox_after_press (ProfileData)\2020-09-14_BM5B-66MG-F7_1100ox_after_press#103.txt
Plot File:     C:\IDEASVSM\Inducat\2020-09-14_BM5B-66MG-F7_1100ox_after_press (ProfileData)\2020-09-14_BM5B-66MG-F7_1100ox_after_press#103.oc2
VSM Exp File:  C:\IDEASVSM\Inducat\Experiments\hys_c_5000(1_5)_03s_master05\hys_c_5000(1_5)_03s_master05.stp
VSM Data File: C:\IDEASVSM\Inducat\2020-09-14_BM5B-66MG-F7_1100ox_after_press (ProfileData)\2020-09-14_BM5B-66MG-F7_1100ox_after_press#103.dat

***DATA***

Field(Oe)	 Moment(emu)	 Temperature(C)	
 4999.0571 	 1.5143235 	 200.114 	
 4992.4839 	 1.5213398 	 200.114 	
 4982.5242 	 1.5227113 	 200.11 	
 4973.0283 	 1.5204673 	 200.112 	
 4962.7092 	 1.5200605 	 200.112 	
 4951.7034 	 1.5176599 	 200.104 	
 4942.3042 	 1.5159949 	 200.104 	
 4932.2588 	 1.5151294 	 200.105 	
 4922.2554 	 1.5140759 	 200.105 	
 4912.1877 	 1.5132503 	 200.105 	
 4902.1804 	 1.51127 	 200.098 	
 4892.229 	 1.5103709 	 200.102 	
 4882.0125 	 1.5097616 	 200.102 	
 4872.5032 	 1.5079912 	 200.102 	
 4862.3943 	 1.5078421 	 200.102 	
 4851.8765 	 1.5062421 	 200.104 	
 4842.5137 	 1.505099 	 200.104 	
 4831.6125 	 1.5044679 	 200.102 	
 4822.4583 	 1.5019443 	 200.102 	
 4812.4573 	 1.5023784 	 200.102 	
 4801.2998 	 1.5007571 	 200.1 	
 4792.3198 	 1.4993611 	 200.1 	
 4781.897 	 1.4990713 	 200.101 	
 4772.1638 	 1.4972029 	 200.101 	
 4762.2932 	 1.496323 	 200.101 	
 4752.1018 	 1.4954346 	 200.097 	
 4742.407 	 1.4945728 	 200.097 	
 4731.7056 	 1.4936465 	 200.097 	
 4722.2307 	 1.4915054 	 200.097 	
 4712.2915 	 1.4914553 	 200.096 	
 4702.0637 	 1.490062 	 200.097 	
 4692.3301 	 1.4891139 	 200.093 	
 4681.9968 	 1.4881424 	 200.094 	
 4672.1763 	 1.4864529 	 200.094 	
 4662.4524 	 1.4856955 	 200.094 	
 4651.4854 	 1.4844029 	 200.096 	
 4642.2322 	 1.482723 	 200.096 	
 4631.7869 	 1.4824444 	 200.093 	
 4622.4617 	 1.4806623 	 200.093 	
 4612.5879 	 1.4800588 	 200.093 	
 4601.9414 	 1.4789978 	 200.092 	
 4591.9856 	 1.4773222 	 200.088 	
 4581.8149 	 1.4765578 	 200.09 	
 4572.3953 	 1.4750132 	 200.09 	
 4562.5132 	 1.4743368 	 200.09 	
 4551.5293 	 1.472765 	 200.085 	
 4542.3159 	 1.4716023 	 200.085 	
 4531.9692 	 1.4709988 	 200.087 	
 4522.467 	 1.4692284 	 200.087 	
 4512.2527 	 1.4681648 	 200.084 	
 4502.1853 	 1.4668737 	 200.082 	
 4492.4907 	 1.4657834 	 200.082 	
 4482.1575 	 1.4652023 	 200.083 	
 4472.1125 	 1.4632481 	 200.083 	
 4462.3594 	 1.4621418 	 200.083 	
 4452.0259 	 1.4608758 	 200.082 	
 4442.1377 	 1.4598734 	 200.082 	
 4432.1113 	 1.4583826 	 200.074 	
 4422.7144 	 1.4570313 	 200.076 	
 4412.4819 	 1.4567948 	 200.076 	
 4401.7983 	 1.4545248 	 200.076 	
 4392.3843 	 1.4535666 	 200.077 	
 4381.998 	 1.4527666 	 200.074 	
 4372.5581 	 1.4507714 	 200.074 	
 4362.5044 	 1.4501109 	 200.075 	
 4352.0972 	 1.4487357 	 200.076 	
 4342.4409 	 1.4475527 	 200.073 	
 4332.1582 	 1.4464135 	 200.074 	
 4322.4785 	 1.4444709 	 200.071 	
 4312.228 	 1.4435708 	 200.071 	
 4302.3076 	 1.4418414 	 200.073 	
 4292.6812 	 1.441238 	 200.073 	
 4282.0977 	 1.4401285 	 200.071 	
 4272.542 	 1.4382542 	 200.071 	
 4262.7227 	 1.437206 	 200.073 	
 4251.7583 	 1.4358345 	 200.068 	
 4242.666 	 1.4340998 	 200.068 	
 4232.4272 	 1.4332688 	 200.067 	
 4222.5757 	 1.4317812 	 200.066 	
 4212.3618 	 1.4308901 	 200.067 	
 4202.2256 	 1.4290041 	 200.067 	
 4192.3926 	 1.4280662 	 200.066 	
 4182.2544 	 1.4259469 	 200.065 	
 4172.8682 	 1.4246622 	 200.065 	
 4162.6909 	 1.4240581 	 200.067 	
 4152.4131 	 1.4222259 	 200.06 	
 4142.5313 	 1.4211165 	 200.06 	
 4132.3247 	 1.41973 	 200.061 	
 4122.4888 	 1.4180284 	 200.061 	
 4111.793 	 1.4164129 	 200.059 	
 4102.8823 	 1.4146126 	 200.059 	
 4092.4668 	 1.4138893 	 200.056 	
 4081.9795 	 1.4120784 	 200.057 	
 4072.981 	 1.4106456 	 200.057 	
 4062.1826 	 1.4099543 	 200.058 	
 4052.1079 	 1.4074904 	 200.058 	
 4042.688 	 1.4059942 	 200.058 	
 4032.3848 	 1.4049279 	 200.054 	
 4022.6357 	 1.4035761 	 200.054 	
 4012.3511 	 1.4021577 	 200.049 	
 4002.6167 	 1.4005236 	 200.049 	
 3992.9805 	 1.3993609 	 200.049 	
 3982.395 	 1.3977141 	 200.048 	
 3972.7017 	 1.3961279 	 200.051 	
 3962.4541 	 1.3946073 	 200.045 	
 3952.6133 	 1.392897 	 200.045 	
 3942.7251 	 1.3916853 	 200.047 	
 3932.6211 	 1.3902616 	 200.047 	
 3922.9785 	 1.3891473 	 200.047 	
 3911.8701 	 1.3872315 	 200.044 	
 3902.5918 	 1.3845513 	 200.044 	
 3892.7222 	 1.3837939 	 200.045 	
 3882.7397 	 1.3822333 	 200.045 	
 3872.9019 	 1.3809188 	 200.045 	
 3862.2222 	 1.379182 	 200.043 	
 3852.6553 	 1.3770706 	 200.043 	
 3842.5654 	 1.3760634 	 200.04 	
 3833.0347 	 1.3741571 	 200.039 	
 3822.9126 	 1.3731191 	 200.039 	
 3812.2881 	 1.3712379 	 200.04 	
 3802.7256 	 1.3690222 	 200.04 	
 3792.5117 	 1.368065 	 200.037 	
 3782.6968 	 1.3658812 	 200.037 	
 3772.728 	 1.3644565 	 200.037 	
 3762.2158 	 1.3628794 	 200.037 	
 3753.2935 	 1.3610589 	 200.037 	
 3742.4644 	 1.359918 	 200.036 	
 3732.7305 	 1.3577491 	 200.036 	
 3722.5736 	 1.3563036 	 200.037 	
 3712.3439 	 1.354041 	 200.039 	
 3703.4053 	 1.3525102 	 200.035 	
 3692.8146 	 1.3514338 	 200.031 	
 3682.9656 	 1.3493614 	 200.031 	
 3672.5432 	 1.3478807 	 200.031 	
 3662.1198 	 1.3455669 	 200.035 	
 3653.1538 	 1.343885 	 200.035 	
 3642.6782 	 1.342629 	 200.031 	
 3633.1318 	 1.3404597 	 200.03 	
 3622.8514 	 1.3389757 	 200.03 	
 3612.3098 	 1.3368074 	 200.029 	
 3602.6805 	 1.3348671 	 200.029 	
 3593.129 	 1.3333656 	 200.029 	
 3583.0096 	 1.3316527 	 200.029 	
 3573.0916 	 1.3301001 	 200.029 	
 3562.5217 	 1.3280591 	 200.025 	
 3552.8651 	 1.3258034 	 200.025 	
 3542.741 	 1.3244277 	 200.021 	
 3532.942 	 1.3220218 	 200.021 	
 3523.1868 	 1.3207456 	 200.025 	
 3512.5118 	 1.3189283 	 200.021 	
 3503.3899 	 1.3168862 	 200.023 	
 3492.6479 	 1.3155142 	 200.02 	
 3482.8405 	 1.3129464 	 200.02 	
 3473.4956 	 1.3109906 	 200.02 	
 3462.5637 	 1.3094833 	 200.022 	
 3453.3546 	 1.3072319 	 200.022 	
 3442.7852 	 1.3057726 	 200.014 	
 3433.2566 	 1.3034236 	 200.02 	
 3423.4513 	 1.3018737 	 200.02 	
 3412.3724 	 1.2997379 	 200.018 	
 3403.4728 	 1.2976511 	 200.018 	
 3393.1738 	 1.296107 	 200.012 	
 3382.7766 	 1.2937219 	 200.012 	
 3373.1772 	 1.2919611 	 200.012 	
 3363.1261 	 1.2898023 	 200.01 	
 3353.4971 	 1.2882007 	 200.01 	
 3342.6156 	 1.2861347 	 200.01 	
 3333.1519 	 1.2832814 	 200.01 	
 3323.2109 	 1.281903 	 200.008 	
 3312.9534 	 1.2798439 	 200.008 	
 3303.4751 	 1.2780388 	 200.008 	
 3292.915 	 1.2761283 	 200.008 	
 3282.9833 	 1.2736952 	 200.008 	
 3273.1367 	 1.2716595 	 200.008 	
 3262.6263 	 1.2692084 	 200.004 	
 3253.328 	 1.2674268 	 200.004 	
 3242.9144 	 1.2657091 	 200.007 	
 3233.3081 	 1.2632787 	 200.007 	
 3223.64 	 1.261423 	 200.007 	
 3212.7106 	 1.2590044 	 200.006 	
 3203.4393 	 1.2565836 	 200.006 	
 3192.9341 	 1.2551381 	 199.999 	
 3183.4794 	 1.2525133 	 199.999 	
 3173.5132 	 1.2507354 	 199.999 	
 3162.8638 	 1.2484569 	 200 	
 3153.7596 	 1.246093 	 200 	
 3142.9333 	 1.2441091 	 199.999 	
 3133.2489 	 1.2417751 	 199.999 	
 3123.6616 	 1.2395002 	 199.998 	
 3113.1443 	 1.2373149 	 199.997 	
 3103.504 	 1.2353165 	 199.997 	
 3092.6982 	 1.2327732 	 199.996 	
 3083.5785 	 1.2302826 	 199.994 	
 3073.3757 	 1.2285351 	 199.994 	
 3063.0291 	 1.2258118 	 199.991 	
 3053.9595 	 1.2237021 	 199.991 	
 3043.1628 	 1.2219791 	 199.992 	
 3033.0386 	 1.2189911 	 199.991 	
 3023.5654 	 1.2170683 	 199.991 	
 3013.326 	 1.2148233 	 199.989 	
 3003.6788 	 1.2120062 	 199.989 	
 2992.9213 	 1.2100723 	 199.989 	
 2983.5743 	 1.2073777 	 199.989 	
 2973.5601 	 1.2055146 	 199.988 	
 2963.0371 	 1.2028983 	 199.987 	
 2953.9055 	 1.2005303 	 199.987 	
 2942.6987 	 1.1981357 	 199.984 	
 2934.0598 	 1.1954352 	 199.985 	
 2923.8455 	 1.1938874 	 199.985 	
 2912.7258 	 1.1910597 	 199.982 	
 2903.6677 	 1.1882869 	 199.982 	
 2893.1611 	 1.1864722 	 199.985 	
 2883.3152 	 1.1833036 	 199.985 	
 2874.0522 	 1.1813117 	 199.985 	
 2863.2759 	 1.1789628 	 199.981 	
 2854.0061 	 1.1764632 	 199.981 	
 2842.967 	 1.174191 	 199.977 	
 2833.3955 	 1.1709984 	 199.977 	
 2823.4023 	 1.1691316 	 199.977 	
 2813.4851 	 1.1661223 	 199.972 	
 2804.0701 	 1.1641612 	 199.972 	
 2793.5706 	 1.1618836 	 199.972 	
 2783.8071 	 1.1589824 	 199.972 	
 2773.3716 	 1.1567055 	 199.972 	
 2763.0034 	 1.153579 	 199.972 	
 2754.0603 	 1.151311 	 199.972 	
 2743.6133 	 1.1490575 	 199.971 	
 2733.9705 	 1.1461552 	 199.968 	
 2723.5718 	 1.1439352 	 199.968 	
 2713.3552 	 1.1407364 	 199.968 	
 2703.7903 	 1.1384024 	 199.968 	
 2693.7351 	 1.1356147 	 199.965 	
 2684.0322 	 1.1331246 	 199.969 	
 2674.0271 	 1.1308844 	 199.969 	
 2663.3271 	 1.127792 	 199.964 	
 2653.9258 	 1.125213 	 199.962 	
 2643.3132 	 1.1226309 	 199.96 	
 2633.9277 	 1.1194734 	 199.96 	
 2624.1536 	 1.1174585 	 199.96 	
 2613.6768 	 1.1146175 	 199.962 	
 2604.2153 	 1.1119336 	 199.962 	
 2593.2549 	 1.1092173 	 199.958 	
 2583.9919 	 1.1059214 	 199.958 	
 2574.1506 	 1.103867 	 199.958 	
 2563.1489 	 1.1007491 	 199.958 	
 2554.1343 	 1.0982276 	 199.956 	
 2543.4089 	 1.0955906 	 199.956 	
 2534.0764 	 1.0921717 	 199.956 	
 2524.3137 	 1.0900023 	 199.956 	
 2513.321 	 1.0868582 	 199.956 	
 2504.1431 	 1.0839134 	 199.956 	
 2493.8042 	 1.0814963 	 199.958 	
 2484.2419 	 1.0783016 	 199.958 	
 2474.3638 	 1.0759384 	 199.958 	
 2463.24 	 1.0724774 	 199.952 	
 2454.0022 	 1.0695964 	 199.952 	
 2443.9397 	 1.0669482 	 199.954 	
 2434.4004 	 1.0639389 	 199.954 	
 2424.3816 	 1.0614952 	 199.954 	
 2413.7969 	 1.0583048 	 199.954 	
 2404.4553 	 1.0555394 	 199.954 	
 2393.2944 	 1.0523836 	 199.951 	
 2384.407 	 1.0491181 	 199.951 	
 2374.0403 	 1.0466472 	 199.953 	
 2363.8909 	 1.0432859 	 199.952 	
 2354.3098 	 1.040701 	 199.948 	
 2343.8005 	 1.0376805 	 199.95 	
 2333.5818 	 1.0341226 	 199.95 	
 2324.3142 	 1.0313215 	 199.95 	
 2313.7175 	 1.0283708 	 199.951 	
 2304.908 	 1.0254723 	 199.95 	
 2293.6436 	 1.0225833 	 199.95 	
 2283.9314 	 1.0189433 	 199.95 	
 2274.332 	 1.0163175 	 199.948 	
 2263.7102 	 1.0129998 	 199.948 	
 2254.7856 	 1.0099649 	 199.948 	
 2244.4399 	 1.0074498 	 199.947 	
 2234.3912 	 1.0037854 	 199.949 	
 2224.2023 	 1.0009694 	 199.949 	
 2214.1265 	 0.99768472 	 199.947 	
 2203.9766 	 0.99419551 	 199.945 	
 2193.6748 	 0.99101792 	 199.943 	
 2184.6556 	 0.98784236 	 199.943 	
 2174.2295 	 0.98495345 	 199.943 	
 2164.105 	 0.98163885 	 199.942 	
 2154.5769 	 0.97855608 	 199.942 	
 2143.6213 	 0.97521439 	 199.941 	
 2134.5125 	 0.97178323 	 199.941 	
 2124.5837 	 0.96906846 	 199.938 	
 2113.9224 	 0.96559361 	 199.937 	
 2104.952 	 0.96235417 	 199.937 	
 2093.5953 	 0.95908597 	 199.939 	
 2084.3438 	 0.95549929 	 199.939 	
 2074.438 	 0.95274244 	 199.937 	
 2063.8693 	 0.94912273 	 199.934 	
 2054.963 	 0.94595898 	 199.934 	
 2044.2123 	 0.94288947 	 199.935 	
 2034.5964 	 0.93917598 	 199.935 	
 2024.5413 	 0.93615017 	 199.935 	
 2013.6914 	 0.93225504 	 199.939 	
 2004.7828 	 0.92874134 	 199.939 	
 1993.7142 	 0.92550622 	 199.928 	
 1984.7458 	 0.9221278 	 199.928 	
 1974.7365 	 0.9192042 	 199.933 	
 1964.0939 	 0.91552748 	 199.93 	
 1954.8655 	 0.91213788 	 199.931 	
 1943.8499 	 0.90875785 	 199.929 	
 1934.7247 	 0.90469394 	 199.931 	
 1925.1436 	 0.90177673 	 199.931 	
 1913.8332 	 0.89807978 	 199.926 	
 1904.517 	 0.89456873 	 199.926 	
 1894.1923 	 0.89141719 	 199.923 	
 1884.5444 	 0.88766272 	 199.923 	
 1874.8875 	 0.88436471 	 199.927 	
 1864.5491 	 0.88079348 	 199.925 	
 1854.4751 	 0.87700868 	 199.925 	
 1844.376 	 0.87363718 	 199.928 	
 1834.8021 	 0.8700377 	 199.923 	
 1824.8595 	 0.86677751 	 199.923 	
 1814.3342 	 0.86287711 	 199.922 	
 1804.6705 	 0.85917269 	 199.922 	
 1794.2144 	 0.85554768 	 199.917 	
 1784.9053 	 0.85188693 	 199.917 	
 1775.0086 	 0.84875352 	 199.917 	
 1764.0389 	 0.84461503 	 199.918 	
 1754.6008 	 0.84071941 	 199.918 	
 1744.6054 	 0.83729891 	 199.919 	
 1734.7941 	 0.83369145 	 199.919 	
 1725.0589 	 0.83029275 	 199.919 	
 1714.2965 	 0.82623045 	 199.913 	
 1704.6808 	 0.82247493 	 199.913 	
 1694.3746 	 0.81876412 	 199.917 	
 1685.3027 	 0.81481472 	 199.917 	
 1675.1368 	 0.81175213 	 199.917 	
 1664.2408 	 0.80763228 	 199.918 	
 1655.5396 	 0.80412229 	 199.919 	
 1644.2635 	 0.80026342 	 199.918 	
 1635.0649 	 0.79593159 	 199.921 	
 1625.15 	 0.79272734 	 199.921 	
 1614.2841 	 0.78855584 	 199.916 	
 1605.6058 	 0.78515823 	 199.916 	
 1594.2561 	 0.78117208 	 199.917 	
 1585.2142 	 0.77671562 	 199.917 	
 1575.1863 	 0.77362159 	 199.917 	
 1564.6265 	 0.76940054 	 199.917 	
 1555.2875 	 0.76577017 	 199.911 	
 1544.3547 	 0.7616466 	 199.912 	
 1534.8796 	 0.75694726 	 199.914 	
 1525.5269 	 0.75391024 	 199.914 	
 1514.7666 	 0.7499683 	 199.916 	
 1505.2963 	 0.74606842 	 199.916 	
 1494.3483 	 0.74186175 	 199.915 	
 1484.9628 	 0.73752461 	 199.915 	
 1475.0953 	 0.73412219 	 199.911 	
 1465.036 	 0.72983725 	 199.914 	
 1455.3326 	 0.72631233 	 199.912 	
 1444.77 	 0.72221324 	 199.915 	
 1434.8632 	 0.71766838 	 199.915 	
 1424.9542 	 0.71393364 	 199.915 	
 1414.9781 	 0.70961832 	 199.911 	
 1405.381 	 0.70616105 	 199.911 	
 1395.1554 	 0.70203693 	 199.907 	
 1385.191 	 0.69791014 	 199.911 	
 1375.3212 	 0.69401722 	 199.911 	
 1364.5021 	 0.68916873 	 199.905 	
 1355.5286 	 0.68543878 	 199.905 	
 1344.9867 	 0.68144782 	 199.906 	
 1335.2416 	 0.67710319 	 199.906 	
 1325.2609 	 0.67332744 	 199.909 	
 1314.8922 	 0.6687799 	 199.905 	
 1305.5306 	 0.66480064 	 199.907 	
 1295.0165 	 0.66061372 	 199.902 	
 1284.7794 	 0.65596923 	 199.902 	
 1275.1429 	 0.65215938 	 199.902 	
 1264.9729 	 0.64777907 	 199.903 	
 1255.2302 	 0.64370182 	 199.903 	
 1245.0554 	 0.63939448 	 199.906 	
 1235.7423 	 0.63518303 	 199.906 	
 1225.3575 	 0.63138757 	 199.907 	
 1215.0857 	 0.62657156 	 199.903 	
 1205.2482 	 0.62222854 	 199.903 	
 1195.159 	 0.61794253 	 199.901 	
 1185.5527 	 0.61359473 	 199.901 	
 1175.3826 	 0.60975716 	 199.901 	
 1165.1595 	 0.60499017 	 199.901 	
 1155.8671 	 0.60095768 	 199.901 	
 1144.9464 	 0.59639628 	 199.903 	
 1135.2128 	 0.5917715 	 199.903 	
 1125.1075 	 0.58764208 	 199.901 	
 1115.5543 	 0.58321704 	 199.901 	
 1105.8924 	 0.57917071 	 199.901 	
 1094.9114 	 0.57452996 	 199.895 	
 1085.3813 	 0.56977364 	 199.895 	
 1074.6268 	 0.56541728 	 199.898 	
 1065.219 	 0.56066736 	 199.898 	
 1055.9106 	 0.5569049 	 199.898 	
 1044.8837 	 0.55205854 	 199.899 	
 1035.8037 	 0.54782527 	 199.899 	
 1025.0887 	 0.54343164 	 199.897 	
 1015.5008 	 0.53847556 	 199.897 	
 1005.5663 	 0.53429873 	 199.897 	
 994.64645 	 0.52921698 	 199.894 	
 986.00049 	 0.52519674 	 199.894 	
 975.23767 	 0.52089473 	 199.893 	
 965.79315 	 0.51605904 	 199.893 	
 955.40955 	 0.51149709 	 199.893 	
 945.12781 	 0.50663001 	 199.897 	
 935.40558 	 0.50203875 	 199.897 	
 925.42218 	 0.4978401 	 199.895 	
 915.66986 	 0.49321959 	 199.895 	
 905.66803 	 0.48866297 	 199.893 	
 895.03473 	 0.48381238 	 199.896 	
 886.1637 	 0.47969146 	 199.894 	
 874.82275 	 0.47461876 	 199.896 	
 865.81982 	 0.46976923 	 199.896 	
 855.65594 	 0.46534843 	 199.896 	
 845.54761 	 0.46028637 	 199.895 	
 835.9364 	 0.45602434 	 199.895 	
 825.49054 	 0.45129785 	 199.899 	
 815.4469 	 0.44631992 	 199.896 	
 805.49121 	 0.44171431 	 199.896 	
 795.23022 	 0.43679713 	 199.896 	
 786.28522 	 0.43243388 	 199.896 	
 775.27026 	 0.42747517 	 199.895 	
 765.50421 	 0.42237049 	 199.895 	
 755.76123 	 0.41811643 	 199.895 	
 745.22504 	 0.41335104 	 199.893 	
 735.87756 	 0.40831881 	 199.893 	
 725.37146 	 0.40355183 	 199.894 	
 715.99622 	 0.39859311 	 199.894 	
 706.04977 	 0.39420428 	 199.895 	
 695.28931 	 0.38893502 	 199.893 	
 686.18005 	 0.38427776 	 199.893 	
 675.1004 	 0.37920666 	 199.897 	
 665.83841 	 0.37393581 	 199.895 	
 656.16721 	 0.36975631 	 199.895 	
 645.25647 	 0.36454618 	 199.894 	
 636.23962 	 0.3597286 	 199.892 	
 625.15533 	 0.35466814 	 199.893 	
 615.70844 	 0.34940582 	 199.893 	
 606.44189 	 0.34495095 	 199.89 	
 595.27667 	 0.33968009 	 199.891 	
 586.14197 	 0.33482736 	 199.891 	
 575.60812 	 0.33031337 	 199.892 	
 565.97382 	 0.32498235 	 199.893 	
 555.9418 	 0.32010936 	 199.893 	
 545.86819 	 0.31475169 	 199.894 	
 536.22244 	 0.30974824 	 199.896 	
 526.28284 	 0.30516447 	 199.889 	
 515.91553 	 0.29975408 	 199.889 	
 506.10245 	 0.29486725 	 199.893 	
 495.98926 	 0.28975353 	 199.894 	
 485.97495 	 0.28465845 	 199.894 	
 475.42615 	 0.2793306 	 199.894 	
 466.29572 	 0.27433886 	 199.891 	
 456.26752 	 0.26968426 	 199.891 	
 446.06812 	 0.26444643 	 199.894 	
 436.09543 	 0.25931994 	 199.894 	
 426.24771 	 0.25423763 	 199.893 	
 415.81689 	 0.2484086 	 199.893 	
 406.1543 	 0.24364534 	 199.894 	
 395.75356 	 0.23838835 	 199.899 	
 386.27139 	 0.23341737 	 199.895 	
 376.21077 	 0.22847408 	 199.898 	
 366.16873 	 0.22302055 	 199.894 	
 356.08963 	 0.21785836 	 199.894 	
 345.59868 	 0.21226208 	 199.895 	
 336.4104 	 0.20725009 	 199.895 	
 326.32899 	 0.20252944 	 199.897 	
 316.05321 	 0.19687351 	 199.897 	
 306.48779 	 0.1918759 	 199.897 	
 295.63821 	 0.18611344 	 199.9 	
 286.46805 	 0.18114566 	 199.898 	
 276.57541 	 0.17627801 	 199.901 	
 265.80057 	 0.17035044 	 199.899 	
 256.19968 	 0.16525642 	 199.899 	
 246.41125 	 0.1601917 	 199.902 	
 236.56033 	 0.15501885 	 199.902 	
 225.89193 	 0.14947317 	 199.901 	
 215.92519 	 0.14344121 	 199.901 	
 206.43317 	 0.13857302 	 199.901 	
 195.91997 	 0.13317702 	 199.898 	
 186.54374 	 0.12808992 	 199.898 	
 176.00736 	 0.12263745 	 199.902 	
 165.98274 	 0.11668485 	 199.902 	
 156.61346 	 0.11189976 	 199.902 	
 145.92191 	 0.10618204 	 199.9 	
 136.7627 	 0.10112211 	 199.9 	
 126.07927 	 0.095574835 	 199.902 	
 116.11625 	 0.08946191 	 199.902 	
 106.26442 	 0.084312502 	 199.902 	
 96.39061 	 0.078824346 	 199.901 	
 86.342514 	 0.073769207 	 199.901 	
 75.870628 	 0.067899161 	 199.901 	
 66.463982 	 0.062365734 	 199.901 	
 56.976292 	 0.057178508 	 199.901 	
 45.519112 	 0.050579831 	 199.905 	
 36.840305 	 0.045588078 	 199.905 	
 26.238029 	 0.040214969 	 199.906 	
 16.697134 	 0.034558503 	 199.905 	
 6.6765366 	 0.029130532 	 199.905 	
-3.8706711 	 0.022867409 	 199.905 	
-13.51957 	 0.017068732 	 199.905 	
-23.432381 	 0.011543824 	 199.912 	
-33.55817 	 0.0054953471 	 199.912 	
-43.179287 	-0.000011451423 	 199.912 	
-53.927784 	-0.0062407545 	 199.913 	
-63.19335 	-0.011944091 	 199.913 	
-73.473495 	-0.017723859 	 199.912 	
-83.69342 	-0.024159821 	 199.912 	
-93.788254 	-0.029903903 	 199.912 	
-103.24357 	-0.035468225 	 199.91 	
-113.25881 	-0.040968365 	 199.909 	
-123.16749 	-0.046536416 	 199.912 	
-133.4236 	-0.05261978 	 199.912 	
-143.29523 	-0.058103942 	 199.912 	
-153.44044 	-0.063820063 	 199.91 	
-162.98425 	-0.069293037 	 199.91 	
-173.28324 	-0.074872276 	 199.908 	
-183.36912 	-0.080872816 	 199.912 	
-193.17239 	-0.086176416 	 199.912 	
-203.90226 	-0.092341804 	 199.914 	
-212.85309 	-0.097529296 	 199.914 	
-223.57367 	-0.10317618 	 199.916 	
-233.2565 	-0.10876393 	 199.916 	
-243.29141 	-0.11404996 	 199.913 	
-253.88229 	-0.12016448 	 199.915 	
-263.12961 	-0.12500922 	 199.915 	
-273.57687 	-0.13060364 	 199.919 	
-283.05585 	-0.13616317 	 199.919 	
-293.02127 	-0.14127556 	 199.914 	
-303.13957 	-0.14689287 	 199.913 	
-313.19341 	-0.15239861 	 199.913 	
-323.53458 	-0.15803351 	 199.913 	
-333.12054 	-0.16349743 	 199.918 	
-342.96596 	-0.16848359 	 199.918 	
-353.26082 	-0.17407561 	 199.917 	
-362.97653 	-0.17941943 	 199.915 	
-372.80334 	-0.18460319 	 199.915 	
-383.31596 	-0.1905779 	 199.917 	
-393.03629 	-0.19548842 	 199.917 	
-403.15509 	-0.20094223 	 199.917 	
-412.99127 	-0.20615688 	 199.916 	
-422.90155 	-0.21126022 	 199.918 	
-433.12689 	-0.2168802 	 199.916 	
-443.57465 	-0.22252068 	 199.916 	
-452.88727 	-0.22770497 	 199.922 	
-462.53809 	-0.23267434 	 199.922 	
-473.20822 	-0.23796144 	 199.924 	
-482.88687 	-0.24337583 	 199.924 	
-493.16312 	-0.24859448 	 199.92 	
-503.6897 	-0.25443098 	 199.923 	
-512.59436 	-0.25911994 	 199.923 	
-522.72214 	-0.26414044 	 199.926 	
-532.87769 	-0.26962941 	 199.924 	
-543.0379 	-0.27479505 	 199.924 	
-553.02664 	-0.2801655 	 199.924 	
-562.6958 	-0.28503607 	 199.924 	
-573.25443 	-0.29025632 	 199.93 	
-582.64551 	-0.29551412 	 199.926 	
-593.1532 	-0.30065395 	 199.926 	
-603.0354 	-0.30592372 	 199.924 	
-612.5748 	-0.31081748 	 199.924 	
-622.73505 	-0.31584118 	 199.928 	
-633.11295 	-0.32147715 	 199.927 	
-642.90244 	-0.32599593 	 199.926 	
-652.37234 	-0.33114188 	 199.928 	
-662.7132 	-0.33631844 	 199.927 	
-672.7576 	-0.34130007 	 199.927 	
-683.04294 	-0.34667399 	 199.93 	
-692.33673 	-0.3512724 	 199.93 	
-703.89139 	-0.35715469 	 199.929 	
-712.60617 	-0.3619057 	 199.929 	
-722.58569 	-0.36643247 	 199.929 	
-732.80606 	-0.37175977 	 199.929 	
-742.26663 	-0.3763872 	 199.929 	
-752.86234 	-0.38165539 	 199.931 	
-762.71222 	-0.38674195 	 199.933 	
-772.284 	-0.39153662 	 199.933 	
-782.56464 	-0.396469 	 199.931 	
-792.72949 	-0.40126661 	 199.931 	
-803.52905 	-0.40676435 	 199.932 	
-812.2901 	-0.4111609 	 199.932 	
-822.55688 	-0.41598727 	 199.932 	
-832.56415 	-0.42116837 	 199.934 	
-842.62238 	-0.4258552 	 199.932 	
-852.67151 	-0.43066559 	 199.934 	
-862.63239 	-0.43550127 	 199.935 	
-872.58875 	-0.44026213 	 199.94 	
-882.61462 	-0.44493374 	 199.94 	
-893.02032 	-0.45022831 	 199.94 	
-902.39752 	-0.45492419 	 199.94 	
-912.12231 	-0.45932419 	 199.94 	
-922.25934 	-0.46416815 	 199.942 	
-932.97546 	-0.46944459 	 199.944 	
-942.59821 	-0.47388162 	 199.944 	
-952.5777 	-0.47854502 	 199.944 	
-962.37201 	-0.4832092 	 199.944 	
-972.06885 	-0.4877578 	 199.946 	
-982.65527 	-0.49298043 	 199.946 	
-992.31049 	-0.49738365 	 199.946 	
-1002.9293 	-0.50238709 	 199.948 	
-1012.0843 	-0.50670668 	 199.945 	
-1023.0558 	-0.5114585 	 199.948 	
-1032.5584 	-0.51630057 	 199.948 	
-1042.0751 	-0.5206207 	 199.948 	
-1052.4351 	-0.52547423 	 199.951 	
-1062.1649 	-0.53001886 	 199.951 	
-1072.1912 	-0.53448408 	 199.951 	
-1082.9031 	-0.53958502 	 199.951 	
-1092.0028 	-0.5436953 	 199.951 	
-1102.2191 	-0.54825296 	 199.95 	
-1112.3937 	-0.55296988 	 199.95 	
-1122.4616 	-0.55717735 	 199.95 	
-1132.4601 	-0.56221462 	 199.955 	
-1142.0602 	-0.56633075 	 199.955 	
-1152.346 	-0.57097522 	 199.956 	
-1162.5067 	-0.57562798 	 199.956 	
-1171.7593 	-0.57974195 	 199.956 	
-1182.2304 	-0.58447536 	 199.956 	
-1192.1594 	-0.58887086 	 199.959 	
-1202.5192 	-0.59352492 	 199.958 	
-1211.9432 	-0.5978216 	 199.958 	
-1221.8351 	-0.60204183 	 199.958 	
-1232.8021 	-0.60706049 	 199.956 	
-1241.8692 	-0.61085385 	 199.96 	
-1252.3497 	-0.6154999 	 199.959 	
-1261.6578 	-0.61970446 	 199.959 	
-1271.8926 	-0.6239809 	 199.959 	
-1282.7668 	-0.62858544 	 199.959 	
-1292.1306 	-0.63288209 	 199.959 	
-1302.1154 	-0.63714737 	 199.961 	
-1312.1416 	-0.64151275 	 199.961 	
-1322.1493 	-0.6458145 	 199.964 	
-1332.0227 	-0.65014766 	 199.964 	
-1341.8638 	-0.65432873 	 199.964 	
-1352.256 	-0.65878254 	 199.969 	
-1361.8143 	-0.66284671 	 199.969 	
-1371.7063 	-0.66692396 	 199.969 	
-1382.6036 	-0.67172478 	 199.968 	
-1391.7635 	-0.6754675 	 199.965 	
-1402.1049 	-0.67984168 	 199.969 	
-1411.8672 	-0.68401508 	 199.969 	
-1421.6617 	-0.68806939 	 199.969 	
-1432.119 	-0.69243529 	 199.972 	
-1441.7283 	-0.69639619 	 199.972 	
-1451.8704 	-0.70071975 	 199.971 	
-1462.1515 	-0.70484998 	 199.973 	
-1472.0945 	-0.70893868 	 199.973 	
-1482.3059 	-0.71323108 	 199.977 	
-1491.4659 	-0.71691951 	 199.977 	
-1502.0482 	-0.72122497 	 199.976 	
-1511.5032 	-0.72518183 	 199.976 	
-1521.6748 	-0.72915948 	 199.974 	
-1532.087 	-0.7335174 	 199.977 	
-1541.5182 	-0.73730142 	 199.977 	
-1551.9999 	-0.7414077 	 199.977 	
-1561.8754 	-0.74563407 	 199.983 	
-1571.4824 	-0.74920902 	 199.983 	
-1581.9965 	-0.75356377 	 199.984 	
-1591.9321 	-0.75732356 	 199.984 	
-1601.655 	-0.7613715 	 199.986 	
-1611.6876 	-0.76531159 	 199.987 	
-1621.8223 	-0.76914593 	 199.994 	
-1631.9984 	-0.77328867 	 199.992 	
-1641.4622 	-0.77694942 	 199.992 	
-1651.6199 	-0.78094197 	 199.989 	
-1661.2917 	-0.784714 	 199.989 	
-1671.616 	-0.78861175 	 199.989 	
-1682.4215 	-0.79302293 	 199.997 	
-1691.4365 	-0.79633373 	 199.995 	
-1701.7607 	-0.80033216 	 199.997 	
-1711.2521 	-0.80403787 	 199.995 	
-1721.4838 	-0.80782377 	 199.995 	
-1731.7247 	-0.81186185 	 199.998 	
-1741.8826 	-0.81576252 	 199.995 	
-1751.6562 	-0.81940485 	 199.999 	
-1761.5316 	-0.82307281 	 199.999 	
-1771.6108 	-0.82683444 	 199.999 	
-1781.8888 	-0.83095403 	 200.001 	
-1791.0884 	-0.83421846 	 200.001 	
-1801.4498 	-0.83805603 	 199.999 	
-1811.2374 	-0.84172499 	 199.999 	
-1821.3675 	-0.84532153 	 199.999 	
-1831.9925 	-0.84951225 	 200.006 	
-1841.0582 	-0.8527836 	 200.006 	
-1851.9796 	-0.85686512 	 200.003 	
-1861.1608 	-0.86020335 	 200.003 	
-1871.2768 	-0.8636819 	 200.002 	
-1881.6429 	-0.86764729 	 200.007 	
-1891.0001 	-0.87105021 	 200.007 	
-1901.6574 	-0.87478549 	 200.003 	
-1911.3941 	-0.87841373 	 200.003 	
-1921.1539 	-0.88190799 	 200.005 	
-1932.0337 	-0.88562356 	 200.006 	
-1941.1639 	-0.88892479 	 200.006 	
-1951.4189 	-0.89276982 	 200.003 	
-1961.5579 	-0.89634849 	 200.005 	
-1971.4891 	-0.89975994 	 200.005 	
-1981.4478 	-0.90325955 	 200.007 	
-1991.2448 	-0.90671042 	 200.007 	
-2001.3746 	-0.91028831 	 200.006 	
-2011.139 	-0.91370007 	 200.006 	
-2021.2368 	-0.91693227 	 200.006 	
-2031.8572 	-0.92079806 	 200.011 	
-2040.9967 	-0.92394403 	 200.011 	
-2051.6219 	-0.92767318 	 200.011 	
-2060.8541 	-0.93081992 	 200.012 	
-2071.3033 	-0.93447349 	 200.012 	
-2081.248 	-0.93791578 	 200.014 	
-2091.0496 	-0.94113363 	 200.013 	
-2101.4526 	-0.94456001 	 200.017 	
-2110.8654 	-0.94771102 	 200.017 	
-2120.8843 	-0.95107134 	 200.017 	
-2131.2919 	-0.95467882 	 200.019 	
-2140.76 	-0.9577025 	 200.019 	
-2151.7555 	-0.96131956 	 200.021 	
-2160.6035 	-0.96435208 	 200.021 	
-2170.6962 	-0.96761279 	 200.019 	
-2181.03 	-0.97110465 	 200.023 	
-2190.6971 	-0.97427912 	 200.023 	
-2201.3176 	-0.97778248 	 200.024 	
-2210.7028 	-0.98068471 	 200.024 	
-2220.7079 	-0.98385621 	 200.024 	
-2231.7354 	-0.9875374 	 200.021 	
-2240.4633 	-0.99026928 	 200.021 	
-2251.1809 	-0.99374304 	 200.024 	
-2260.7234 	-0.99686555 	 200.023 	
-2270.8347 	-1.0000338 	 200.023 	
-2281.2886 	-1.0033931 	 200.024 	
-2290.7893 	-1.0063298 	 200.024 	
-2301.4653 	-1.0097199 	 200.026 	
-2310.7996 	-1.0125716 	 200.026 	
-2320.3691 	-1.0156033 	 200.026 	
-2330.8325 	-1.0190086 	 200.032 	
-2341.1892 	-1.0220491 	 200.034 	
-2351.3147 	-1.0251666 	 200.032 	
-2360.4495 	-1.0280629 	 200.033 	
-2370.7371 	-1.0312251 	 200.033 	
-2381.5981 	-1.0345378 	 200.031 	
-2390.6177 	-1.0372174 	 200.031 	
-2401.0251 	-1.0404752 	 200.032 	
-2410.5256 	-1.0433865 	 200.034 	
-2420.5769 	-1.0463117 	 200.034 	
-2430.9385 	-1.0493562 	 200.036 	
-2440.698 	-1.0522866 	 200.036 	
-2451.2029 	-1.0554691 	 200.035 	
-2460.5322 	-1.0582478 	 200.035 	
-2470.5835 	-1.0612427 	 200.035 	
-2480.9775 	-1.0644092 	 200.043 	
-2490.3901 	-1.0671128 	 200.043 	
-2500.9319 	-1.0700499 	 200.04 	
-2510.2798 	-1.0727175 	 200.04 	
-2520.5208 	-1.0758481 	 200.04 	
-2531.0256 	-1.0789355 	 200.043 	
-2540.7297 	-1.0816113 	 200.04 	
-2551.165 	-1.0845751 	 200.041 	
-2560.3835 	-1.0874289 	 200.042 	
-2570.4395 	-1.0902721 	 200.042 	
-2580.7917 	-1.0932425 	 200.041 	
-2590.1858 	-1.0957174 	 200.046 	
-2601.1626 	-1.0989592 	 200.046 	
-2610.5566 	-1.1014007 	 200.046 	
-2620.2285 	-1.1042135 	 200.046 	
-2631.1592 	-1.1072132 	 200.048 	
-2640.3542 	-1.1095653 	 200.048 	
-2650.8408 	-1.1126167 	 200.048 	
-2660.3691 	-1.1153118 	 200.045 	
-2670.4204 	-1.118014 	 200.045 	
-2680.7773 	-1.120809 	 200.047 	
-2690.2915 	-1.1232407 	 200.047 	
-2701.1946 	-1.1263483 	 200.045 	
-2710.3203 	-1.1286788 	 200.045 	
-2720.2373 	-1.1314042 	 200.045 	
-2730.6729 	-1.1343746 	 200.046 	
-2740.7192 	-1.1370016 	 200.046 	
-2750.7566 	-1.139597 	 200.048 	
-2760.1509 	-1.1421422 	 200.047 	
-2770.637 	-1.1448974 	 200.047 	
-2780.6423 	-1.1474386 	 200.05 	
-2790.2908 	-1.1498549 	 200.05 	
-2800.481 	-1.1525776 	 200.05 	
-2810.2549 	-1.1550892 	 200.05 	
-2820.093 	-1.157523 	 200.05 	
-2831.1208 	-1.1605217 	 200.053 	
-2840.2605 	-1.162747 	 200.053 	
-2850.645 	-1.1654703 	 200.055 	
-2859.9927 	-1.1679617 	 200.057 	
-2870.0027 	-1.1704365 	 200.057 	
-2880.8267 	-1.1732725 	 200.054 	
-2890.4939 	-1.1754453 	 200.054 	
-2900.6885 	-1.1779694 	 200.058 	
-2910.0549 	-1.1802628 	 200.058 	
-2919.8335 	-1.1827822 	 200.054 	
-2931.2544 	-1.1856278 	 200.059 	
-2939.9822 	-1.187648 	 200.057 	
-2950.6118 	-1.1902829 	 200.057 	
-2959.9275 	-1.1926416 	 200.057 	
-2969.6571 	-1.194918 	 200.057 	
-2981.1588 	-1.1978163 	 200.06 	
-2990.1119 	-1.1999007 	 200.06 	
-3000.5796 	-1.2025157 	 200.063 	
-3009.861 	-1.2047418 	 200.063 	
-3020.2826 	-1.2071071 	 200.063 	
-3030.6166 	-1.2094643 	 200.065 	
-3039.6995 	-1.2115458 	 200.065 	
-3050.6246 	-1.2143649 	 200.065 	
-3060.0809 	-1.2166358 	 200.065 	
-3069.9349 	-1.2188107 	 200.068 	
-3080.5647 	-1.221382 	 200.068 	
-3089.6196 	-1.2233835 	 200.066 	
-3100.4059 	-1.2258435 	 200.067 	
-3110.2043 	-1.2279559 	 200.067 	
-3119.7996 	-1.2301942 	 200.068 	
-3130.1886 	-1.2326105 	 200.07 	
-3139.95 	-1.2348502 	 200.07 	
-3150.4181 	-1.2372803 	 200.07 	
-3159.8286 	-1.239369 	 200.07 	
-3170.3152 	-1.2416582 	 200.07 	
-3180.8246 	-1.2439756 	 200.071 	
-3189.4086 	-1.2457689 	 200.071 	
-3200.1949 	-1.2482187 	 200.072 	
-3209.7765 	-1.2502499 	 200.072 	
-3219.5933 	-1.2524204 	 200.072 	
-3231.0587 	-1.2551075 	 200.073 	
-3239.5038 	-1.2566995 	 200.073 	
-3250.4106 	-1.2591637 	 200.071 	
-3259.7657 	-1.2612385 	 200.071 	
-3269.3657 	-1.2631999 	 200.073 	
-3280.3688 	-1.265692 	 200.071 	
-3289.6688 	-1.2674172 	 200.071 	
-3300.2983 	-1.2698457 	 200.074 	
-3309.981 	-1.2719197 	 200.074 	
-3319.9321 	-1.2738747 	 200.074 	
-3330.2889 	-1.2759488 	 200.081 	
-3339.2792 	-1.2778215 	 200.077 	
-3350.0197 	-1.2802777 	 200.077 	
-3359.6931 	-1.2821482 	 200.078 	
-3369.7086 	-1.2842507 	 200.078 	
-3380.2412 	-1.28636 	 200.075 	
-3389.8459 	-1.2881096 	 200.075 	
-3399.7089 	-1.2903041 	 200.08 	
-3409.3315 	-1.2922239 	 200.079 	
-3419.5271 	-1.2942921 	 200.079 	
-3429.8242 	-1.2962939 	 200.076 	
-3439.4426 	-1.2980849 	 200.076 	
-3449.9427 	-1.300299 	 200.076 	
-3459.9625 	-1.3023762 	 200.08 	
-3469.3733 	-1.3041608 	 200.08 	
-3479.8181 	-1.3061698 	 200.087 	
-3489.3162 	-1.3079214 	 200.087 	
-3499.5393 	-1.309906 	 200.087 	
-3510.2843 	-1.3118337 	 200.085 	
-3519.3068 	-1.3135954 	 200.083 	
-3529.6964 	-1.3158492 	 200.081 	
-3539.2825 	-1.3175715 	 200.081 	
-3549.275 	-1.3194063 	 200.081 	
-3560.255 	-1.3213736 	 200.083 	
-3569.3607 	-1.3230242 	 200.083 	
-3579.6951 	-1.3251491 	 200.089 	
-3589.4058 	-1.3269166 	 200.089 	
-3599.2687 	-1.3286029 	 200.089 	
-3610.1475 	-1.3306767 	 200.087 	
-3619.2578 	-1.332208 	 200.082 	
-3629.5779 	-1.3343696 	 200.088 	
-3639.0068 	-1.3359835 	 200.088 	
-3649.3038 	-1.337697 	 200.088 	
-3660.2151 	-1.3396893 	 200.088 	
-3669.1316 	-1.341286 	 200.088 	
-3680.0337 	-1.3431843 	 200.083 	
-3689.6008 	-1.3448274 	 200.089 	
-3699.0345 	-1.3465062 	 200.089 	
-3710.3884 	-1.3487041 	 200.087 	
-3719.1071 	-1.3500186 	 200.087 	
-3730 	-1.3519691 	 200.091 	
-3739.0415 	-1.3534663 	 200.091 	
-3749.1812 	-1.3553571 	 200.091 	
-3759.5845 	-1.3570604 	 200.09 	
-3769.4751 	-1.3587084 	 200.09 	
-3779.4629 	-1.3604653 	 200.09 	
-3789.2803 	-1.3620383 	 200.09 	
-3799.2119 	-1.3637683 	 200.09 	
-3809.5137 	-1.3654919 	 200.085 	
-3818.8364 	-1.3670134 	 200.085 	
-3829.272 	-1.3689233 	 200.092 	
-3838.9644 	-1.3704078 	 200.087 	
-3849.4458 	-1.3721881 	 200.087 	
-3859.4297 	-1.3737939 	 200.09 	
-3869.3657 	-1.3753475 	 200.09 	
-3879.2988 	-1.3768935 	 200.091 	
-3889.1016 	-1.3784384 	 200.089 	
-3899.1719 	-1.3802336 	 200.094 	
-3909.769 	-1.3818691 	 200.094 	
-3919.0688 	-1.3832048 	 200.094 	
-3929.3384 	-1.3851231 	 200.091 	
-3938.7534 	-1.3864655 	 200.091 	
-3949.0225 	-1.3882346 	 200.091 	
-3959.7861 	-1.3897984 	 200.096 	
-3968.9893 	-1.3912453 	 200.092 	
-3979.2441 	-1.3929527 	 200.092 	
-3989.4585 	-1.3943439 	 200.092 	
-3998.7158 	-1.3956704 	 200.093 	
-4009.0132 	-1.3972933 	 200.093 	
-4019.564 	-1.3988563 	 200.093 	
-4029.1138 	-1.4002959 	 200.094 	
-4038.8706 	-1.4015961 	 200.094 	
-4048.8169 	-1.4031468 	 200.093 	
-4059.5063 	-1.4047396 	 200.092 	
-4069.0273 	-1.4060358 	 200.097 	
-4078.9961 	-1.4076816 	 200.093 	
-4088.7026 	-1.409014 	 200.094 	
-4099.498 	-1.4107231 	 200.094 	
-4109.3105 	-1.4119231 	 200.096 	
-4118.9473 	-1.4132694 	 200.096 	
-4129.1382 	-1.4149303 	 200.09 	
-4138.7891 	-1.4162166 	 200.09 	
-4148.9937 	-1.4177364 	 200.094 	
-4159.314 	-1.4190888 	 200.092 	
-4168.7012 	-1.4205159 	 200.092 	
-4178.9058 	-1.4219876 	 200.092 	
-4188.4038 	-1.4232512 	 200.095 	
-4198.8857 	-1.4247988 	 200.095 	
-4209.395 	-1.4262214 	 200.092 	
-4218.5845 	-1.427316 	 200.092 	
-4228.9229 	-1.428864 	 200.091 	
-4239.271 	-1.4301858 	 200.094 	
-4248.7456 	-1.4314499 	 200.091 	
-4258.7383 	-1.4330318 	 200.096 	
-4268.6797 	-1.4343309 	 200.096 	
-4279.231 	-1.4358518 	 200.099 	
-4288.7241 	-1.4368204 	 200.099 	
-4298.5547 	-1.4382299 	 200.099 	
-4309.5679 	-1.4395831 	 200.094 	
-4318.5439 	-1.4406542 	 200.094 	
-4328.9985 	-1.4423256 	 200.094 	
-4338.4087 	-1.4433011 	 200.094 	
-4348.4199 	-1.4447248 	 200.094 	
-4358.9243 	-1.446083 	 200.097 	
-4369.0137 	-1.4472055 	 200.097 	
-4379.0527 	-1.448614 	 200.096 	
-4388.2598 	-1.4495999 	 200.096 	
-4398.4829 	-1.4510156 	 200.096 	
-4408.9277 	-1.4523927 	 200.097 	
-4418.2549 	-1.453549 	 200.097 	
-4429.4893 	-1.4549666 	 200.098 	
-4438.5767 	-1.455854 	 200.098 	
-4448.5688 	-1.4571834 	 200.098 	
-4458.8335 	-1.4584502 	 200.101 	
-4468.4509 	-1.4596037 	 200.101 	
-4478.7839 	-1.4609879 	 200.103 	
-4488.4199 	-1.4622069 	 200.103 	
-4498.623 	-1.4634683 	 200.101 	
-4508.7385 	-1.4644569 	 200.104 	
-4518.0237 	-1.4655864 	 200.1 	
-4529.0759 	-1.4670374 	 200.102 	
-4538.6282 	-1.4679474 	 200.102 	
-4548.3845 	-1.4690992 	 200.101 	
-4558.6433 	-1.4704359 	 200.102 	
-4568.6758 	-1.4715557 	 200.102 	
-4578.51 	-1.4727094 	 200.101 	
-4588.1733 	-1.4738087 	 200.101 	
-4598.2983 	-1.4750545 	 200.099 	
-4608.7283 	-1.476328 	 200.105 	
-4618.1333 	-1.4772921 	 200.105 	
-4628.3689 	-1.4784849 	 200.105 	
-4638.6416 	-1.4794186 	 200.105 	
-4648.0415 	-1.4804178 	 200.103 	
-4658.4343 	-1.4817102 	 200.103 	
-4668.1855 	-1.4828934 	 200.103 	
-4678.9563 	-1.4840117 	 200.103 	
-4688.3982 	-1.4848324 	 200.103 	
-4698.5742 	-1.4861124 	 200.104 	
-4707.9236 	-1.4870156 	 200.104 	
-4718.4871 	-1.4881605 	 200.104 	
-4728.7693 	-1.4892047 	 200.103 	
-4737.9568 	-1.4902183 	 200.103 	
-4748.5757 	-1.4916205 	 200.105 	
-4758.1052 	-1.4923406 	 200.105 	
-4768.1057 	-1.4933158 	 200.105 	
-4778.5947 	-1.494661 	 200.105 	
-4787.968 	-1.4954657 	 200.105 	
-4798.9509 	-1.4967925 	 200.104 	
-4808.481 	-1.4976591 	 200.104 	
-4817.7839 	-1.4984434 	 200.109 	
-4828.6616 	-1.4997928 	 200.103 	
-4837.7112 	-1.5004857 	 200.103 	
-4848.9067 	-1.5019797 	 200.104 	
-4858.395 	-1.5026165 	 200.104 	
-4867.7395 	-1.5034972 	 200.104 	
-4878.6167 	-1.5047867 	 200.104 	
-4887.7542 	-1.5055326 	 200.104 	
-4898.3728 	-1.5067457 	 200.106 	
-4908.6086 	-1.5076375 	 200.106 	
-4917.5847 	-1.5083954 	 200.106 	
-4928.3923 	-1.5095792 	 200.103 	
-4937.7512 	-1.5103552 	 200.1 	
-4948.2913 	-1.5114897 	 200.103 	
-4958.2087 	-1.5122751 	 200.103 	
-4968.4861 	-1.5133454 	 200.103 	
-4978.3618 	-1.5143233 	 200.102 	
-4987.5728 	-1.5152437 	 200.102 	
-4997.4209 	-1.5161925 	 200.103 	
-4999.1653 	-1.5174415 	 200.103 	
-4990.0688 	-1.5184282 	 200.1 	
-4978.9111 	-1.5173252 	 200.099 	
-4968.8596 	-1.5156985 	 200.099 	
-4958.4348 	-1.5154322 	 200.099 	
-4948.342 	-1.5137944 	 200.099 	
-4938.356 	-1.5132444 	 200.099 	
-4927.9353 	-1.512245 	 200.099 	
-4917.5195 	-1.5110511 	 200.097 	
-4907.5244 	-1.510085 	 200.097 	
-4897.4641 	-1.5088221 	 200.098 	
-4888.0083 	-1.5079523 	 200.098 	
-4877.408 	-1.5073899 	 200.099 	
-4867.647 	-1.5057872 	 200.099 	
-4857.6563 	-1.5050511 	 200.099 	
-4847.0928 	-1.5038724 	 200.098 	
-4837.8494 	-1.5026543 	 200.098 	
-4827.3184 	-1.5023198 	 200.093 	
-4817.7705 	-1.5009254 	 200.095 	
-4807.687 	-1.5002218 	 200.095 	
-4797.1926 	-1.4988375 	 200.093 	
-4787.0171 	-1.4980487 	 200.096 	
-4777.0164 	-1.4968221 	 200.09 	
-4767.667 	-1.495588 	 200.093 	
-4757.616 	-1.4951405 	 200.093 	
-4746.582 	-1.4936135 	 200.09 	
-4737.4773 	-1.4925632 	 200.09 	
-4727.0105 	-1.4919313 	 200.091 	
-4717.3704 	-1.490491 	 200.091 	
-4707.4209 	-1.4896255 	 200.092 	
-4696.1143 	-1.4884564 	 200.085 	
-4687.3921 	-1.4870537 	 200.088 	
-4677.0879 	-1.4863893 	 200.087 	
-4667.3132 	-1.4850377 	 200.084 	
-4657.562 	-1.484111 	 200.084 	
-4646.8186 	-1.4832042 	 200.082 	
-4637.2756 	-1.4820686 	 200.082 	
-4627.0166 	-1.4811107 	 200.083 	
-4616.8921 	-1.4796867 	 200.083 	
-4606.79 	-1.4786724 	 200.084 	
-4596.9375 	-1.4770697 	 200.079 	
-4587.4214 	-1.4764742 	 200.079 	
-4577.1626 	-1.4755967 	 200.077 	
-4567.1482 	-1.4743424 	 200.077 	
-4557.365 	-1.4733088 	 200.077 	
-4546.1282 	-1.4717547 	 200.073 	
-4537.2307 	-1.4704143 	 200.073 	
-4526.8013 	-1.4697546 	 200.072 	
-4517.1147 	-1.4683182 	 200.072 	
-4507.1609 	-1.4674708 	 200.072 	
-4496.8735 	-1.4660934 	 200.069 	
-4487.0212 	-1.4648745 	 200.069 	
-4476.7205 	-1.463658 	 200.069 	
-4466.9185 	-1.4621261 	 200.069 	
-4457.2319 	-1.4614782 	 200.069 	
-4446.8975 	-1.4601485 	 200.066 	
-4437.1636 	-1.4590415 	 200.066 	
-4426.7373 	-1.4579941 	 200.066 	
-4417.1147 	-1.4564705 	 200.064 	
-4406.3877 	-1.4554242 	 200.064 	
-4396.8154 	-1.4538156 	 200.061 	
-4387.0825 	-1.4527762 	 200.061 	
-4376.5913 	-1.4517173 	 200.061 	
-4367.1484 	-1.4502158 	 200.059 	
-4357.0454 	-1.449341 	 200.059 	
-4346.5034 	-1.4479892 	 200.061 	
-4336.9863 	-1.4464478 	 200.058 	
-4326.5327 	-1.4453567 	 200.059 	
-4316.8955 	-1.4439019 	 200.059 	
-4306.8667 	-1.4429943 	 200.059 	
-4296.5415 	-1.4415791 	 200.056 	
-4286.9976 	-1.4402526 	 200.056 	
-4276.123 	-1.4388979 	 200.053 	
-4267.1655 	-1.4372047 	 200.057 	
-4257.085 	-1.4363926 	 200.057 	
-4246.1738 	-1.4349163 	 200.051 	
-4236.7407 	-1.4334174 	 200.051 	
-4226.5264 	-1.4323487 	 200.054 	
-4216.9312 	-1.4307921 	 200.054 	
-4206.7075 	-1.4294588 	 200.053 	
-4196.6973 	-1.4279849 	 200.048 	
-4187.0562 	-1.4269375 	 200.051 	
-4176.2554 	-1.4256521 	 200.045 	
-4166.7666 	-1.4237245 	 200.045 	
-4156.8984 	-1.4228505 	 200.045 	
-4146.6895 	-1.4213234 	 200.044 	
-4137.0571 	-1.4200728 	 200.044 	
-4126.5015 	-1.4185943 	 200.04 	
-4116.7632 	-1.4169287 	 200.04 	
-4106.8496 	-1.4158763 	 200.04 	
-4096.5337 	-1.4142646 	 200.039 	
-4086.7217 	-1.4127152 	 200.036 	
-4076.7114 	-1.4116563 	 200.038 	
-4066.9448 	-1.4100446 	 200.039 	
-4056.5186 	-1.4086435 	 200.039 	
-4046.4897 	-1.407003 	 200.038 	
-4036.9634 	-1.4060477 	 200.038 	
-4025.978 	-1.4043455 	 200.035 	
-4016.6553 	-1.4023367 	 200.035 	
-4006.6401 	-1.4011825 	 200.035 	
-3996.6938 	-1.3995875 	 200.032 	
-3986.6924 	-1.3984643 	 200.032 	
-3976.5293 	-1.3967929 	 200.032 	
-3966.8462 	-1.395179 	 200.032 	
-3956.9834 	-1.3939585 	 200.03 	
-3946.04 	-1.391979 	 200.029 	
-3936.6572 	-1.3905399 	 200.029 	
-3926.3325 	-1.3891694 	 200.026 	
-3916.5107 	-1.3871841 	 200.026 	
-3907.1509 	-1.3860246 	 200.026 	
-3896.6279 	-1.3846014 	 200.03 	
-3886.7827 	-1.3830613 	 200.03 	
-3875.96 	-1.3814456 	 200.021 	
-3866.729 	-1.3793106 	 200.021 	
-3856.8525 	-1.3783042 	 200.021 	
-3846.5 	-1.376587 	 200.022 	
-3836.8174 	-1.3751481 	 200.022 	
-3825.7622 	-1.3734994 	 200.021 	
-3816.4863 	-1.3713382 	 200.021 	
-3806.3555 	-1.3700186 	 200.021 	
-3796.3721 	-1.3681082 	 200.017 	
-3786.9292 	-1.36675 	 200.017 	
-3776.23 	-1.3653912 	 200.018 	
-3766.1924 	-1.363408 	 200.018 	
-3756.3521 	-1.3617726 	 200.018 	
-3746.3828 	-1.3599902 	 200.015 	
-3736.6997 	-1.3583327 	 200.015 	
-3726.5693 	-1.3568304 	 200.012 	
-3716.646 	-1.3551646 	 200.015 	
-3706.7174 	-1.3536807 	 200.015 	
-3695.9314 	-1.3513712 	 200.014 	
-3686.5629 	-1.3498586 	 200.012 	
-3676.5795 	-1.3482242 	 200.014 	
-3666.8043 	-1.3464967 	 200.013 	
-3656.6599 	-1.3450826 	 200.013 	
-3646.3857 	-1.3430423 	 200.01 	
-3636.569 	-1.3413401 	 200.01 	
-3626.4977 	-1.3395353 	 200.009 	
-3616.1642 	-1.3374255 	 200.006 	
-3606.4073 	-1.3359073 	 200.006 	
-3596.2947 	-1.3340583 	 200.002 	
-3586.3579 	-1.3323877 	 200.002 	
-3576.3566 	-1.3303092 	 200.001 	
-3567.0104 	-1.3285027 	 200.001 	
-3556.6996 	-1.3272429 	 200.001 	
-3546.1162 	-1.3251919 	 199.999 	
-3536.0455 	-1.3229987 	 200 	
-3526.0532 	-1.3212178 	 200 	
-3516.7535 	-1.3192937 	 199.999 	
-3506.4382 	-1.3176242 	 199.999 	
-3496.5931 	-1.3156117 	 199.998 	
-3486.5688 	-1.3140402 	 199.998 	
-3476.1609 	-1.3119816 	 200 	
-3466.3811 	-1.3098577 	 200 	
-3456.4159 	-1.3082955 	 200 	
-3446.8073 	-1.3060511 	 200.001 	
-3436.3627 	-1.3044237 	 200.001 	
-3425.7238 	-1.3021786 	 199.996 	
-3416.5258 	-1.3003272 	 199.996 	
-3406.4088 	-1.2987403 	 199.99 	
-3396.0331 	-1.2964606 	 199.992 	
-3386.4242 	-1.2945105 	 199.992 	
-3376.3119 	-1.2925875 	 199.99 	
-3366.4115 	-1.2905941 	 199.992 	
-3356.3179 	-1.2888005 	 199.992 	
-3346.4872 	-1.2864598 	 199.988 	
-3336.2314 	-1.2847728 	 199.988 	
-3326.2855 	-1.2824649 	 199.989 	
-3316.7135 	-1.280467 	 199.989 	
-3306.495 	-1.2786888 	 199.989 	
-3296.2949 	-1.2764031 	 199.987 	
-3285.8085 	-1.2742979 	 199.987 	
-3276.0653 	-1.2720923 	 199.984 	
-3266.5441 	-1.2699093 	 199.984 	
-3256.5935 	-1.2684069 	 199.984 	
-3246.0426 	-1.2660702 	 199.985 	
-3236.6089 	-1.2640648 	 199.985 	
-3226.0486 	-1.2620324 	 199.983 	
-3216.1116 	-1.2596382 	 199.983 	
-3206.2993 	-1.2576294 	 199.981 	
-3195.9884 	-1.2553179 	 199.981 	
-3186.3611 	-1.2531938 	 199.981 	
-3176.2626 	-1.2511692 	 199.979 	
-3166.3904 	-1.249019 	 199.978 	
-3156.3884 	-1.2470817 	 199.979 	
-3146.2253 	-1.2445847 	 199.977 	
-3136.307 	-1.2424529 	 199.977 	
-3126.5549 	-1.2401125 	 199.98 	
-3116.5533 	-1.2381602 	 199.98 	
-3106.515 	-1.2362329 	 199.98 	
-3095.5991 	-1.2333921 	 199.976 	
-3086.2855 	-1.2312686 	 199.976 	
-3076.0392 	-1.2291658 	 199.978 	
-3066.9105 	-1.2267136 	 199.978 	
-3056.484 	-1.2249783 	 199.973 	
-3045.8359 	-1.2221314 	 199.975 	
-3036.4026 	-1.2198464 	 199.975 	
-3026.0918 	-1.2178462 	 199.971 	
-3016.5565 	-1.2152176 	 199.973 	
-3006.7439 	-1.2133055 	 199.973 	
-2995.5096 	-1.2105319 	 199.97 	
-2986.6996 	-1.208224 	 199.97 	
-2975.9821 	-1.2063119 	 199.966 	
-2966.6189 	-1.2036339 	 199.966 	
-2956.4846 	-1.2016898 	 199.971 	
-2945.9658 	-1.1989843 	 199.965 	
-2935.9792 	-1.1966629 	 199.966 	
-2925.8538 	-1.1940728 	 199.966 	
-2916.4502 	-1.1916589 	 199.966 	
-2906.6582 	-1.1897071 	 199.966 	
-2895.5149 	-1.1868632 	 199.964 	
-2886.4402 	-1.1845611 	 199.964 	
-2875.9631 	-1.1822522 	 199.962 	
-2866.7124 	-1.1795367 	 199.962 	
-2856.5686 	-1.1774514 	 199.962 	
-2845.7444 	-1.1744485 	 199.962 	
-2836.3037 	-1.1722221 	 199.962 	
-2826.137 	-1.1698333 	 199.964 	
-2816.613 	-1.1672091 	 199.957 	
-2806.3721 	-1.1650474 	 199.956 	
-2795.4229 	-1.1622125 	 199.956 	
-2786.6907 	-1.1598074 	 199.956 	
-2776.1489 	-1.1573723 	 199.956 	
-2766.2454 	-1.1545893 	 199.956 	
-2755.8054 	-1.1518602 	 199.959 	
-2746.2588 	-1.1491675 	 199.959 	
-2736.4155 	-1.1469886 	 199.955 	
-2725.7949 	-1.1442823 	 199.955 	
-2715.8225 	-1.141228 	 199.955 	
-2705.9609 	-1.1389518 	 199.954 	
-2696.3445 	-1.1364375 	 199.954 	
-2686.3953 	-1.1341371 	 199.954 	
-2675.7932 	-1.131307 	 199.955 	
-2666.5703 	-1.1286644 	 199.955 	
-2655.6533 	-1.1259451 	 199.949 	
-2646.2593 	-1.122932 	 199.949 	
-2636.4856 	-1.1206801 	 199.949 	
-2626.1797 	-1.1180274 	 199.95 	
-2616.4802 	-1.1150825 	 199.951 	
-2606.2437 	-1.1126886 	 199.951 	
-2595.7341 	-1.1093586 	 199.947 	
-2586.1365 	-1.1068641 	 199.947 	
-2575.7476 	-1.1041586 	 199.945 	
-2566.4412 	-1.1014974 	 199.945 	
-2555.8855 	-1.0988129 	 199.943 	
-2546.1719 	-1.0958582 	 199.946 	
-2536.6206 	-1.093319 	 199.946 	
-2525.1345 	-1.0901312 	 199.942 	
-2515.833 	-1.0871195 	 199.942 	
-2505.9578 	-1.0845991 	 199.941 	
-2496.4058 	-1.081662 	 199.941 	
-2486.4517 	-1.0791472 	 199.941 	
-2476.2017 	-1.0762782 	 199.936 	
-2466.4097 	-1.0732275 	 199.936 	
-2455.6963 	-1.0703626 	 199.937 	
-2445.8721 	-1.0669418 	 199.937 	
-2436.3943 	-1.0645258 	 199.937 	
-2426.1997 	-1.0619219 	 199.935 	
-2416.2917 	-1.0589229 	 199.936 	
-2406.1711 	-1.0561421 	 199.937 	
-2395.6848 	-1.0525458 	 199.934 	
-2386.3508 	-1.0498771 	 199.934 	
-2375.6284 	-1.0468219 	 199.934 	
-2366.5906 	-1.0440163 	 199.934 	
-2355.8682 	-1.0412281 	 199.933 	
-2346.2749 	-1.0379692 	 199.933 	
-2336.5571 	-1.0350568 	 199.93 	
-2325.6265 	-1.0319021 	 199.932 	
-2316.561 	-1.0289684 	 199.929 	
-2305.8708 	-1.0260334 	 199.929 	
-2295.926 	-1.0227588 	 199.929 	
-2286.0923 	-1.0198307 	 199.929 	
-2275.666 	-1.0165766 	 199.931 	
-2266.4939 	-1.0135889 	 199.931 	
-2255.8503 	-1.0107286 	 199.928 	
-2246.3037 	-1.0074637 	 199.928 	
-2236.4049 	-1.0046512 	 199.924 	
-2224.8865 	-1.0009971 	 199.925 	
-2216.2651 	-0.99786609 	 199.925 	
-2205.8066 	-0.9950035 	 199.924 	
-2196.3706 	-0.99172817 	 199.924 	
-2186.4352 	-0.98889055 	 199.924 	
-2175.5461 	-0.98540373 	 199.922 	
-2166.2722 	-0.98221839 	 199.922 	
-2155.7582 	-0.97909854 	 199.925 	
-2146.0402 	-0.97563544 	 199.92 	
-2136.4426 	-0.97265165 	 199.92 	
-2124.9937 	-0.96903621 	 199.919 	
-2116.238 	-0.96578507 	 199.919 	
-2106.3855 	-0.96298079 	 199.921 	
-2096.2001 	-0.95950016 	 199.921 	
-2086.0795 	-0.95634748 	 199.921 	
-2075.7596 	-0.95294592 	 199.919 	
-2066.4072 	-0.94942738 	 199.919 	
-2056.4761 	-0.94640261 	 199.914 	
-2045.467 	-0.94272089 	 199.913 	
-2036.3554 	-0.93984046 	 199.913 	
-2025.8875 	-0.93652727 	 199.913 	
-2015.7159 	-0.93249238 	 199.913 	
-2005.9882 	-0.9291845 	 199.91 	
-1996.0944 	-0.9258737 	 199.91 	
-1986.3162 	-0.92299113 	 199.91 	
-1975.8898 	-0.9194444 	 199.915 	
-1966.2413 	-0.91585829 	 199.915 	
-1956.227 	-0.91265131 	 199.912 	
-1945.1901 	-0.90863322 	 199.912 	
-1936.1661 	-0.90535036 	 199.912 	
-1926.0778 	-0.90223185 	 199.911 	
-1916.5215 	-0.89858816 	 199.91 	
-1905.6928 	-0.89528616 	 199.913 	
-1896.1137 	-0.89152081 	 199.909 	
-1886.2522 	-0.88826062 	 199.909 	
-1875.9878 	-0.88443634 	 199.909 	
-1866.0617 	-0.88075088 	 199.909 	
-1855.8854 	-0.87742541 	 199.909 	
-1846.1578 	-0.87388373 	 199.906 	
-1836.2732 	-0.87056793 	 199.906 	
-1825.6342 	-0.86679241 	 199.909 	
-1816.3974 	-0.86327499 	 199.908 	
-1805.2585 	-0.8593666 	 199.907 	
-1796.2299 	-0.85566804 	 199.907 	
-1786.3915 	-0.85248642 	 199.907 	
-1775.2805 	-0.84868747 	 199.903 	
-1765.5161 	-0.8447053 	 199.903 	
-1755.7517 	-0.8410161 	 199.9 	
-1746.1769 	-0.83757349 	 199.9 	
-1736.1767 	-0.83423232 	 199.9 	
-1725.7181 	-0.83031969 	 199.901 	
-1716.4349 	-0.82671834 	 199.901 	
-1705.3796 	-0.82294787 	 199.901 	
-1696.1659 	-0.81895108 	 199.902 	
-1685.8322 	-0.81537371 	 199.902 	
-1676.2623 	-0.81195426 	 199.898 	
-1666.3451 	-0.80820992 	 199.899 	
-1656.0346 	-0.80447729 	 199.898 	
-1645.4188 	-0.79996385 	 199.899 	
-1636.2374 	-0.79640936 	 199.899 	
-1625.9688 	-0.79276461 	 199.897 	
-1616.3801 	-0.78891616 	 199.897 	
-1606.0789 	-0.78524023 	 199.897 	
-1595.4631 	-0.78088683 	 199.897 	
-1586.1289 	-0.77723781 	 199.897 	
-1576.0361 	-0.77363594 	 199.895 	
-1565.8691 	-0.76950681 	 199.895 	
-1556.0769 	-0.76590361 	 199.893 	
-1546.0534 	-0.76170041 	 199.897 	
-1536.3816 	-0.75816644 	 199.892 	
-1525.6685 	-0.75398189 	 199.895 	
-1515.9689 	-0.75001704 	 199.895 	
-1505.6655 	-0.7459704 	 199.894 	
-1496.1177 	-0.74202474 	 199.894 	
-1486.2673 	-0.73838958 	 199.894 	
-1475.4998 	-0.73426892 	 199.896 	
-1466.451 	-0.73034829 	 199.896 	
-1455.3593 	-0.72626305 	 199.895 	
-1445.9028 	-0.72184547 	 199.895 	
-1435.9553 	-0.7180247 	 199.895 	
-1425.4703 	-0.71408248 	 199.894 	
-1416.301 	-0.71017089 	 199.894 	
-1406.057 	-0.70634159 	 199.892 	
-1396.0724 	-0.70194531 	 199.89 	
-1385.7264 	-0.69792322 	 199.89 	
-1375.3711 	-0.69325665 	 199.89 	
-1366.2622 	-0.68958869 	 199.89 	
-1355.6105 	-0.68555063 	 199.89 	
-1346.168 	-0.68129947 	 199.893 	
-1336.3315 	-0.67758577 	 199.893 	
-1325.4991 	-0.67321025 	 199.889 	
-1316.2419 	-0.66879293 	 199.891 	
-1305.5763 	-0.6647679 	 199.893 	
-1295.9855 	-0.66058919 	 199.893 	
-1285.9266 	-0.65641262 	 199.897 	
-1275.4695 	-0.65184326 	 199.893 	
-1266.4161 	-0.64797056 	 199.893 	
-1255.6624 	-0.64392766 	 199.891 	
-1246.0345 	-0.63940915 	 199.891 	
-1235.9805 	-0.63523765 	 199.891 	
-1225.6158 	-0.63067383 	 199.891 	
-1216.1966 	-0.62681179 	 199.892 	
-1205.7995 	-0.62251483 	 199.892 	
-1195.435 	-0.61775294 	 199.892 	
-1186.2334 	-0.61375904 	 199.892 	
-1175.8921 	-0.6095135 	 199.892 	
-1165.875 	-0.60514091 	 199.892 	
-1155.6865 	-0.60066476 	 199.893 	
-1146.3507 	-0.59639389 	 199.89 	
-1135.6478 	-0.59220215 	 199.89 	
-1125.9876 	-0.58733317 	 199.893 	
-1116.42 	-0.58351612 	 199.893 	
-1105.5317 	-0.57878747 	 199.891 	
-1095.8298 	-0.5741675 	 199.891 	
-1085.9935 	-0.57020533 	 199.891 	
-1075.8652 	-0.56550357 	 199.893 	
-1066.2652 	-0.56116295 	 199.893 	
-1055.5579 	-0.55674724 	 199.893 	
-1046.1848 	-0.5521499 	 199.893 	
-1036.0891 	-0.54802792 	 199.893 	
-1025.3167 	-0.54297865 	 199.888 	
-1016.0874 	-0.53856373 	 199.888 	
-1005.5608 	-0.53416292 	 199.891 	
-996.17896 	-0.52946197 	 199.891 	
-986.18549 	-0.52530989 	 199.891 	
-975.08954 	-0.52014932 	 199.89 	
-966.19873 	-0.51605131 	 199.891 	
-955.97369 	-0.51182678 	 199.889 	
-946.29077 	-0.50708432 	 199.889 	
-936.09351 	-0.50255541 	 199.889 	
-924.77502 	-0.49718259 	 199.894 	
-916.41235 	-0.49290241 	 199.894 	
-905.87231 	-0.48860867 	 199.889 	
-895.94843 	-0.48373914 	 199.89 	
-885.9967 	-0.47934926 	 199.89 	
-875.10919 	-0.47404778 	 199.892 	
-866.05621 	-0.46961423 	 199.892 	
-855.2984 	-0.46481661 	 199.891 	
-846.33801 	-0.46032395 	 199.891 	
-836.09912 	-0.45600967 	 199.891 	
-825.63776 	-0.45088371 	 199.887 	
-816.1958 	-0.44644936 	 199.889 	
-805.04871 	-0.44141447 	 199.885 	
-795.87537 	-0.43629195 	 199.89 	
-786.18774 	-0.43212951 	 199.89 	
-775.56421 	-0.42728874 	 199.887 	
-766.04797 	-0.4223436 	 199.887 	
-755.582 	-0.41773613 	 199.885 	
-745.85266 	-0.41267329 	 199.885 	
-736.14188 	-0.40814731 	 199.885 	
-725.70834 	-0.40339098 	 199.879 	
-715.99295 	-0.3983108 	 199.879 	
-706.28674 	-0.39386712 	 199.879 	
-695.38995 	-0.38864262 	 199.885 	
-685.85516 	-0.38376458 	 199.885 	
-675.86169 	-0.37900852 	 199.885 	
-666.10458 	-0.37415605 	 199.882 	
-655.06882 	-0.36880184 	 199.885 	
-646.40036 	-0.36406202 	 199.885 	
-636.45328 	-0.35976135 	 199.885 	
-624.63449 	-0.35381647 	 199.888 	
-616.14218 	-0.34930701 	 199.888 	
-605.49554 	-0.34445134 	 199.89 	
-596.09509 	-0.33937464 	 199.89 	
-586.05081 	-0.33459567 	 199.89 	
-575.39026 	-0.32918394 	 199.889 	
-566.27707 	-0.32461722 	 199.889 	
-555.5239 	-0.31966383 	 199.885 	
-546.08179 	-0.31446009 	 199.885 	
-536.24591 	-0.30982759 	 199.885 	
-525.05719 	-0.30420228 	 199.885 	
-515.89767 	-0.29924996 	 199.885 	
-505.49654 	-0.29433676 	 199.887 	
-495.83649 	-0.28903662 	 199.887 	
-486.38028 	-0.28432902 	 199.883 	
-475.70547 	-0.27914765 	 199.891 	
-466.02225 	-0.27435271 	 199.891 	
-455.56985 	-0.26909598 	 199.89 	
-445.5947 	-0.26360357 	 199.89 	
-435.78174 	-0.25867891 	 199.89 	
-425.67218 	-0.25334469 	 199.887 	
-416.30399 	-0.24860061 	 199.89 	
-405.93497 	-0.24366398 	 199.892 	
-395.86716 	-0.23803628 	 199.891 	
-385.60011 	-0.23268315 	 199.891 	
-375.80103 	-0.22765358 	 199.894 	
-365.79343 	-0.22224692 	 199.894 	
-355.85536 	-0.21743306 	 199.894 	
-345.46321 	-0.21176807 	 199.894 	
-336.08574 	-0.20698325 	 199.894 	
-325.40172 	-0.20152199 	 199.894 	
-316.15398 	-0.19646205 	 199.894 	
-305.65996 	-0.19128549 	 199.9 	
-296.01416 	-0.18588601 	 199.895 	
-286.19696 	-0.18090252 	 199.895 	
-275.7034 	-0.17541435 	 199.897 	
-265.88159 	-0.16999837 	 199.897 	
-256.05051 	-0.1648953 	 199.899 	
-245.30212 	-0.15902445 	 199.899 	
-235.92505 	-0.15414482 	 199.899 	
-225.76041 	-0.14871392 	 199.902 	
-216.11467 	-0.14350805 	 199.897 	
-206.17704 	-0.13838209 	 199.898 	
-195.90118 	-0.13268141 	 199.898 	
-185.90333 	-0.12751842 	 199.898 	
-175.38659 	-0.12170217 	 199.902 	
-165.89371 	-0.11629524 	 199.9 	
-155.94683 	-0.11123637 	 199.901 	
-145.83839 	-0.10557085 	 199.901 	
-135.92973 	-0.10038869 	 199.901 	
-125.50684 	-0.094768705 	 199.904 	
-116.07531 	-0.089252586 	 199.904 	
-105.69413 	-0.083647252 	 199.904 	
-95.50238 	-0.07783526 	 199.904 	
-86.107101 	-0.072889845 	 199.904 	
-75.854744 	-0.06730848 	 199.906 	
-66.019346 	-0.061840031 	 199.906 	
-55.80406 	-0.056302071 	 199.906 	
-45.850792 	-0.050420577 	 199.906 	
-35.530544 	-0.044685548 	 199.906 	
-25.886274 	-0.03913028 	 199.907 	
-16.130885 	-0.033716957 	 199.907 	
-6.0699164 	-0.028222675 	 199.906 	
 4.6510965 	-0.021711614 	 199.907 	
 14.027448 	-0.016467666 	 199.907 	
 24.428106 	-0.010434102 	 199.909 	
 34.112679 	-0.0048884222 	 199.909 	
 44.13792 	 0.00097017444 	 199.909 	
 54.551689 	 0.0071502095 	 199.909 	
 63.997694 	 0.01267565 	 199.909 	
 74.17548 	 0.018857283 	 199.912 	
 83.753487 	 0.024339048 	 199.909 	
 94.452316 	 0.030515887 	 199.909 	
 104.34177 	 0.036572355 	 199.909 	
 113.74421 	 0.041747329 	 199.909 	
 124.86546 	 0.048075966 	 199.913 	
 134.04088 	 0.053577972 	 199.909 	
 144.11275 	 0.05890847 	 199.909 	
 154.34628 	 0.064969729 	 199.911 	
 164.30618 	 0.070509551 	 199.911 	
 174.11544 	 0.076168151 	 199.911 	
 183.76259 	 0.08132448 	 199.911 	
 194.15771 	 0.087084809 	 199.911 	
 204.25875 	 0.092939943 	 199.911 	
 214.07034 	 0.09814208 	 199.911 	
 224.59282 	 0.10418683 	 199.914 	
 234.6337 	 0.11015382 	 199.91 	
 244.33871 	 0.11521427 	 199.915 	
 254.09009 	 0.12065555 	 199.915 	
 263.67239 	 0.12573093 	 199.913 	
 274.63953 	 0.13165904 	 199.914 	
 283.74481 	 0.13686064 	 199.914 	
 295.00137 	 0.14285639 	 199.915 	
 304.26187 	 0.14826039 	 199.915 	
 314.10962 	 0.15330913 	 199.915 	
 324.59825 	 0.15907052 	 199.914 	
 333.71016 	 0.16407613 	 199.914 	
 344.51349 	 0.16972141 	 199.913 	
 354.44217 	 0.17552114 	 199.913 	
 363.92661 	 0.1803414 	 199.913 	
 374.51015 	 0.18611238 	 199.916 	
 383.82104 	 0.19112543 	 199.916 	
 394.51564 	 0.19665141 	 199.917 	
 404.3217 	 0.20250121 	 199.916 	
 413.7692 	 0.2070642 	 199.916 	
 424.82468 	 0.21305249 	 199.917 	
 434.01761 	 0.21808739 	 199.917 	
 444.53867 	 0.22337101 	 199.918 	
 453.89584 	 0.22873399 	 199.918 	
 463.69495 	 0.23353721 	 199.918 	
 474.35248 	 0.23918728 	 199.92 	
 484.228 	 0.24486186 	 199.92 	
 494.26083 	 0.2498078 	 199.921 	
 504.12936 	 0.2550062 	 199.918 	
 514.25742 	 0.26009864 	 199.918 	
 524.77972 	 0.26585363 	 199.919 	
 533.80109 	 0.27060037 	 199.919 	
 544.7767 	 0.27613594 	 199.92 	
 554.26297 	 0.28134127 	 199.92 	
 564.05209 	 0.28630212 	 199.922 	
 574.45642 	 0.29173915 	 199.925 	
 584.05133 	 0.29630427 	 199.925 	
 594.86737 	 0.30208431 	 199.927 	
 604.17783 	 0.30724171 	 199.927 	
 613.86063 	 0.31187074 	 199.927 	
 624.56561 	 0.31739938 	 199.922 	
 633.95938 	 0.32230164 	 199.926 	
 644.30127 	 0.32736689 	 199.927 	
 653.88931 	 0.33247475 	 199.926 	
 664.09705 	 0.33738396 	 199.926 	
 675.02414 	 0.34317464 	 199.927 	
 684.3577 	 0.34821807 	 199.927 	
 693.93182 	 0.3528098 	 199.923 	
 703.936 	 0.35786761 	 199.923 	
 713.94955 	 0.36260317 	 199.923 	
 724.51355 	 0.36799332 	 199.929 	
 734.27258 	 0.37290464 	 199.929 	
 744.54755 	 0.37801624 	 199.93 	
 754.38062 	 0.38280613 	 199.93 	
 763.88312 	 0.38773928 	 199.931 	
 774.37073 	 0.39275287 	 199.931 	
 783.85693 	 0.39746287 	 199.932 	
 794.82788 	 0.40285089 	 199.934 	
 804.34882 	 0.4079513 	 199.934 	
 813.953 	 0.41237634 	 199.934 	
 824.56549 	 0.41762588 	 199.937 	
 833.68164 	 0.42218514 	 199.937 	
 844.27808 	 0.42696278 	 199.934 	
 854.03015 	 0.43184161 	 199.934 	
 863.97205 	 0.43655 	 199.939 	
 875.336 	 0.44216597 	 199.935 	
 884.20032 	 0.44663684 	 199.939 	
 894.14435 	 0.45135961 	 199.942 	
 903.77863 	 0.45595883 	 199.942 	
 914.06268 	 0.46075829 	 199.942 	
 924.74231 	 0.46584217 	 199.941 	
 933.89783 	 0.47033913 	 199.941 	
 944.77393 	 0.47547629 	 199.94 	
 953.8208 	 0.48002331 	 199.94 	
 963.80426 	 0.48440253 	 199.94 	
 974.98792 	 0.48974422 	 199.945 	
 984.04169 	 0.49402386 	 199.945 	
 994.73349 	 0.49861932 	 199.943 	
 1004.1804 	 0.50351309 	 199.947 	
 1013.7499 	 0.50782467 	 199.947 	
 1024.0561 	 0.51264226 	 199.948 	
 1034.2215 	 0.51746729 	 199.948 	
 1044.6041 	 0.52220018 	 199.946 	
 1054.0304 	 0.52669128 	 199.946 	
 1063.9302 	 0.53111685 	 199.946 	
 1074.627 	 0.53616026 	 199.953 	
 1083.7945 	 0.54048676 	 199.953 	
 1094.5928 	 0.54517918 	 199.955 	
 1103.8481 	 0.5497326 	 199.956 	
 1113.7825 	 0.55397921 	 199.956 	
 1124.5994 	 0.55873977 	 199.954 	
 1133.7346 	 0.56318294 	 199.957 	
 1144.9025 	 0.56800584 	 199.955 	
 1154.3566 	 0.57250916 	 199.955 	
 1163.7874 	 0.57666686 	 199.955 	
 1174.8491 	 0.58163623 	 199.957 	
 1183.9543 	 0.58574328 	 199.957 	
 1194.4847 	 0.59025779 	 199.957 	
 1203.9294 	 0.59472226 	 199.957 	
 1213.7739 	 0.59883306 	 199.957 	
 1224.5952 	 0.60357713 	 199.959 	
 1234.1832 	 0.60809112 	 199.959 	
 1243.8936 	 0.61230257 	 199.959 	
 1254.006 	 0.61677981 	 199.96 	
 1264.0466 	 0.62108236 	 199.96 	
 1275.3832 	 0.62573803 	 199.964 	
 1283.6823 	 0.62957613 	 199.964 	
 1294.7924 	 0.63435747 	 199.964 	
 1304.1587 	 0.63876654 	 199.964 	
 1314.0422 	 0.64272606 	 199.965 	
 1324.351 	 0.64720223 	 199.963 	
 1333.9712 	 0.65139025 	 199.965 	
 1344.012 	 0.6555623 	 199.965 	
 1353.9924 	 0.6599005 	 199.966 	
 1363.9177 	 0.66394844 	 199.966 	
 1374.5405 	 0.66855777 	 199.97 	
 1383.9067 	 0.6726867 	 199.97 	
 1394.0376 	 0.67679482 	 199.974 	
 1405.0045 	 0.68141586 	 199.971 	
 1413.9504 	 0.68515915 	 199.971 	
 1424.4415 	 0.68945902 	 199.976 	
 1434.1656 	 0.69365341 	 199.975 	
 1444.2018 	 0.69789737 	 199.977 	
 1453.8682 	 0.70176797 	 199.977 	
 1464.5117 	 0.70610243 	 199.977 	
 1474.2544 	 0.71037143 	 199.974 	
 1484.0156 	 0.7142026 	 199.974 	
 1494.0152 	 0.71821432 	 199.978 	
 1504.5132 	 0.72244654 	 199.978 	
 1514.1311 	 0.72655948 	 199.976 	
 1524.8773 	 0.73111235 	 199.983 	
 1533.8755 	 0.73458345 	 199.983 	
 1544.0438 	 0.73848438 	 199.984 	
 1553.9033 	 0.74262925 	 199.984 	
 1563.795 	 0.74649452 	 199.984 	
 1574.5392 	 0.75093766 	 199.985 	
 1584.2238 	 0.75474805 	 199.983 	
 1594.0051 	 0.75864099 	 199.983 	
 1604.0352 	 0.762706 	 199.984 	
 1613.8763 	 0.76653982 	 199.983 	
 1624.4638 	 0.77073795 	 199.99 	
 1634.2889 	 0.77463089 	 199.99 	
 1643.9826 	 0.77825913 	 199.99 	
 1654.1716 	 0.7823497 	 199.985 	
 1663.6996 	 0.78602533 	 199.988 	
 1674.7797 	 0.79028208 	 199.986 	
 1684.0958 	 0.79401149 	 199.986 	
 1693.9509 	 0.7977404 	 199.992 	
 1703.6631 	 0.80156195 	 199.992 	
 1714.4716 	 0.80555876 	 199.986 	
 1724.5522 	 0.80942882 	 199.99 	
 1733.7072 	 0.81291909 	 199.986 	
 1743.972 	 0.81670553 	 199.99 	
 1754.1956 	 0.82077532 	 199.99 	
 1763.9193 	 0.82435295 	 199.99 	
 1774.5388 	 0.82848076 	 199.99 	
 1784.3801 	 0.83214044 	 199.99 	
 1793.9656 	 0.83562965 	 199.99 	
 1804.2419 	 0.83954977 	 199.995 	
 1813.724 	 0.84300277 	 199.995 	
 1824.1662 	 0.84685738 	 199.997 	
 1834.413 	 0.85065607 	 199.999 	
 1844.1502 	 0.85430132 	 199.999 	
 1853.6622 	 0.85785021 	 199.997 	
 1863.9941 	 0.86157486 	 199.997 	
 1874.9106 	 0.86557219 	 200 	
 1884.0332 	 0.8688361 	 200 	
 1893.879 	 0.8723626 	 200 	
 1904.22 	 0.87625073 	 199.999 	
 1914.1463 	 0.87968189 	 199.998 	
 1924.5059 	 0.88341608 	 200.001 	
 1933.8521 	 0.88677484 	 200.001 	
 1944.0226 	 0.89032318 	 200.001 	
 1954.3587 	 0.89406487 	 200.005 	
 1964.0065 	 0.89743585 	 200.005 	
 1974.3795 	 0.90107204 	 200.005 	
 1983.7391 	 0.90429868 	 200.005 	
 1993.9146 	 0.90803241 	 200.001 	
 2004.4077 	 0.91176556 	 200.008 	
 2014.3547 	 0.91501561 	 200.008 	
 2024.3088 	 0.91850216 	 200.01 	
 2033.7651 	 0.9217224 	 200.01 	
 2044.0347 	 0.92537088 	 200.01 	
 2054.3802 	 0.92883351 	 200.009 	
 2063.77 	 0.93198134 	 200.009 	
 2074.3253 	 0.93564256 	 200.008 	
 2084.3276 	 0.93913869 	 200.008 	
 2093.9686 	 0.94232642 	 200.013 	
 2104.2358 	 0.94582957 	 200.008 	
 2113.9202 	 0.94891983 	 200.012 	
 2124.457 	 0.9525464 	 200.011 	
 2133.8307 	 0.95573897 	 200.012 	
 2143.99 	 0.95903594 	 200.012 	
 2154.172 	 0.96245752 	 200.011 	
 2164.0406 	 0.9655973 	 200.011 	
 2174.674 	 0.96923407 	 200.018 	
 2183.6953 	 0.97212943 	 200.015 	
 2194.0179 	 0.97552434 	 200.015 	
 2204.2505 	 0.97896887 	 200.019 	
 2214.1447 	 0.98196378 	 200.019 	
 2224.1403 	 0.98518616 	 200.02 	
 2233.7235 	 0.9882307 	 200.02 	
 2243.9724 	 0.99166019 	 200.019 	
 2255.115 	 0.99519897 	 200.022 	
 2264.0901 	 0.99806713 	 200.022 	
 2274.2793 	 1.0012996 	 200.02 	
 2284.1458 	 1.0043468 	 200.02 	
 2294.1204 	 1.0075329 	 200.02 	
 2304.3159 	 1.0106643 	 200.021 	
 2314.2888 	 1.0138403 	 200.019 	
 2324.4915 	 1.0170989 	 200.028 	
 2333.9089 	 1.0199447 	 200.025 	
 2343.9045 	 1.0230659 	 200.025 	
 2354.4963 	 1.0262743 	 200.027 	
 2364.0449 	 1.0292086 	 200.025 	
 2374.082 	 1.032358 	 200.026 	
 2383.7158 	 1.0352549 	 200.024 	
 2394.3884 	 1.0384406 	 200.024 	
 2404.4368 	 1.0416166 	 200.029 	
 2413.8035 	 1.0443421 	 200.029 	
 2424.437 	 1.0475053 	 200.03 	
 2433.9443 	 1.0502548 	 200.03 	
 2444.6169 	 1.0534446 	 200.027 	
 2454.4421 	 1.0564997 	 200.026 	
 2463.9124 	 1.0592683 	 200.028 	
 2474.3638 	 1.0622563 	 200.027 	
 2483.9058 	 1.0651463 	 200.03 	
 2494.408 	 1.0683037 	 200.03 	
 2504.4312 	 1.071206 	 200.031 	
 2513.7356 	 1.0738217 	 200.031 	
 2524.4312 	 1.0769594 	 200.029 	
 2534.397 	 1.0799229 	 200.029 	
 2543.835 	 1.0823885 	 200.034 	
 2554.4014 	 1.0856161 	 200.032 	
 2563.6555 	 1.0881722 	 200.032 	
 2574.9224 	 1.0913738 	 200.028 	
 2584.2156 	 1.0941248 	 200.03 	
 2593.5959 	 1.0966223 	 200.03 	
 2604.5723 	 1.0998079 	 200.032 	
 2613.7227 	 1.1022047 	 200.032 	
 2624.8604 	 1.1054217 	 200.032 	
 2634.2964 	 1.1080423 	 200.032 	
 2643.6677 	 1.1104151 	 200.032 	
 2654.5178 	 1.1136284 	 200.037 	
 2663.6816 	 1.1159635 	 200.037 	
 2674.8379 	 1.1189648 	 200.038 	
 2684.1702 	 1.1215949 	 200.038 	
 2693.7581 	 1.1241041 	 200.036 	
 2704.6011 	 1.127164 	 200.039 	
 2713.7258 	 1.1295208 	 200.038 	
 2724.896 	 1.1327155 	 200.041 	
 2734.2878 	 1.1351577 	 200.036 	
 2743.5625 	 1.1374617 	 200.036 	
 2754.6292 	 1.1402815 	 200.04 	
 2764.0005 	 1.1428519 	 200.04 	
 2774.0537 	 1.1456226 	 200.045 	
 2784.0652 	 1.1481243 	 200.045 	
 2794.3992 	 1.1509324 	 200.041 	
 2804.6157 	 1.1535215 	 200.045 	
 2813.7246 	 1.1557148 	 200.045 	
 2824.3625 	 1.1586639 	 200.043 	
 2834.0266 	 1.1610991 	 200.046 	
 2843.7251 	 1.1635119 	 200.046 	
 2855.2913 	 1.1665739 	 200.045 	
 2863.9023 	 1.1685617 	 200.045 	
 2874.1948 	 1.1712743 	 200.047 	
 2884.0315 	 1.1737084 	 200.047 	
 2893.8152 	 1.176191 	 200.048 	
 2905.2615 	 1.1790032 	 200.045 	
 2913.8406 	 1.1811082 	 200.05 	
 2924.2991 	 1.1836669 	 200.049 	
 2933.9722 	 1.1859982 	 200.049 	
 2943.8042 	 1.1883268 	 200.05 	
 2955.3474 	 1.1914347 	 200.047 	
 2963.7952 	 1.1932195 	 200.052 	
 2974.2903 	 1.1956967 	 200.053 	
 2983.8478 	 1.1980717 	 200.05 	
 2993.8044 	 1.2005239 	 200.05 	
 3004.4747 	 1.2032264 	 200.054 	
 3014.285 	 1.2054773 	 200.054 	
 3024.8752 	 1.2079497 	 200.057 	
 3033.9264 	 1.2099684 	 200.053 	
 3043.8582 	 1.2123433 	 200.053 	
 3054.6201 	 1.2148398 	 200.057 	
 3063.545 	 1.2169703 	 200.055 	
 3074.6261 	 1.2196339 	 200.056 	
 3084.2919 	 1.2218123 	 200.052 	
 3093.8521 	 1.2238688 	 200.052 	
 3104.5361 	 1.2264483 	 200.053 	
 3113.6125 	 1.2284904 	 200.053 	
 3124.3127 	 1.2308925 	 200.059 	
 3134.5405 	 1.2331876 	 200.054 	
 3144.0206 	 1.2352478 	 200.054 	
 3154.5232 	 1.2376808 	 200.055 	
 3163.4989 	 1.239553 	 200.055 	
 3174.7747 	 1.2422699 	 200.06 	
 3184.3441 	 1.2443956 	 200.06 	
 3193.838 	 1.2464574 	 200.057 	
 3204.1251 	 1.2488915 	 200.059 	
 3213.8939 	 1.2506881 	 200.06 	
 3223.9705 	 1.2530359 	 200.06 	
 3234.4985 	 1.255258 	 200.059 	
 3243.9144 	 1.2572979 	 200.059 	
 3254.0618 	 1.2594742 	 200.058 	
 3263.9203 	 1.2614816 	 200.058 	
 3274.7605 	 1.2639178 	 200.063 	
 3284.2817 	 1.2660116 	 200.063 	
 3293.8281 	 1.2679653 	 200.062 	
 3304.4869 	 1.2703061 	 200.064 	
 3313.8228 	 1.2721442 	 200.064 	
 3324.7085 	 1.2744846 	 200.066 	
 3334.2024 	 1.2764366 	 200.066 	
 3343.7144 	 1.2782982 	 200.065 	
 3354.4076 	 1.2806407 	 200.068 	
 3363.6444 	 1.2824697 	 200.068 	
 3374.6566 	 1.2846705 	 200.063 	
 3383.7583 	 1.2865885 	 200.063 	
 3394.204 	 1.2887073 	 200.061 	
 3404.5532 	 1.2908116 	 200.065 	
 3413.884 	 1.2925858 	 200.066 	
 3424.2194 	 1.2947158 	 200.065 	
 3433.8555 	 1.2965853 	 200.068 	
 3444.5098 	 1.2987818 	 200.068 	
 3454.4143 	 1.3007381 	 200.067 	
 3463.7906 	 1.3025235 	 200.069 	
 3474.4036 	 1.3047616 	 200.068 	
 3484.3219 	 1.3065619 	 200.068 	
 3494.0475 	 1.3084452 	 200.068 	
 3504.2841 	 1.3103653 	 200.069 	
 3513.8536 	 1.312058 	 200.072 	
 3524.3107 	 1.3143073 	 200.07 	
 3534.1947 	 1.3162114 	 200.07 	
 3543.7272 	 1.3179302 	 200.068 	
 3555.0193 	 1.3200506 	 200.07 	
 3564.0702 	 1.3214194 	 200.071 	
 3574.5388 	 1.3236447 	 200.067 	
 3584.1587 	 1.3254594 	 200.067 	
 3593.666 	 1.3271563 	 200.068 	
 3604.4376 	 1.3291419 	 200.071 	
 3613.7614 	 1.3306711 	 200.071 	
 3624.8514 	 1.3329284 	 200.075 	
 3634.0933 	 1.3345182 	 200.075 	
 3643.6943 	 1.3361395 	 200.075 	
 3654.8855 	 1.3383163 	 200.075 	
 3663.9637 	 1.3397081 	 200.075 	
 3674.4373 	 1.3418498 	 200.076 	
 3683.892 	 1.3434918 	 200.076 	
 3693.4686 	 1.344972 	 200.076 	
 3705.2444 	 1.3472442 	 200.075 	
 3713.7841 	 1.348498 	 200.075 	
 3724.4224 	 1.3504165 	 200.069 	
 3733.7622 	 1.3520218 	 200.072 	
 3743.5884 	 1.3536826 	 200.072 	
 3755.2549 	 1.3557465 	 200.072 	
 3763.792 	 1.3571404 	 200.072 	
 3774.3662 	 1.3591265 	 200.072 	
 3783.7905 	 1.3606056 	 200.072 	
 3793.665 	 1.3623899 	 200.077 	
 3805.3247 	 1.3643782 	 200.077 	
 3813.8062 	 1.365469 	 200.08 	
 3824.3091 	 1.3673071 	 200.079 	
 3834.0991 	 1.3689055 	 200.08 	
 3843.6313 	 1.370514 	 200.08 	
 3854.5361 	 1.3722845 	 200.075 	
 3863.9312 	 1.3738791 	 200.075 	
 3873.8516 	 1.375624 	 200.079 	
 3883.9443 	 1.3770818 	 200.079 	
 3893.8779 	 1.3787612 	 200.08 	
 3904.562 	 1.3804453 	 200.079 	
 3914.019 	 1.3818211 	 200.078 	
 3923.7856 	 1.3833907 	 200.081 	
 3934.7798 	 1.3849865 	 200.08 	
 3943.5786 	 1.3864001 	 200.08 	
 3954.2627 	 1.3882743 	 200.08 	
 3963.9536 	 1.3896901 	 200.08 	
 3974.0645 	 1.3912198 	 200.08 	
 3984.5742 	 1.3928411 	 200.079 	
 3993.7397 	 1.3940566 	 200.079 	
 4004.3784 	 1.3958302 	 200.085 	
 4013.6631 	 1.3972768 	 200.082 	
 4023.8887 	 1.3988421 	 200.082 	
 4034.1045 	 1.4004283 	 200.081 	
 4044.6147 	 1.4019266 	 200.081 	
 4054.333 	 1.4034478 	 200.082 	
 4063.5591 	 1.4046062 	 200.082 	
 4073.7314 	 1.4064022 	 200.082 	
 4084.647 	 1.4078909 	 200.082 	
 4094.0464 	 1.409173 	 200.082 	
 4104.1416 	 1.4108597 	 200.083 	
 4113.7588 	 1.4120166 	 200.083 	
 4124.3169 	 1.4136603 	 200.085 	
 4133.8428 	 1.4150323 	 200.082 	
 4143.7129 	 1.4165082 	 200.082 	
 4154.4907 	 1.4181263 	 200.085 	
 4164.0488 	 1.419101 	 200.086 	
 4174.3501 	 1.4207394 	 200.084 	
 4184.043 	 1.4219751 	 200.087 	
 4193.9087 	 1.4234025 	 200.087 	
 4204.0449 	 1.4250201 	 200.087 	
 4214.2124 	 1.426284 	 200.089 	
 4224.5234 	 1.427639 	 200.091 	
 4233.8169 	 1.4289024 	 200.091 	
 4243.8315 	 1.4302377 	 200.091 	
 4254.0112 	 1.4316646 	 200.09 	
 4263.8877 	 1.4329775 	 200.09 	
 4273.8291 	 1.4343463 	 200.09 	
 4284.4878 	 1.4358287 	 200.093 	
 4293.8438 	 1.4369168 	 200.089 	
 4304.1611 	 1.4382808 	 200.093 	
 4313.6572 	 1.4394436 	 200.093 	
 4323.981 	 1.4408912 	 200.093 	
 4334.5298 	 1.4422121 	 200.092 	
 4343.8472 	 1.4433397 	 200.092 	
 4354.2373 	 1.4447767 	 200.092 	
 4364.1304 	 1.4458355 	 200.092 	
 4374.0415 	 1.447108 	 200.092 	
 4384.2373 	 1.448552 	 200.093 	
 4393.708 	 1.4497754 	 200.093 	
 4404.1304 	 1.4510989 	 200.093 	
 4413.9204 	 1.4522569 	 200.093 	
 4424.001 	 1.4536028 	 200.093 	
 4434.3252 	 1.4548817 	 200.092 	
 4443.7573 	 1.4558068 	 200.092 	
 4454.2207 	 1.4573392 	 200.091 	
 4464.2729 	 1.4583719 	 200.091 	
 4473.9485 	 1.4595847 	 200.091 	
 4484.1697 	 1.4608551 	 200.091 	
 4493.3191 	 1.4618596 	 200.091 	
 4504.4119 	 1.4634191 	 200.094 	
 4514.0791 	 1.4643155 	 200.094 	
 4523.9429 	 1.4655166 	 200.094 	
 4534.114 	 1.4668161 	 200.088 	
 4543.6001 	 1.4678468 	 200.091 	
 4554.5396 	 1.4691741 	 200.092 	
 4564.1377 	 1.4702686 	 200.092 	
 4573.9399 	 1.4713386 	 200.092 	
 4584.28 	 1.4727176 	 200.094 	
 4593.439 	 1.4736092 	 200.094 	
 4604.5981 	 1.475083 	 200.094 	
 4613.9651 	 1.4760977 	 200.094 	
 4623.8594 	 1.4772077 	 200.094 	
 4634.1541 	 1.4782724 	 200.097 	
 4643.782 	 1.4793733 	 200.097 	
 4654.4856 	 1.4806068 	 200.096 	
 4663.8027 	 1.4814138 	 200.096 	
 4673.8772 	 1.4827129 	 200.096 	
 4684.1621 	 1.4838234 	 200.098 	
 4693.5544 	 1.484748 	 200.098 	
 4704.5996 	 1.4860711 	 200.098 	
 4713.9897 	 1.4867629 	 200.098 	
 4724.1301 	 1.487964 	 200.098 	
 4734.3057 	 1.4890309 	 200.1 	
 4743.7366 	 1.4899277 	 200.1 	
 4754.0767 	 1.4911608 	 200.103 	
 4763.5886 	 1.4921994 	 200.097 	
 4774.2012 	 1.4934159 	 200.097 	
 4784.3621 	 1.4943581 	 200.099 	
 4793.5784 	 1.4953238 	 200.099 	
 4804.2544 	 1.4965771 	 200.096 	
 4813.5652 	 1.4972556 	 200.096 	
 4824.4976 	 1.4986037 	 200.096 	
 4834.3613 	 1.4994948 	 200.097 	
 4843.658 	 1.5003501 	 200.096 	
 4854.1328 	 1.501588 	 200.098 	
 4864.2122 	 1.5023986 	 200.098 	
 4874.0574 	 1.503319 	 200.098 	
 4884.157 	 1.5043155 	 200.099 	
 4893.9963 	 1.5053919 	 200.096 	
 4904.5049 	 1.5065217 	 200.097 	
 4913.9043 	 1.5073467 	 200.097 	
 4923.5806 	 1.5082223 	 200.094 	
 4935.175 	 1.5094101 	 200.098 	
 4943.583 	 1.5099534 	 200.098 	
 4954.4177 	 1.511188 	 200.097 	
 4964.2932 	 1.5119555 	 200.096 	
 4973.6833 	 1.5129451 	 200.096 	
 4984.8376 	 1.513972 	 200.093 	

	
	
