Start Time:  20/09/15 3:51:06 AM          Time Completed:  20/09/15 4:03:03 AM      Elapsed Time:  00:11:57
Sample ID:     2020-09-14_BM5B-66MG-F7_1100ox_after_press

Experiment:    C:\IDEASVSM\Inducat\Experiments\hys_c_550(1)_03s_master06\hys_c_550(1)_03s_master06.exp
Data File:     C:\IDEASVSM\Inducat\2020-09-14_BM5B-66MG-F7_1100ox_after_press (ProfileData)\2020-09-14_BM5B-66MG-F7_1100ox_after_press#52.txt
Plot File:     C:\IDEASVSM\Inducat\2020-09-14_BM5B-66MG-F7_1100ox_after_press (ProfileData)\2020-09-14_BM5B-66MG-F7_1100ox_after_press#52.oc2
VSM Exp File:  C:\IDEASVSM\Inducat\Experiments\hys_c_550(1)_03s_master06\hys_c_550(1)_03s_master06.stp
VSM Data File: C:\IDEASVSM\Inducat\2020-09-14_BM5B-66MG-F7_1100ox_after_press (ProfileData)\2020-09-14_BM5B-66MG-F7_1100ox_after_press#52.dat

***DATA***

Field(Oe)	 Moment(emu)	 Temperature(C)	
 549.82198 	 0.27597157 	 800 	
 549.0989 	 0.27605946 	 800 	
 548.00269 	 0.2755764 	 800 	
 547.03611 	 0.27507432 	 800 	
 546.02008 	 0.27463536 	 800 	
 545.05334 	 0.27418242 	 800 	
 544.02812 	 0.27381217 	 799.99 	
 543.05377 	 0.27332159 	 799.99 	
 542.01308 	 0.27288334 	 799.99 	
 541.10199 	 0.27239135 	 799.99 	
 540.05666 	 0.27198257 	 799.99 	
 538.99129 	 0.27153268 	 800 	
 538.0709 	 0.27108926 	 800 	
 537.03483 	 0.27067569 	 799.99 	
 536.04966 	 0.27026949 	 799.99 	
 535.02445 	 0.26975632 	 799.99 	
 534.04081 	 0.26933344 	 799.99 	
 533.0634 	 0.26891861 	 799.99 	
 532.06895 	 0.26844513 	 800 	
 531.07141 	 0.26806879 	 800 	
 530.0154 	 0.26751972 	 800 	
 529.04411 	 0.26715192 	 800 	
 528.05434 	 0.26669746 	 800 	
 527.07066 	 0.26624284 	 800 	
 526.08248 	 0.26583669 	 800 	
 525.06177 	 0.26534569 	 800 	
 524.05658 	 0.26493823 	 800.01 	
 523.07298 	 0.26448558 	 800.01 	
 522.01998 	 0.26396635 	 800 	
 521.07182 	 0.26354098 	 800 	
 520.06968 	 0.26313672 	 800 	
 519.04445 	 0.262697 	 800.01 	
 518.0824 	 0.26222779 	 800.01 	
 517.04173 	 0.26175346 	 800.01 	
 516.04885 	 0.26131728 	 800.01 	
 515.07762 	 0.26089999 	 800.01 	
 514.0246 	 0.26045602 	 800.01 	
 513.06258 	 0.25999148 	 800.01 	
 512.11282 	 0.25954066 	 800.01 	
 511.06753 	 0.25913956 	 800.01 	
 510.10863 	 0.25865185 	 800.01 	
 509.06181 	 0.2582309 	 800.02 	
 508.08128 	 0.25770946 	 800.01 	
 507.05903 	 0.25731454 	 800.01 	
 506.0753 	 0.25683188 	 800.01 	
 505.09269 	 0.25639999 	 800.02 	
 504.0731 	 0.25597741 	 800.03 	
 503.1367 	 0.25550614 	 800.03 	
 502.05074 	 0.25505917 	 800.02 	
 501.06047 	 0.25461428 	 800.02 	
 500.09479 	 0.2541287 	 800.02 	
 499.10138 	 0.25371841 	 800.02 	
 498.12492 	 0.25330541 	 800.02 	
 497.10838 	 0.25281607 	 800.03 	
 496.0332 	 0.25234839 	 800.03 	
 495.09692 	 0.25188082 	 800.02 	
 494.07568 	 0.25149442 	 800.03 	
 493.09465 	 0.25099428 	 800.03 	
 492.11973 	 0.25056524 	 800.03 	
 491.08777 	 0.25010245 	 800.03 	
 490.07279 	 0.24963329 	 800.03 	
 489.13025 	 0.24921457 	 800.03 	
 488.15383 	 0.24875435 	 800.03 	
 487.09564 	 0.24829967 	 800.03 	
 486.11918 	 0.24782198 	 800.03 	
 485.08872 	 0.2473816 	 800.03 	
 484.12925 	 0.24697191 	 800.03 	
 483.08805 	 0.24648282 	 800.03 	
 482.08075 	 0.24599291 	 800.03 	
 481.12901 	 0.24557735 	 800.03 	
 480.12018 	 0.24512803 	 800.03 	
 479.05424 	 0.2446869 	 800.04 	
 478.14567 	 0.2441713 	 800.04 	
 477.09363 	 0.2437806 	 800.03 	
 476.10333 	 0.24333004 	 800.03 	
 475.14691 	 0.24283125 	 800.03 	
 474.08415 	 0.24240355 	 800.03 	
 473.09839 	 0.24189731 	 800.03 	
 472.12197 	 0.2414949 	 800.04 	
 471.15476 	 0.24106685 	 800.04 	
 470.06264 	 0.24051835 	 800.04 	
 469.15562 	 0.24007321 	 800.04 	
 468.13135 	 0.23965213 	 800.04 	
 467.1225 	 0.23921822 	 800.04 	
 466.09056 	 0.23874056 	 800.04 	
 465.1295 	 0.23822828 	 800.04 	
 464.11916 	 0.23780885 	 800.04 	
 463.1674 	 0.23741347 	 800.04 	
 462.12461 	 0.23689221 	 800.04 	
 461.15434 	 0.23646249 	 800.04 	
 460.16248 	 0.23601278 	 800.04 	
 459.10122 	 0.23551226 	 800.04 	
 458.1556 	 0.23510963 	 800.04 	
 457.08504 	 0.23459807 	 800.04 	
 456.15953 	 0.23415928 	 800.04 	
 455.16148 	 0.23367513 	 800.04 	
 454.0848 	 0.23325173 	 800.04 	
 453.1531 	 0.23278302 	 800.04 	
 452.16895 	 0.23229599 	 800.04 	
 451.11076 	 0.23185156 	 800.04 	
 450.1744 	 0.23139919 	 800.04 	
 449.15324 	 0.23095881 	 800.04 	
 448.12431 	 0.2305134 	 800.04 	
 447.19572 	 0.22999604 	 800.04 	
 446.14679 	 0.22956632 	 800.03 	
 445.18575 	 0.22912553 	 800.04 	
 444.1507 	 0.22864446 	 800.03 	
 443.14958 	 0.22818519 	 800.04 	
 442.12687 	 0.22766507 	 800.04 	
 441.172 	 0.22728552 	 800.04 	
 440.20327 	 0.22681596 	 800.04 	
 439.10651 	 0.22633986 	 800.04 	
 438.16091 	 0.22586345 	 800.04 	
 437.19067 	 0.22539808 	 800.04 	
 436.12628 	 0.22496147 	 800.04 	
 435.12821 	 0.22447487 	 800.04 	
 434.17804 	 0.2239975 	 800.04 	
 433.21393 	 0.22359255 	 800.04 	
 432.15883 	 0.22313047 	 800.04 	
 431.13454 	 0.22260118 	 800.04 	
 430.15194 	 0.22218435 	 800.04 	
 429.17706 	 0.22169338 	 800.04 	
 428.14046 	 0.22125182 	 800.04 	
 427.164 	 0.2207615 	 800.04 	
 426.15672 	 0.22033604 	 800.04 	
 425.22038 	 0.2198359 	 800.04 	
 424.20072 	 0.2194098 	 800.04 	
 423.23816 	 0.21894862 	 800.04 	
 422.1522 	 0.21844988 	 800.04 	
 421.17735 	 0.21799239 	 800.04 	
 420.14996 	 0.2174853 	 800.04 	
 419.17664 	 0.21708096 	 800.04 	
 418.22176 	 0.21660423 	 800.04 	
 417.20058 	 0.21611156 	 800.04 	
 416.17633 	 0.21565421 	 800.04 	
 415.2616 	 0.21519821 	 800.04 	
 414.12626 	 0.21473895 	 800.04 	
 413.18835 	 0.21427333 	 800.04 	
 412.19804 	 0.21380043 	 800.04 	
 411.20313 	 0.21332291 	 800.04 	
 410.18811 	 0.21286109 	 800.04 	
 409.20241 	 0.21236351 	 800.03 	
 408.25218 	 0.21194096 	 800.03 	
 407.20632 	 0.21144523 	 800.04 	
 406.17283 	 0.21097876 	 800.03 	
 405.2627 	 0.21052256 	 800.03 	
 404.1721 	 0.21002448 	 800.03 	
 403.2095 	 0.20957885 	 800.03 	
 402.15283 	 0.20909978 	 800.03 	
 401.22729 	 0.20867343 	 800.03 	
 400.22925 	 0.2081881 	 800.03 	
 399.18959 	 0.2076727 	 800.03 	
 398.19616 	 0.20724563 	 800.02 	
 397.22745 	 0.2067443 	 800.02 	
 396.17695 	 0.20630562 	 800.02 	
 395.2144 	 0.20582367 	 800.02 	
 394.17781 	 0.20534925 	 800.03 	
 393.19057 	 0.20486907 	 800.03 	
 392.23262 	 0.2044086 	 800.03 	
 391.19141 	 0.20395473 	 800.03 	
 390.21802 	 0.20348393 	 800.03 	
 389.23391 	 0.20300752 	 800.02 	
 388.23124 	 0.20252939 	 800.03 	
 387.24553 	 0.20208792 	 800.02 	
 386.15804 	 0.20160234 	 800.03 	
 385.22324 	 0.20112564 	 800.03 	
 384.24681 	 0.20066141 	 800.03 	
 383.1886 	 0.2002062 	 800.03 	
 382.25532 	 0.19970006 	 800.03 	
 381.23108 	 0.19923927 	 800.03 	
 380.25928 	 0.19879389 	 800.03 	
 379.20877 	 0.19829276 	 800.02 	
 378.23387 	 0.19781951 	 800.02 	
 377.22041 	 0.19732796 	 800.02 	
 376.23781 	 0.1968665 	 800.02 	
 375.28142 	 0.1964203 	 800.02 	
 374.18467 	 0.19592134 	 800.02 	
 373.22362 	 0.19545863 	 800.02 	
 372.28421 	 0.19499895 	 800.02 	
 371.18591 	 0.19452324 	 800.02 	
 370.24804 	 0.19402584 	 800.02 	
 369.19754 	 0.19354137 	 800.02 	
 368.23193 	 0.19309463 	 800.02 	
 367.24004 	 0.19259624 	 800.02 	
 366.25588 	 0.19212693 	 800.02 	
 365.24861 	 0.19167029 	 800.02 	
 364.27523 	 0.19117684 	 800.03 	
 363.23556 	 0.19069644 	 800.02 	
 362.23904 	 0.19020274 	 800.02 	
 361.25952 	 0.1897304 	 800.02 	
 360.29237 	 0.18929802 	 800.03 	
 359.21101 	 0.1887633 	 800.02 	
 358.27932 	 0.18832215 	 800.02 	
 357.27512 	 0.18782099 	 800.03 	
 356.24622 	 0.18738412 	 800.03 	
 355.29293 	 0.18688996 	 800.02 	
 354.25321 	 0.18639014 	 800.03 	
 353.24132 	 0.18591809 	 800.03 	
 352.29108 	 0.18542127 	 800.03 	
 351.27145 	 0.18498426 	 800.03 	
 350.31816 	 0.18451793 	 800.03 	
 349.23683 	 0.18399735 	 800.03 	
 348.228 	 0.1835328 	 800.02 	
 347.3194 	 0.18301867 	 800.02 	
 346.23652 	 0.18258788 	 800.03 	
 345.28786 	 0.18210472 	 800.03 	
 344.26205 	 0.18158481 	 800.03 	
 343.27635 	 0.18115157 	 800.02 	
 342.26287 	 0.18066124 	 800.02 	
 341.26332 	 0.1801829 	 800.02 	
 340.28069 	 0.17967709 	 800.02 	
 339.29654 	 0.17920324 	 800.03 	
 338.30007 	 0.17875611 	 800.03 	
 337.29429 	 0.17824586 	 800.02 	
 336.25307 	 0.17777761 	 800.02 	
 335.3121 	 0.17727176 	 800.03 	
 334.29556 	 0.17680022 	 800.03 	
 333.31757 	 0.17635086 	 800.03 	
 332.24548 	 0.17582328 	 800.03 	
 331.2721 	 0.17534228 	 800.03 	
 330.33582 	 0.17488039 	 800.02 	
 329.22981 	 0.17438732 	 800.03 	
 328.332 	 0.17395586 	 800.03 	
 327.25841 	 0.17339764 	 800.03 	
 326.28502 	 0.17294125 	 800.02 	
 325.33018 	 0.17249476 	 800.02 	
 324.2797 	 0.1719789 	 800.02 	
 323.26623 	 0.17148463 	 800.02 	
 322.2682 	 0.17099906 	 800.02 	
 321.29482 	 0.1705317 	 800.02 	
 320.35231 	 0.17004889 	 800.02 	
 319.29568 	 0.16953927 	 800.02 	
 318.30843 	 0.16907891 	 800.02 	
 317.31966 	 0.16856762 	 800.02 	
 316.29695 	 0.1680731 	 800.02 	
 315.31896 	 0.16763049 	 800.02 	
 314.31475 	 0.16714637 	 800.02 	
 313.28896 	 0.16659365 	 800.02 	
 312.33254 	 0.16614734 	 800.02 	
 311.32681 	 0.16568197 	 800.02 	
 310.31026 	 0.16521007 	 800.02 	
 309.31376 	 0.164686 	 800.02 	
 308.31263 	 0.16420931 	 800.02 	
 307.35625 	 0.1637385 	 800.02 	
 306.31194 	 0.16326091 	 800.01 	
 305.30772 	 0.16275315 	 800.01 	
 304.35905 	 0.1622599 	 800.02 	
 303.31781 	 0.16178377 	 800.01 	
 302.34603 	 0.16129809 	 800.01 	
 301.36017 	 0.16080612 	 800.02 	
 300.29657 	 0.16026008 	 800.01 	
 299.35179 	 0.15979705 	 800.01 	
 298.31283 	 0.15933022 	 800.02 	
 297.40196 	 0.15887419 	 800.02 	
 296.32131 	 0.15833453 	 800.02 	
 295.34873 	 0.15788031 	 800.01 	
 294.31594 	 0.15734485 	 800.01 	
 293.32635 	 0.15687951 	 800.01 	
 292.41707 	 0.15641513 	 800.01 	
 291.27775 	 0.15587746 	 800.02 	
 290.3314 	 0.15542161 	 800.01 	
 289.35569 	 0.15493369 	 800.01 	
 288.3677 	 0.15446623 	 800.02 	
 287.35649 	 0.15394458 	 800.02 	
 286.32987 	 0.15346433 	 800.02 	
 285.39742 	 0.15300616 	 800.02 	
 284.33221 	 0.15247183 	 800.02 	
 283.32876 	 0.15197039 	 800.02 	
 282.36235 	 0.15149876 	 800.02 	
 281.33417 	 0.15098002 	 800.02 	
 280.32452 	 0.15051103 	 800.02 	
 279.40599 	 0.15003153 	 800.02 	
 278.32222 	 0.14952607 	 800.02 	
 277.38053 	 0.1490526 	 800.02 	
 276.31842 	 0.1485246 	 800.02 	
 275.32261 	 0.14804274 	 800.02 	
 274.3562 	 0.1475402 	 800.02 	
 273.3574 	 0.14705612 	 800.02 	
 272.36629 	 0.14654345 	 800.02 	
 271.35972 	 0.14605848 	 800.02 	
 270.34701 	 0.14558288 	 800.02 	
 269.38367 	 0.14508754 	 800.02 	
 268.35242 	 0.14460683 	 800.02 	
 267.38139 	 0.14407544 	 800.02 	
 266.43349 	 0.14360077 	 800.02 	
 265.35592 	 0.14308675 	 800.02 	
 264.4142 	 0.14258918 	 800.02 	
 263.33203 	 0.1420937 	 800.02 	
 262.36096 	 0.14164149 	 800.02 	
 261.37604 	 0.14111928 	 800.02 	
 260.38491 	 0.14063778 	 800.02 	
 259.38914 	 0.14014273 	 800.01 	
 258.38572 	 0.13963521 	 800.02 	
 257.38529 	 0.13915113 	 800.02 	
 256.37413 	 0.13860113 	 800.01 	
 255.33671 	 0.13812618 	 800.01 	
 254.43359 	 0.13765044 	 800.01 	
 253.42857 	 0.13718528 	 800.02 	
 252.33093 	 0.13666107 	 800.01 	
 251.42163 	 0.13613736 	 800.01 	
 250.38424 	 0.13562473 	 800.01 	
 249.42861 	 0.1351808 	 800.01 	
 248.33559 	 0.13466576 	 800.02 	
 247.40936 	 0.13416594 	 800.01 	
 246.43056 	 0.13366382 	 800.01 	
 245.42247 	 0.13318748 	 800.01 	
 244.38967 	 0.13269416 	 800.02 	
 243.38314 	 0.13216345 	 800.01 	
 242.45378 	 0.13167092 	 800.01 	
 241.39471 	 0.13115296 	 800.01 	
 240.39742 	 0.13066472 	 800.01 	
 239.44643 	 0.13017119 	 800.01 	
 238.35343 	 0.12966644 	 800.01 	
 237.41018 	 0.12918282 	 800.01 	
 236.38977 	 0.1286524 	 800.01 	
 235.44497 	 0.12816587 	 800.01 	
 234.41211 	 0.12765188 	 800.01 	
 233.39634 	 0.12713019 	 800.01 	
 232.40059 	 0.12664018 	 800.01 	
 231.39868 	 0.12613387 	 800.01 	
 230.42297 	 0.12566771 	 800.02 	
 229.43803 	 0.12513094 	 800.02 	
 228.37282 	 0.12462377 	 800.01 	
 227.42956 	 0.12415471 	 800.01 	
 226.40909 	 0.12361849 	 800.01 	
 225.41179 	 0.12314524 	 800.01 	
 224.4423 	 0.12264841 	 800.01 	
 223.40796 	 0.1221084 	 800.01 	
 222.43537 	 0.12164335 	 800.02 	
 221.44734 	 0.12111651 	 800.02 	
 220.40065 	 0.12064234 	 800.02 	
 219.41417 	 0.12012168 	 800.02 	
 218.44002 	 0.11959264 	 800.02 	
 217.42577 	 0.11912454 	 800.01 	
 216.49793 	 0.1186075 	 800.01 	
 215.36788 	 0.11812281 	 800.02 	
 214.45705 	 0.117604 	 800.02 	
 213.45976 	 0.11709826 	 800.02 	
 212.42386 	 0.11661534 	 800.02 	
 211.44665 	 0.11607196 	 800.02 	
 210.40922 	 0.11556827 	 800.02 	
 209.48912 	 0.11510862 	 800.02 	
 208.43163 	 0.11457966 	 800.02 	
 207.4297 	 0.11403766 	 800.03 	
 206.47256 	 0.11358162 	 800.02 	
 205.43976 	 0.11308326 	 800.02 	
 204.43938 	 0.11255441 	 800.02 	
 203.41585 	 0.11201024 	 800.02 	
 202.43554 	 0.11153113 	 800.02 	
 201.49692 	 0.11103594 	 800.02 	
 200.43017 	 0.11050331 	 800.03 	
 199.47301 	 0.1100237 	 800.03 	
 198.46644 	 0.10949378 	 800.03 	
 197.40895 	 0.10900678 	 800.03 	
 196.50275 	 0.10850197 	 800.03 	
 195.44524 	 0.10799075 	 800.02 	
 194.4387 	 0.10750553 	 800.03 	
 193.47537 	 0.10699475 	 800.03 	
 192.45336 	 0.10649568 	 800.03 	
 191.44683 	 0.10597985 	 800.03 	
 190.3955 	 0.10544552 	 800.03 	
 189.48003 	 0.10500106 	 800.03 	
 188.42562 	 0.10444912 	 800.03 	
 187.44532 	 0.10395815 	 800.03 	
 186.49744 	 0.10341317 	 800.03 	
 185.4955 	 0.10291023 	 800.03 	
 184.4133 	 0.10238151 	 800.03 	
 183.43608 	 0.10188951 	 800.03 	
 182.48511 	 0.10139168 	 800.03 	
 181.49245 	 0.10088771 	 800.03 	
 180.51833 	 0.10037732 	 800.03 	
 179.41915 	 0.099862875 	 800.03 	
 178.42957 	 0.099313243 	 800.03 	
 177.47089 	 0.098814103 	 800.03 	
 176.49211 	 0.09832796 	 800.03 	
 175.45468 	 0.097804924 	 800.03 	
 174.48827 	 0.097302303 	 800.03 	
 173.47555 	 0.096774047 	 800.03 	
 172.45819 	 0.096260169 	 800.03 	
 171.51647 	 0.095787663 	 800.03 	
 170.41574 	 0.09523118 	 800.03 	
 169.46321 	 0.094694115 	 800.03 	
 168.5462 	 0.094231654 	 800.03 	
 167.47791 	 0.093714157 	 800.03 	
 166.45284 	 0.09318235 	 800.03 	
 165.50032 	 0.092667801 	 800.03 	
 164.44899 	 0.092130171 	 800.03 	
 163.47176 	 0.091625812 	 800.03 	
 162.47293 	 0.091137927 	 800.03 	
 161.53276 	 0.090628491 	 800.03 	
 160.45829 	 0.090055424 	 800.03 	
 159.50113 	 0.089600279 	 800.03 	
 158.49458 	 0.089082104 	 800.03 	
 157.4695 	 0.088537978 	 800.03 	
 156.46141 	 0.088024563 	 800.03 	
 155.53204 	 0.087519103 	 800.04 	
 154.52703 	 0.087015204 	 800.03 	
 153.52666 	 0.086511305 	 800.04 	
 152.47049 	 0.085956456 	 800.04 	
 151.47596 	 0.085453658 	 800.04 	
 150.49841 	 0.08492764 	 800.03 	
 149.49154 	 0.084419198 	 800.04 	
 148.53407 	 0.083888527 	 800.04 	
 147.48704 	 0.083373477 	 800.04 	
 146.55894 	 0.082893229 	 800.04 	
 145.49337 	 0.082337489 	 800.04 	
 144.55132 	 0.081830926 	 800.03 	
 143.50122 	 0.081302849 	 800.03 	
 142.49589 	 0.080779883 	 800.03 	
 141.55696 	 0.08029722 	 800.03 	
 140.50066 	 0.079746912 	 800.03 	
 139.51076 	 0.079254802 	 800.03 	
 138.51006 	 0.078722074 	 800.03 	
 137.53253 	 0.078190586 	 800.03 	
 136.52102 	 0.077681609 	 800.03 	
 135.50795 	 0.077167663 	 800.03 	
 134.55512 	 0.076690184 	 800.04 	
 133.52046 	 0.076139132 	 800.04 	
 132.48114 	 0.075596212 	 800.03 	
 131.57618 	 0.075084786 	 800.03 	
 130.52453 	 0.074551202 	 800.03 	
 129.53616 	 0.074085013 	 800.03 	
 128.49531 	 0.073528137 	 800.03 	
 127.51469 	 0.07300876 	 800.04 	
 126.55876 	 0.072475921 	 800.04 	
 125.47312 	 0.07197728 	 800.03 	
 124.57434 	 0.071459213 	 800.04 	
 123.53658 	 0.070921654 	 800.03 	
 122.48491 	 0.070350787 	 800.04 	
 121.49503 	 0.069848594 	 800.04 	
 120.55455 	 0.069350058 	 800.04 	
 119.57702 	 0.06885177 	 800.04 	
 118.56704 	 0.068316981 	 800.04 	
 117.54008 	 0.067766956 	 800.04 	
 116.54402 	 0.067258764 	 800.04 	
 115.53713 	 0.066708954 	 800.04 	
 114.51482 	 0.066198345 	 800.04 	
 113.50176 	 0.065666752 	 800.04 	
 112.49333 	 0.065135511 	 800.04 	
 111.51425 	 0.064632219 	 800.04 	
 110.45177 	 0.064098422 	 800.04 	
 109.52829 	 0.0635631 	 800.04 	
 108.73452 	 0.063057392 	 800.04 	
 107.48364 	 0.062476652 	 800.04 	
 106.50456 	 0.061963701 	 800.05 	
 105.62431 	 0.061474396 	 800.05 	
 104.46609 	 0.060902321 	 800.05 	
 103.60128 	 0.060389335 	 800.04 	
 102.49557 	 0.059861293 	 800.05 	
 101.49333 	 0.059363251 	 800.04 	
 100.64243 	 0.058830771 	 800.04 	
 99.56012 	 0.058278156 	 800.04 	
 98.601395 	 0.057769144 	 800.05 	
 97.580912 	 0.057216922 	 800.05 	
 96.543452 	 0.0566985 	 800.05 	
 95.637212 	 0.056165735 	 800.05 	
 94.51948 	 0.055567851 	 800.04 	
 93.332265 	 0.055033699 	 800.04 	
 92.486237 	 0.054611363 	 800.04 	
 91.661814 	 0.054153592 	 800.04 	
 90.510106 	 0.05355677 	 800.04 	
 89.501984 	 0.053027909 	 800.04 	
 88.733154 	 0.052563248 	 800.04 	
 87.559835 	 0.051906061 	 800.04 	
 86.41893 	 0.051394707 	 800.03 	
 85.764338 	 0.050870995 	 800.04 	
 84.52772 	 0.050314793 	 800.03 	
 83.516505 	 0.049798682 	 800.03 	
 82.695185 	 0.049263074 	 800.03 	
 81.466283 	 0.048709997 	 800.03 	
 80.631063 	 0.048156496 	 800.03 	
 79.683141 	 0.047660906 	 800.03 	
 78.428004 	 0.047117203 	 800.03 	
 77.649902 	 0.04655525 	 800.03 	
 76.700434 	 0.046028271 	 800.03 	
 75.713923 	 0.045465537 	 800.03 	
 74.867897 	 0.044957484 	 800.03 	
 73.697662 	 0.044438071 	 800.03 	
 72.461042 	 0.043872387 	 800.03 	
 71.547086 	 0.043353753 	 800.03 	
 70.603798 	 0.042822019 	 800.03 	
 69.646609 	 0.042294684 	 800.03 	
 68.726486 	 0.041749704 	 800.03 	
 67.452817 	 0.041194035 	 800.03 	
 66.717944 	 0.040667235 	 800.03 	
 65.643428 	 0.040136741 	 800.03 	
 64.598251 	 0.039564668 	 800.03 	
 63.344641 	 0.039034885 	 800.03 	
 62.825919 	 0.038526512 	 800.03 	
 61.257367 	 0.037935122 	 800.02 	
 60.778779 	 0.037540945 	 800.02 	
 59.678023 	 0.037000793 	 800.02 	
 58.421335 	 0.036383731 	 800.02 	
 57.91495 	 0.035896026 	 800.02 	
 56.366478 	 0.035211426 	 800.02 	
 55.827677 	 0.034675286 	 800.02 	
 54.518495 	 0.034107935 	 800.02 	
 53.518088 	 0.03359239 	 800.02 	
 52.639642 	 0.033047587 	 800.02 	
 51.571297 	 0.032519474 	 800.03 	
 50.776222 	 0.031992814 	 800.02 	
 49.614794 	 0.031417225 	 800.03 	
 48.568855 	 0.030858042 	 800.03 	
 47.532188 	 0.030305781 	 800.03 	
 46.802968 	 0.029784698 	 800.03 	
 45.585538 	 0.029237835 	 800.03 	
 44.309405 	 0.028680427 	 800.03 	
 43.30982 	 0.028131859 	 800.03 	
 42.742818 	 0.027541819 	 800.03 	
 41.635086 	 0.02702127 	 800.02 	
 40.650948 	 0.026473945 	 800.02 	
 39.699249 	 0.025928751 	 800.02 	
 38.608513 	 0.025390198 	 800.02 	
 37.519315 	 0.024793731 	 800.02 	
 36.64178 	 0.024302615 	 800.03 	
 35.657641 	 0.023735052 	 800.03 	
 34.586985 	 0.023176187 	 800.03 	
 33.602844 	 0.022633833 	 800.03 	
 32.606346 	 0.022064387 	 800.03 	
 31.538783 	 0.021557081 	 800.02 	
 30.840462 	 0.021024528 	 800.02 	
 29.531881 	 0.020405903 	 800.02 	
 28.518387 	 0.019805174 	 800.03 	
 27.775266 	 0.019293003 	 800.03 	
 26.542384 	 0.018668804 	 800.02 	
 25.579875 	 0.018169238 	 800.02 	
 24.872281 	 0.01773238 	 800.03 	
 23.466368 	 0.017063688 	 800.03 	
 22.582652 	 0.016426634 	 800.03 	
 21.579975 	 0.015912475 	 800.03 	
 20.685445 	 0.015402363 	 800.03 	
 19.627147 	 0.014801705 	 800.03 	
 18.684724 	 0.014278278 	 800.03 	
 17.593983 	 0.013678366 	 800.03 	
 16.717992 	 0.013154406 	 800.03 	
 15.587081 	 0.012575764 	 800.03 	
 14.746624 	 0.012018426 	 800.04 	
 13.680605 	 0.01143119 	 800.04 	
 12.708825 	 0.010873107 	 800.04 	
 11.63817 	 0.010320989 	 800.03 	
 10.797713 	 0.009757331 	 800.03 	
 9.626634 	 0.0091279114 	 800.03 	
 8.6332254 	 0.0085916302 	 800.03 	
 7.5903786 	 0.008031878 	 800.03 	
 6.7174778 	 0.0074478739 	 800.03 	
 5.598928 	 0.0068814463 	 800.03 	
 4.5931605 	 0.0062568206 	 800.03 	
 3.6569157 	 0.0057137928 	 800.03 	
 2.6913168 	 0.0051473651 	 800.03 	
 1.6469253 	 0.0045372264 	 800.03 	
 0.6952311 	 0.0039818063 	 800.03 	
-0.37657252 	 0.00334248 	 800.03 	
-1.370477 	 0.0027932738 	 800.04 	
-2.2995616 	 0.002213708 	 800.03 	
-3.4261925 	 0.001605274 	 800.03 	
-4.3058903 	 0.0010463741 	 800.03 	
-5.2843618 	 0.00042075405 	 800.03 	
-6.3492592 	-0.00017775543 	 800.03 	
-7.2906906 	-0.0007767799 	 800.03 	
-8.374108 	-0.0014181301 	 800.03 	
-9.330972 	-0.00198383 	 800.03 	
-10.306357 	-0.0025584424 	 800.03 	
-11.324956 	-0.0031600235 	 800.04 	
-12.349726 	-0.0037369443 	 800.04 	
-13.312764 	-0.0043307665 	 800.04 	
-14.362228 	-0.0049509894 	 800.03 	
-15.337612 	-0.0055361123 	 800.03 	
-16.325343 	-0.0061216967 	 800.04 	
-17.285294 	-0.0066931489 	 800.04 	
-18.38106 	-0.0073131941 	 800.03 	
-19.285449 	-0.0078665015 	 800.03 	
-20.331829 	-0.0084812564 	 800.03 	
-21.291781 	-0.0090467784 	 800.03 	
-22.291859 	-0.0096141827 	 800.03 	
-23.353666 	-0.010236341 	 800.03 	
-24.35066 	-0.010811734 	 800.03 	
-25.298265 	-0.011390981 	 800.03 	
-26.30143 	-0.011933458 	 800.04 	
-27.307681 	-0.012492003 	 800.03 	
-28.323194 	-0.013101946 	 800.04 	
-29.329442 	-0.01366912 	 800.04 	
-30.280136 	-0.014227843 	 800.04 	
-31.335772 	-0.014803876 	 800.04 	
-32.286463 	-0.015369186 	 800.04 	
-33.271111 	-0.015932346 	 800.03 	
-34.351443 	-0.016502272 	 800.03 	
-35.299044 	-0.017084057 	 800.03 	
-36.336164 	-0.017637595 	 800.04 	
-37.311551 	-0.018203011 	 800.04 	
-38.286934 	-0.018747388 	 800.03 	
-39.320964 	-0.019307389 	 800.03 	
-40.327217 	-0.019904265 	 800.03 	
-41.299512 	-0.020454324 	 800.03 	
-42.284157 	-0.020991067 	 800.03 	
-43.302755 	-0.021564152 	 800.03 	
-44.302834 	-0.022106185 	 800.03 	
-45.278219 	-0.022681668 	 800.03 	
-46.343117 	-0.023254381 	 800.03 	
-47.272199 	-0.023791266 	 800.03 	
-48.303144 	-0.024367742 	 800.03 	
-49.287788 	-0.02491164 	 800.03 	
-50.28182 	-0.025453337 	 800.03 	
-51.257755 	-0.025997074 	 800.03 	
-52.261528 	-0.026560218 	 800.03 	
-53.320889 	-0.027119562 	 800.03 	
-54.284509 	-0.027675335 	 800.03 	
-55.29137 	-0.028193884 	 800.03 	
-56.267338 	-0.02874428 	 800.03 	
-57.308168 	-0.029327859 	 800.03 	
-58.262526 	-0.029865951 	 800.03 	
-59.312626 	-0.030401629 	 800.03 	
-60.233002 	-0.030910267 	 800.03 	
-61.335604 	-0.031523601 	 800.04 	
-62.286867 	-0.032063273 	 800.03 	
-63.333875 	-0.032623789 	 800.03 	
-64.251163 	-0.033155418 	 800.03 	
-65.251849 	-0.03369248 	 800.03 	
-66.301943 	-0.034256564 	 800.03 	
-67.265564 	-0.034787467 	 800.03 	
-68.253888 	-0.035332022 	 800.03 	
-69.263837 	-0.035869457 	 800.03 	
-70.323201 	-0.036437998 	 800.03 	
-71.286819 	-0.036991731 	 800.03 	
-72.287498 	-0.037465038 	 800.03 	
-73.23259 	-0.038038124 	 800.03 	
-74.310478 	-0.038635515 	 800.04 	
-75.295715 	-0.039159634 	 800.04 	
-76.234634 	-0.039676244 	 800.04 	
-77.244583 	-0.04021194 	 800.04 	
-78.260712 	-0.040760881 	 800.04 	
-79.28301 	-0.041351045 	 800.04 	
-80.262075 	-0.041887345 	 800.04 	
-81.324524 	-0.042424069 	 800.04 	
-82.244904 	-0.042922997 	 800.04 	
-83.267207 	-0.043475895 	 800.04 	
-84.267883 	-0.044038134 	 800.04 	
-85.26239 	-0.044552168 	 800.04 	
-86.278509 	-0.045134219 	 800.04 	
-87.273015 	-0.045665903 	 800.04 	
-88.267517 	-0.046206906 	 800.04 	
-89.243495 	-0.04676309 	 800.04 	
-90.194758 	-0.047266526 	 800.04 	
-91.312795 	-0.047819248 	 800.04 	
-92.298035 	-0.048352226 	 800.04 	
-93.286367 	-0.048913204 	 800.04 	
-94.277776 	-0.04942337 	 800.03 	
-95.207423 	-0.049973463 	 800.03 	
-96.276052 	-0.05051878 	 800.04 	
-97.211878 	-0.051042173 	 800.03 	
-98.234172 	-0.051579538 	 800.04 	
-99.324422 	-0.052155428 	 800.04 	
-100.17994 	-0.05265487 	 800.04 	
-101.2918 	-0.053231631 	 800.03 	
-102.23373 	-0.053738919 	 800.03 	
-103.24051 	-0.054293008 	 800.03 	
-104.23801 	-0.054824936 	 800.03 	
-105.22317 	-0.055330805 	 800.03 	
-106.27318 	-0.055908406 	 800.03 	
-107.22745 	-0.056409076 	 800.03 	
-108.22496 	-0.056950239 	 800.03 	
-109.26261 	-0.057496887 	 800.03 	
-110.19218 	-0.058005045 	 800.03 	
-111.25762 	-0.058573106 	 800.03 	
-112.2366 	-0.059107399 	 800.02 	
-113.20013 	-0.05963152 	 800.02 	
-114.24397 	-0.060159259 	 800.03 	
-115.21368 	-0.060666392 	 800.03 	
-116.21428 	-0.06123527 	 800.03 	
-117.18708 	-0.061771444 	 800.02 	
-118.24635 	-0.062327166 	 800.02 	
-119.20064 	-0.062848018 	 800.03 	
-120.27225 	-0.063383411 	 800.02 	
-121.24504 	-0.063909466 	 800.02 	
-122.25491 	-0.0644439 	 800.02 	
-123.2061 	-0.064938283 	 800.02 	
-124.2314 	-0.065514635 	 800.02 	
-125.20111 	-0.066026523 	 800.02 	
-126.18318 	-0.066569142 	 800.02 	
-127.26099 	-0.067113465 	 800.02 	
-128.14734 	-0.067605984 	 800.02 	
-129.21276 	-0.068184785 	 800.02 	
-130.21645 	-0.068710914 	 800.02 	
-131.23559 	-0.069222639 	 800.02 	
-132.18677 	-0.06971995 	 800.02 	
-133.1472 	-0.070245756 	 800.02 	
-134.21266 	-0.070811866 	 800.02 	
-135.20707 	-0.071350047 	 800.02 	
-136.25091 	-0.071909477 	 800.02 	
-137.23607 	-0.072416926 	 800.02 	
-138.19342 	-0.072916404 	 800.02 	
-139.23107 	-0.073479831 	 800.01 	
-140.2224 	-0.073983126 	 800.02 	
-141.18903 	-0.074511628 	 800.02 	
-142.18345 	-0.075046066 	 800.01 	
-143.16552 	-0.075554683 	 800.01 	
-144.19391 	-0.076100091 	 800.02 	
-145.22539 	-0.076623715 	 800.02 	
-146.21673 	-0.07716328 	 800.02 	
-147.17408 	-0.077702811 	 800.01 	
-148.20247 	-0.078198488 	 800.01 	
-149.19689 	-0.078753287 	 800.01 	
-150.23763 	-0.079297788 	 800.01 	
-151.13941 	-0.079782602 	 800.01 	
-152.19879 	-0.08031432 	 800.01 	
-153.17477 	-0.080835616 	 800.01 	
-154.21257 	-0.081381876 	 800.01 	
-155.21328 	-0.081906934 	 800.01 	
-156.14912 	-0.082392015 	 800.01 	
-157.23632 	-0.082972433 	 800.01 	
-158.18144 	-0.083479063 	 800.01 	
-159.18523 	-0.084022058 	 800.01 	
-160.18595 	-0.084519509 	 800.01 	
-161.21137 	-0.085032745 	 800.01 	
-162.14413 	-0.085566719 	 800.01 	
-163.20661 	-0.086078162 	 800 	
-164.17337 	-0.086604839 	 800 	
-165.23584 	-0.08710531 	 800 	
-166.1439 	-0.087612564 	 800 	
-167.18785 	-0.088151809 	 800 	
-168.15768 	-0.088678133 	 800 	
-169.19237 	-0.089230019 	 800.01 	
-170.22706 	-0.08975403 	 800.01 	
-171.13511 	-0.09027263 	 800.01 	
-172.18215 	-0.090775495 	 800 	
-173.1705 	-0.091293154 	 800 	
-174.16504 	-0.09183668 	 800.01 	
-175.16575 	-0.09234695 	 800.01 	
-176.13867 	-0.092844937 	 800.01 	
-177.15483 	-0.0933861 	 800 	
-178.20805 	-0.093898111 	 800.01 	
-179.15626 	-0.094439452 	 800.01 	
-180.16931 	-0.09494935 	 800.01 	
-181.1237 	-0.09547695 	 800.01 	
-182.20471 	-0.096036117 	 800 	
-183.13128 	-0.096529485 	 800.01 	
-184.132 	-0.097050907 	 800.01 	
-185.17596 	-0.097559331 	 800.01 	
-186.1427 	-0.098072445 	 800.01 	
-187.15884 	-0.098621438 	 800.01 	
-188.17193 	-0.099124661 	 800 	
-189.12321 	-0.099615776 	 800 	
-190.10232 	-0.10012656 	 800 	
-191.12465 	-0.10065118 	 800.01 	
-192.17786 	-0.10120965 	 800.01 	
-193.15695 	-0.10171936 	 800.01 	
-194.13914 	-0.10220921 	 800.01 	
-195.17382 	-0.10275741 	 800 	
-196.10968 	-0.10323787 	 800 	
-197.13511 	-0.10376515 	 800.01 	
-198.14815 	-0.10426764 	 800.01 	
-199.14578 	-0.10479449 	 800.01 	
-200.11253 	-0.10533239 	 800.01 	
-201.10707 	-0.10582335 	 800.01 	
-202.16956 	-0.10636197 	 800.01 	
-203.14247 	-0.1068693 	 800.01 	
-204.18642 	-0.10741204 	 800.01 	
-205.11917 	-0.10787713 	 800.02 	
-206.07356 	-0.10839393 	 800.02 	
-207.17311 	-0.10893487 	 800.02 	
-208.13367 	-0.10945189 	 800.02 	
-209.14983 	-0.10995613 	 800.02 	
-210.16907 	-0.11049589 	 800.01 	
-211.10801 	-0.11098777 	 800.01 	
-212.11799 	-0.11150133 	 800.02 	
-213.13105 	-0.11201806 	 800.01 	
-214.11015 	-0.11250418 	 800.01 	
-215.07688 	-0.1130268 	 800.02 	
-216.11157 	-0.11354417 	 800.02 	
-217.14934 	-0.11411312 	 800.02 	
-218.12842 	-0.11460829 	 800.02 	
-219.0921 	-0.11509497 	 800.02 	
-220.16384 	-0.11562124 	 800.02 	
-221.10586 	-0.11613085 	 800.02 	
-222.12202 	-0.11664572 	 800.02 	
-223.10422 	-0.11714334 	 800.02 	
-224.13272 	-0.11766616 	 800.02 	
-225.1118 	-0.1181878 	 800.02 	
-226.12486 	-0.11868081 	 800.02 	
-227.09778 	-0.11917906 	 800.02 	
-228.09849 	-0.11970224 	 800.02 	
-229.11776 	-0.12022297 	 800.02 	
-230.10301 	-0.12072756 	 800.02 	
-231.10372 	-0.121224 	 800.02 	
-232.07357 	-0.12176186 	 800.02 	
-233.12984 	-0.12228591 	 800.02 	
-234.0966 	-0.1227649 	 800.02 	
-235.06645 	-0.12328566 	 800.02 	
-236.11965 	-0.12378881 	 800.02 	
-237.1389 	-0.12435118 	 800.02 	
-238.10254 	-0.12482264 	 800.02 	
-239.07237 	-0.12531004 	 800.02 	
-240.12866 	-0.12580563 	 800.02 	
-241.09851 	-0.12630802 	 800.02 	
-242.12701 	-0.12683112 	 800.02 	
-243.08757 	-0.12732791 	 800.02 	
-244.07902 	-0.12784872 	 800.02 	
-245.1168 	-0.12837881 	 800.02 	
-246.10824 	-0.12890728 	 800.02 	
-247.05029 	-0.12937411 	 800.02 	
-248.1251 	-0.12989579 	 800.02 	
-249.05168 	-0.13037948 	 800.02 	
-250.08022 	-0.13089439 	 800.02 	
-251.12722 	-0.13143169 	 800.02 	
-252.02295 	-0.13191067 	 800.02 	
-253.1225 	-0.13244712 	 800.02 	
-254.12939 	-0.1329353 	 800.02 	
-255.03436 	-0.13342209 	 800.02 	
-256.1215 	-0.13396983 	 800.02 	
-257.079 	-0.13447565 	 800.02 	
-258.04574 	-0.13494931 	 800.02 	
-259.04026 	-0.13546638 	 800.01 	
-260.12439 	-0.13601729 	 800.02 	
-261.05096 	-0.13649777 	 800.02 	
-262.06405 	-0.13699723 	 800.02 	
-263.09871 	-0.13751905 	 800.02 	
-264.07163 	-0.13801375 	 800.02 	
-265.06307 	-0.13851815 	 800.02 	
-266.06999 	-0.13903136 	 800.02 	
-267.01821 	-0.13951101 	 800.02 	
-268.10229 	-0.14003481 	 800.02 	
-269.03505 	-0.14052448 	 800.02 	
-270.10988 	-0.14104507 	 800.02 	
-271.07662 	-0.141521 	 800.02 	
-272.10205 	-0.14204331 	 800.02 	
-273.01628 	-0.14254748 	 800.03 	
-274.0695 	-0.14304681 	 800.03 	
-275.0486 	-0.14355419 	 800.02 	
-276.10799 	-0.14404314 	 800.02 	
-277.05003 	-0.1445517 	 800.02 	
-278.05693 	-0.14504747 	 800.02 	
-279.0638 	-0.14556779 	 800.02 	
-280.05216 	-0.14607769 	 800.02 	
-281.10227 	-0.14658649 	 800.02 	
-282.00724 	-0.1470564 	 800.02 	
-283.04504 	-0.1475764 	 800.02 	
-284.0612 	-0.14807783 	 800.02 	
-285.05882 	-0.14857209 	 800.01 	
-285.96067 	-0.14907396 	 800.02 	
-287.05406 	-0.14958681 	 800.02 	
-288.09184 	-0.15008299 	 800.01 	
-288.99371 	-0.15054875 	 800.01 	
-290.06547 	-0.15111388 	 800.02 	
-291.05998 	-0.15158559 	 800.02 	
-291.98039 	-0.15205844 	 800.02 	
-293.02128 	-0.15256162 	 800.02 	
-294.02504 	-0.15305155 	 800.02 	
-295.04742 	-0.15356189 	 800.02 	
-296.05428 	-0.15408437 	 800.02 	
-296.97776 	-0.1545661 	 800.02 	
-298.06189 	-0.15508557 	 800.02 	
-299.06879 	-0.15557031 	 800.02 	
-300.03552 	-0.156076 	 800.02 	
-301.02696 	-0.15657115 	 800.01 	
-302.01225 	-0.15705798 	 800.01 	
-303.08708 	-0.15755923 	 800.01 	
-303.93026 	-0.15802801 	 800.01 	
-305.06686 	-0.15857631 	 800.01 	
-306.05217 	-0.15906557 	 800.01 	
-307.01278 	-0.15956636 	 800.01 	
-308.02901 	-0.16005381 	 800.02 	
-309.00814 	-0.16056367 	 800.02 	
-309.99344 	-0.16103698 	 800.01 	
-311.0467 	-0.16155224 	 800.02 	
-312.03201 	-0.16202514 	 800.01 	
-313.00497 	-0.1625441 	 800.02 	
-314.00266 	-0.16303084 	 800.02 	
-314.99105 	-0.16351518 	 800.02 	
-316.00416 	-0.16404354 	 800.01 	
-317.02038 	-0.16452086 	 800.01 	
-317.97788 	-0.16499745 	 800.01 	
-319.06822 	-0.16549898 	 800.01 	
-319.99482 	-0.16597426 	 800.01 	
-320.98014 	-0.16646763 	 800.01 	
-322.00254 	-0.16696326 	 800.01 	
-323.0311 	-0.16748448 	 800.01 	
-323.99479 	-0.16796816 	 800.01 	
-325.011 	-0.16846382 	 800.01 	
-326.02411 	-0.16897176 	 800.01 	
-326.98778 	-0.16946579 	 800.01 	
-327.98857 	-0.16993866 	 800.01 	
-328.94919 	-0.17042091 	 800.01 	
-330.03949 	-0.1709375 	 800.02 	
-330.96613 	-0.17141147 	 800.01 	
-332.02556 	-0.17195251 	 800.01 	
-333.00471 	-0.17240992 	 800.01 	
-333.99622 	-0.17289452 	 800.01 	
-334.9568 	-0.17336304 	 800.02 	
-336.01316 	-0.17389117 	 800.01 	
-336.94596 	-0.17436506 	 800.01 	
-338.00848 	-0.17487272 	 800.01 	
-338.94747 	-0.17535292 	 800.01 	
-339.96368 	-0.17585456 	 800.01 	
-341.05094 	-0.17632993 	 800.02 	
-341.98988 	-0.17683493 	 800.02 	
-342.97522 	-0.17732012 	 800.01 	
-343.9482 	-0.17779314 	 800.01 	
-344.97986 	-0.17831443 	 800.02 	
-345.925 	-0.17879779 	 800.02 	
-346.93502 	-0.17928533 	 800.02 	
-348.01299 	-0.17981011 	 800.02 	
-348.98289 	-0.18026692 	 800.02 	
-349.9651 	-0.18075488 	 800.01 	
-350.99672 	-0.18124415 	 800.01 	
-351.9913 	-0.18173819 	 800.01 	
-353.00136 	-0.18223163 	 800.01 	
-353.93107 	-0.18270075 	 800.01 	
-354.96578 	-0.18323155 	 800.01 	
-355.92949 	-0.18369597 	 800.01 	
-356.96421 	-0.18418627 	 800.01 	
-357.97114 	-0.18467526 	 800.01 	
-358.91631 	-0.18515544 	 800.01 	
-360.01285 	-0.18567938 	 800.01 	
-360.98887 	-0.18614835 	 800.02 	
-361.92785 	-0.18662784 	 800.02 	
-363.01201 	-0.1871072 	 800.02 	
-363.93245 	-0.18760912 	 800.02 	
-364.96101 	-0.18809354 	 800.02 	
-365.96794 	-0.18858177 	 800.02 	
-366.9934 	-0.18906918 	 800.02 	
-367.91696 	-0.18954007 	 800.02 	
-368.94858 	-0.190023 	 800.02 	
-369.98021 	-0.1905389 	 800.03 	
-370.91615 	-0.19100779 	 800.03 	
-371.94469 	-0.19149826 	 800.03 	
-372.94542 	-0.19196875 	 800.02 	
-373.90917 	-0.19242454 	 800.02 	
-374.96856 	-0.19296681 	 800.02 	
-375.88902 	-0.1934271 	 800.02 	
-377.00099 	-0.19393171 	 800.02 	
-377.85659 	-0.19436839 	 800.02 	
-378.9716 	-0.19488511 	 800.02 	
-379.9353 	-0.19538185 	 800.02 	
-380.94223 	-0.19584014 	 800.02 	
-381.88432 	-0.19632481 	 800.02 	
-382.9623 	-0.19683396 	 800.02 	
-383.94145 	-0.19731865 	 800.02 	
-384.92981 	-0.19779865 	 800.02 	
-385.91207 	-0.1982822 	 800.02 	
-386.91282 	-0.1987543 	 800.02 	
-387.963 	-0.19925829 	 800.02 	
-388.85255 	-0.19969582 	 800.02 	
-389.9676 	-0.20021781 	 800.02 	
-390.9375 	-0.20072013 	 800.02 	
-391.9444 	-0.20118701 	 800.03 	
-392.939 	-0.20166717 	 800.02 	
-393.90267 	-0.20211195 	 800.02 	
-394.90653 	-0.20262442 	 800.02 	
-395.89496 	-0.20308571 	 800.02 	
-396.89263 	-0.20356413 	 800.02 	
-397.96133 	-0.20408024 	 800.02 	
-398.9034 	-0.2045334 	 800.03 	
-399.93813 	-0.20504157 	 800.02 	
-400.90491 	-0.20553258 	 800.02 	
-401.86244 	-0.2059952 	 800.02 	
-402.94659 	-0.20648465 	 800.02 	
-403.88251 	-0.2069704 	 800.02 	
-404.95737 	-0.20743572 	 800.02 	
-405.91491 	-0.20789276 	 800.02 	
-406.93422 	-0.20841844 	 800.02 	
-407.89168 	-0.20887962 	 800.02 	
-408.92957 	-0.20936794 	 800.02 	
-409.90255 	-0.2098281 	 800.02 	
-410.8786 	-0.21031469 	 800.02 	
-411.8855 	-0.21080265 	 800.02 	
-412.94806 	-0.21126503 	 800.02 	
-413.89012 	-0.21173456 	 800.02 	
-414.91559 	-0.21222207 	 800.03 	
-415.90088 	-0.21271317 	 800.03 	
-416.88623 	-0.21316664 	 800.03 	
-417.89313 	-0.21365341 	 800.03 	
-418.84141 	-0.2141446 	 800.03 	
-419.96261 	-0.21463404 	 800.03 	
-420.90776 	-0.21507935 	 800.03 	
-421.87148 	-0.21555667 	 800.03 	
-422.89386 	-0.21604107 	 800.03 	
-423.8761 	-0.2165358 	 800.03 	
-424.92936 	-0.21699076 	 800.03 	
-425.88072 	-0.21748015 	 800.02 	
-426.85984 	-0.21797164 	 800.02 	
-427.91927 	-0.21847294 	 800.02 	
-428.87986 	-0.21891646 	 800.02 	
-429.84664 	-0.21938531 	 800.03 	
-430.88755 	-0.21990052 	 800.02 	
-431.84819 	-0.2203514 	 800.02 	
-432.88912 	-0.22082149 	 800.02 	
-433.89604 	-0.22129036 	 800.02 	
-434.85974 	-0.22178041 	 800.02 	
-435.90991 	-0.2222237 	 800.02 	
-436.86741 	-0.22269915 	 800.02 	
-437.87744 	-0.22317734 	 800.02 	
-438.85657 	-0.22365265 	 800.03 	
-439.86662 	-0.22411974 	 800.03 	
-440.88279 	-0.22462089 	 800.03 	
-441.87118 	-0.22508055 	 800.03 	
-442.8843 	-0.22555867 	 800.02 	
-443.83567 	-0.22600757 	 800.03 	
-444.88275 	-0.22652399 	 800.03 	
-445.88037 	-0.22699514 	 800.03 	
-446.84102 	-0.22744706 	 800.03 	
-447.88503 	-0.22794042 	 800.03 	
-448.82711 	-0.22838901 	 800.03 	
-449.87109 	-0.22886372 	 800.03 	
-450.87805 	-0.22935438 	 800.04 	
-451.85099 	-0.22979601 	 800.04 	
-452.88879 	-0.23029449 	 800.04 	
-453.89268 	-0.23077722 	 800.03 	
-454.83164 	-0.2312205 	 800.03 	
-455.854 	-0.23169665 	 800.03 	
-456.86405 	-0.23216075 	 800.03 	
-457.86174 	-0.23267688 	 800.03 	
-458.80684 	-0.23310628 	 800.03 	
-459.85089 	-0.23358173 	 800.03 	
-460.92885 	-0.2340768 	 800.03 	
-461.81219 	-0.23448905 	 800.03 	
-462.80064 	-0.23497314 	 800.03 	
-463.82302 	-0.2354914 	 800.03 	
-464.82994 	-0.23596152 	 800.03 	
-465.88633 	-0.23640221 	 800.03 	
-466.81295 	-0.23689299 	 800.03 	
-467.823 	-0.2373701 	 800.03 	
-468.87929 	-0.23783452 	 800.03 	
-469.8399 	-0.23828681 	 800.03 	
-470.79132 	-0.23875845 	 800.03 	
-471.84452 	-0.23921137 	 800.03 	
-472.86692 	-0.23971068 	 800.03 	
-473.87693 	-0.24014313 	 800.03 	
-474.80975 	-0.2406425 	 800.03 	
-475.82904 	-0.24110469 	 800.03 	
-476.81744 	-0.24155685 	 800.03 	
-477.84294 	-0.24201349 	 800.03 	
-478.87146 	-0.24250834 	 800.03 	
-479.83207 	-0.24298259 	 800.03 	
-480.84829 	-0.24345603 	 800.03 	
-481.79964 	-0.24389124 	 800.03 	
-482.87138 	-0.24439406 	 800.03 	
-483.80113 	-0.24481081 	 800.03 	
-484.83895 	-0.24529998 	 800.03 	
-485.87061 	-0.24579564 	 800.03 	
-486.74778 	-0.24622966 	 800.03 	
-487.87828 	-0.24674349 	 800.03 	
-488.8111 	-0.24715627 	 800.03 	
-489.82416 	-0.24762813 	 800.03 	
-490.82804 	-0.24810739 	 800.03 	
-491.7547 	-0.24857287 	 800.03 	
-492.82033 	-0.24905967 	 800.04 	
-493.8056 	-0.24949062 	 800.04 	
-494.80328 	-0.24997945 	 800.04 	
-495.79787 	-0.25042738 	 800.03 	
-496.72451 	-0.25088848 	 800.03 	
-497.77163 	-0.25136093 	 800.03 	
-498.82794 	-0.25184262 	 800.04 	
-499.78237 	-0.25227692 	 800.04 	
-500.76459 	-0.25275177 	 800.04 	
-501.78078 	-0.25322138 	 800.04 	
-502.86186 	-0.25371315 	 800.04 	
-503.77614 	-0.2541326 	 800.04 	
-504.75836 	-0.25457189 	 800.04 	
-505.78691 	-0.25507726 	 800.04 	
-506.81546 	-0.25554911 	 800.04 	
-507.7884 	-0.25598247 	 800.04 	
-508.8447 	-0.25645736 	 800.04 	
-509.74355 	-0.25691223 	 800.04 	
-510.83074 	-0.25737885 	 800.04 	
-511.73877 	-0.25783649 	 800.04 	
-512.77352 	-0.25830528 	 800.04 	
-513.79586 	-0.25878673 	 800.04 	
-514.76261 	-0.25924559 	 800.04 	
-515.79734 	-0.25969765 	 800.04 	
-516.74862 	-0.26013761 	 800.04 	
-517.771 	-0.26061813 	 800.03 	
-518.84277 	-0.26107782 	 800.04 	
-519.77551 	-0.2615539 	 800.04 	
-520.77629 	-0.26197975 	 800.04 	
-521.76766 	-0.26243499 	 800.04 	
-522.74377 	-0.26291316 	 800.04 	
-523.76302 	-0.26335705 	 800.03 	
-524.78849 	-0.26384567 	 800.03 	
-525.7583 	-0.26428907 	 800.03 	
-526.74974 	-0.26476324 	 800.03 	
-527.78446 	-0.26522741 	 800.03 	
-528.80373 	-0.26566468 	 800.04 	
-529.73964 	-0.26609943 	 800.04 	
-530.78977 	-0.26658117 	 800.04 	
-531.72257 	-0.2670256 	 800.04 	
-532.78501 	-0.26752751 	 800.03 	
-533.77651 	-0.26800059 	 800.04 	
-534.77724 	-0.2684055 	 800.04 	
-535.75321 	-0.26888156 	 800.04 	
-536.76636 	-0.26935728 	 800.04 	
-537.74542 	-0.26978413 	 800.03 	
-538.76158 	-0.27025184 	 800.04 	
-539.72841 	-0.27068102 	 800.04 	
-540.80629 	-0.27118952 	 800.04 	
-541.73602 	-0.27159444 	 800.04 	
-542.72439 	-0.2720736 	 800.03 	
-543.74363 	-0.27252813 	 800.03 	
-544.77216 	-0.27301428 	 800.03 	
-545.74198 	-0.27346794 	 800.03 	
-546.66248 	-0.2738981 	 800.03 	
-547.77437 	-0.2743744 	 800.04 	
-548.75655 	-0.27479177 	 800.03 	
-549.677 	-0.2752462 	 800.03 	
-550.05379 	-0.27550625 	 800.03 	
-549.29401 	-0.27533229 	 800.03 	
-548.26237 	-0.2749043 	 800.04 	
-547.23694 	-0.27447914 	 800.03 	
-546.28566 	-0.27407979 	 800.03 	
-545.22624 	-0.27362166 	 800.04 	
-544.26253 	-0.27316587 	 800.04 	
-543.22782 	-0.27276159 	 800.03 	
-542.29504 	-0.27236678 	 800.03 	
-541.19552 	-0.27187171 	 800.03 	
-540.20093 	-0.27144833 	 800.03 	
-539.25271 	-0.27105733 	 800.03 	
-538.21798 	-0.27055916 	 800.03 	
-537.25747 	-0.27016957 	 800.04 	
-536.27834 	-0.26974232 	 800.04 	
-535.26524 	-0.26930924 	 800.03 	
-534.25838 	-0.26885087 	 800.03 	
-533.23901 	-0.26843 	 800.03 	
-532.22288 	-0.26799692 	 800.03 	
-531.27468 	-0.26755919 	 800.03 	
-530.24304 	-0.26708564 	 800.03 	
-529.26699 	-0.26668132 	 800.03 	
-528.25087 	-0.26624003 	 800.02 	
-527.25014 	-0.26582394 	 800.03 	
-526.25557 	-0.26532976 	 800.03 	
-525.22087 	-0.26490347 	 800.02 	
-524.27574 	-0.26450028 	 800.02 	
-523.21946 	-0.26400427 	 800.02 	
-522.22485 	-0.26359053 	 800.02 	
-521.27665 	-0.26315262 	 800.03 	
-520.22648 	-0.26270095 	 800.03 	
-519.25356 	-0.26225792 	 800.03 	
-518.27134 	-0.26182089 	 800.03 	
-517.19961 	-0.26136855 	 800.03 	
-516.22974 	-0.26091617 	 800.03 	
-515.23212 	-0.26050195 	 800.03 	
-514.2901 	-0.26006898 	 800.03 	
-513.23991 	-0.25959333 	 800.03 	
-512.23299 	-0.25914711 	 800.03 	
-511.28785 	-0.25871516 	 800.03 	
-510.24079 	-0.25827094 	 800.03 	
-509.24315 	-0.25783932 	 800.03 	
-508.23932 	-0.25735473 	 800.03 	
-507.2232 	-0.25692552 	 800.03 	
-506.28729 	-0.2564717 	 800.03 	
-505.21552 	-0.25603373 	 800.03 	
-504.23948 	-0.2555917 	 800.03 	
-503.23562 	-0.25511876 	 800.02 	
-502.20396 	-0.25471768 	 800.02 	
-501.26497 	-0.2542422 	 800.02 	
-500.23022 	-0.25379763 	 800.02 	
-499.23568 	-0.25333743 	 800.02 	
-498.24416 	-0.2528907 	 800.02 	
-497.23417 	-0.25245112 	 800.02 	
-496.22412 	-0.25198031 	 800.02 	
-495.22953 	-0.25154672 	 800.02 	
-494.2442 	-0.25112036 	 800.02 	
-493.22496 	-0.25064187 	 800.02 	
-492.21183 	-0.25017827 	 800.02 	
-491.24198 	-0.24975848 	 800.02 	
-490.2597 	-0.24929815 	 800.02 	
-489.2157 	-0.24884705 	 800.03 	
-488.20878 	-0.24839236 	 800.02 	
-487.22961 	-0.24795943 	 800.02 	
-486.23507 	-0.24751274 	 800.02 	
-485.22506 	-0.24702918 	 800.03 	
-484.27372 	-0.24660801 	 800.03 	
-483.27602 	-0.24615927 	 800.03 	
-482.2135 	-0.24568161 	 800.03 	
-481.23438 	-0.24522827 	 800.03 	
-480.23358 	-0.24477405 	 800.03 	
-479.25759 	-0.24434193 	 800.03 	
-478.26298 	-0.24388722 	 800.03 	
-477.26839 	-0.24339535 	 800.03 	
-476.23676 	-0.24296122 	 800.03 	
-475.22054 	-0.24248668 	 800.03 	
-474.22595 	-0.24207073 	 800.02 	
-473.25918 	-0.2415893 	 800.02 	
-472.18433 	-0.24113218 	 800.03 	
-471.2453 	-0.24068555 	 800.03 	
-470.21678 	-0.24022465 	 800.03 	
-469.24996 	-0.2397913 	 800.03 	
-468.21525 	-0.23930341 	 800.03 	
-467.21141 	-0.23885948 	 800.03 	
-466.24152 	-0.23840059 	 800.03 	
-465.28088 	-0.2379484 	 800.03 	
-464.21527 	-0.23752195 	 800.03 	
-463.21145 	-0.23698961 	 800.03 	
-462.21995 	-0.23656392 	 800.03 	
-461.29333 	-0.23613375 	 800.03 	
-460.14738 	-0.23563733 	 800.03 	
-459.21767 	-0.23520895 	 800.03 	
-458.26326 	-0.23473284 	 800.03 	
-457.2038 	-0.23429218 	 800.03 	
-456.29264 	-0.23385499 	 800.03 	
-455.18685 	-0.23334532 	 800.02 	
-454.21385 	-0.23289781 	 800.03 	
-453.2533 	-0.23247467 	 800.03 	
-452.2062 	-0.2319944 	 800.03 	
-451.26412 	-0.23152409 	 800.03 	
-450.18304 	-0.23104192 	 800.03 	
-449.20392 	-0.23062435 	 800.03 	
-448.30202 	-0.23015215 	 800.03 	
-447.24259 	-0.22971715 	 800.03 	
-446.25724 	-0.22925329 	 800.03 	
-445.19472 	-0.2287223 	 800.02 	
-444.26809 	-0.22831559 	 800.02 	
-443.2797 	-0.227868 	 800.02 	
-442.23258 	-0.22738335 	 800.02 	
-441.21948 	-0.2269311 	 800.02 	
-440.20636 	-0.22644251 	 800.03 	
-439.28282 	-0.22603377 	 800.03 	
-438.2172 	-0.22554855 	 800.03 	
-437.24733 	-0.2250693 	 800.02 	
-436.24967 	-0.22462728 	 800.02 	
-435.21183 	-0.22414813 	 800.03 	
-434.24506 	-0.22370202 	 800.03 	
-433.21651 	-0.22320526 	 800.03 	
-432.22498 	-0.22277044 	 800.02 	
-431.22732 	-0.22231429 	 800.02 	
-430.18333 	-0.221813 	 800.02 	
-429.27216 	-0.22139576 	 800.03 	
-428.23122 	-0.22091137 	 800.03 	
-427.21812 	-0.2204497 	 800.03 	
-426.30076 	-0.21999645 	 800.03 	
-425.18264 	-0.21951815 	 800.02 	
-424.19733 	-0.21901935 	 800.02 	
-423.27067 	-0.2185743 	 800.02 	
-422.20817 	-0.21812647 	 800.03 	
-421.26609 	-0.21766087 	 800.03 	
-420.15106 	-0.21715422 	 800.02 	
-419.25838 	-0.21671658 	 800.03 	
-418.28853 	-0.21626675 	 800.03 	
-417.21364 	-0.21579708 	 800.03 	
-416.2345 	-0.21528883 	 800.03 	
-415.23993 	-0.214845 	 800.02 	
-414.24532 	-0.21440777 	 800.02 	
-413.20441 	-0.21391864 	 800.02 	
-412.24379 	-0.21344954 	 800.03 	
-411.21527 	-0.21300263 	 800.03 	
-410.22685 	-0.21252785 	 800.03 	
-409.17668 	-0.21203104 	 800.03 	
-408.23769 	-0.21158454 	 800.03 	
-407.19989 	-0.21111325 	 800.02 	
-406.30721 	-0.2106517 	 800.02 	
-405.1952 	-0.21018785 	 800.02 	
-404.2253 	-0.20972943 	 800.02 	
-403.21532 	-0.20921549 	 800.02 	
-402.23307 	-0.20876119 	 800.02 	
-401.25085 	-0.20832834 	 800.02 	
-400.23465 	-0.20785022 	 800.02 	
-399.25551 	-0.20739661 	 800.03 	
-398.23005 	-0.20689489 	 800.03 	
-397.24167 	-0.20642707 	 800.02 	
-396.22852 	-0.20596216 	 800.02 	
-395.20305 	-0.20547481 	 800.02 	
-394.2579 	-0.20501606 	 800.02 	
-393.28184 	-0.20454428 	 800.02 	
-392.21003 	-0.20406977 	 800.02 	
-391.22781 	-0.20362687 	 800.02 	
-390.23941 	-0.2031179 	 800.02 	
-389.19542 	-0.2026338 	 800.02 	
-388.25338 	-0.20216918 	 800.02 	
-387.24641 	-0.20171231 	 800.02 	
-386.27039 	-0.20126896 	 800.02 	
-385.19855 	-0.20074765 	 800.01 	
-384.20399 	-0.20028302 	 800.01 	
-383.27733 	-0.19982585 	 800.02 	
-382.21173 	-0.19936695 	 800.01 	
-381.21714 	-0.19885843 	 800.01 	
-380.25347 	-0.19839549 	 800.01 	
-379.23418 	-0.19791918 	 800.01 	
-378.26432 	-0.19745468 	 800.01 	
-377.22339 	-0.19697337 	 800.02 	
-376.24117 	-0.19649445 	 800.02 	
-375.2126 	-0.19599323 	 800.01 	
-374.26126 	-0.19557878 	 800.01 	
-373.27596 	-0.19509385 	 800.01 	
-372.17943 	-0.19460916 	 800.01 	
-371.24355 	-0.19412348 	 800.01 	
-370.26129 	-0.19366293 	 800.01 	
-369.23584 	-0.19319896 	 800.01 	
-368.19803 	-0.1926785 	 800.01 	
-367.23433 	-0.19220411 	 800.02 	
-366.2305 	-0.1917506 	 800.02 	
-365.26371 	-0.19126971 	 800.01 	
-364.24445 	-0.19082369 	 800.02 	
-363.23747 	-0.19030813 	 800.02 	
-362.22439 	-0.1898659 	 800.01 	
-361.26376 	-0.18939876 	 800.01 	
-360.25066 	-0.18888757 	 800.01 	
-359.28079 	-0.1883955 	 800.02 	
-358.26148 	-0.18794779 	 800.01 	
-357.23294 	-0.18747297 	 800.01 	
-356.25689 	-0.18701208 	 800.01 	
-355.19436 	-0.1864965 	 800.01 	
-354.28934 	-0.18602706 	 800.01 	
-353.21136 	-0.18555215 	 800.01 	
-352.25387 	-0.18505695 	 800.01 	
-351.21603 	-0.18460845 	 800.01 	
-350.33885 	-0.18410906 	 800.01 	
-349.21451 	-0.18365454 	 800.01 	
-348.26009 	-0.18316978 	 800.01 	
-347.24388 	-0.18267119 	 800.01 	
-346.19681 	-0.1822003 	 800.01 	
-345.27018 	-0.18172324 	 800.01 	
-344.2694 	-0.18126781 	 800.01 	
-343.25012 	-0.18077051 	 800.01 	
-342.20614 	-0.18023477 	 800.01 	
-341.23627 	-0.17977203 	 800.01 	
-340.26639 	-0.17933641 	 800.01 	
-339.23165 	-0.17885101 	 800.01 	
-338.26487 	-0.17836762 	 800.01 	
-337.24247 	-0.17784491 	 800.01 	
-336.21703 	-0.17739949 	 800.01 	
-335.30275 	-0.17693153 	 800.01 	
-334.23094 	-0.17642555 	 800.01 	
-333.25488 	-0.17593944 	 800.01 	
-332.25105 	-0.17545719 	 800.01 	
-331.25028 	-0.17499519 	 800.01 	
-330.28043 	-0.1745056 	 800.01 	
-329.1592 	-0.17397357 	 800.02 	
-328.25729 	-0.17353162 	 800.01 	
-327.22255 	-0.17304162 	 800.01 	
-326.28049 	-0.17259379 	 800.01 	
-325.22104 	-0.17207797 	 800.01 	
-324.23572 	-0.17159332 	 800.01 	
-323.24114 	-0.17109516 	 800.01 	
-322.23725 	-0.17064531 	 800.02 	
-321.26434 	-0.17018073 	 800.01 	
-320.20179 	-0.1696401 	 800.02 	
-319.30913 	-0.16918036 	 800.01 	
-318.27751 	-0.16872385 	 800.01 	
-317.25203 	-0.16820681 	 800.01 	
-316.28522 	-0.16774215 	 800.01 	
-315.23818 	-0.16722469 	 800.01 	
-314.27444 	-0.16676469 	 800.01 	
-313.28604 	-0.16629171 	 800.02 	
-312.21424 	-0.16576849 	 800.01 	
-311.2413 	-0.16528817 	 800.01 	
-310.26216 	-0.16481641 	 800.01 	
-309.27376 	-0.16434996 	 800.01 	
-308.29152 	-0.16383757 	 800.01 	
-307.25681 	-0.1633441 	 800.01 	
-306.30236 	-0.16286475 	 800.01 	
-305.17499 	-0.16236228 	 800.01 	
-304.23914 	-0.16188975 	 800.01 	
-303.27547 	-0.16141303 	 800.01 	
-302.24699 	-0.16090349 	 800.01 	
-301.23698 	-0.16043378 	 800.01 	
-300.29191 	-0.15993411 	 800.01 	
-299.20465 	-0.15944861 	 800.01 	
-298.21942 	-0.15894413 	 800.01 	
-297.21562 	-0.15843211 	 800.01 	
-296.23958 	-0.15798238 	 800.01 	
-295.27907 	-0.15750047 	 800.01 	
-294.2042 	-0.15700186 	 800.01 	
-293.24054 	-0.1564867 	 800.01 	
-292.24292 	-0.15601443 	 800.01 	
-291.22679 	-0.15553824 	 800.01 	
-290.25387 	-0.15503365 	 800.01 	
-289.2408 	-0.15453576 	 800.01 	
-288.25859 	-0.15401496 	 800.01 	
-287.26408 	-0.1535544 	 800.02 	
-286.26337 	-0.15307522 	 800.02 	
-285.25336 	-0.1525512 	 800.02 	
-284.26192 	-0.15207523 	 800.02 	
-283.2427 	-0.15157848 	 800.02 	
-282.2358 	-0.15108303 	 800.01 	
-281.23199 	-0.15062241 	 800.02 	
-280.3054 	-0.15011143 	 800.02 	
-279.21204 	-0.1496074 	 800.01 	
-278.31018 	-0.1491576 	 800.01 	
-277.26931 	-0.14864544 	 800.01 	
-276.22845 	-0.1481755 	 800.01 	
-275.2926 	-0.1476642 	 800.01 	
-274.22394 	-0.14716781 	 800.02 	
-273.29734 	-0.14668044 	 800.02 	
-272.20707 	-0.14616394 	 800.01 	
-271.29901 	-0.14568362 	 800.02 	
-270.27976 	-0.14518545 	 800.02 	
-269.26052 	-0.14468314 	 800.02 	
-268.25057 	-0.14418668 	 800.01 	
-267.16644 	-0.14366734 	 800.01 	
-266.24296 	-0.1431783 	 800.02 	
-265.34418 	-0.1427484 	 800.02 	
-264.21991 	-0.14223119 	 800.02 	
-263.28094 	-0.14173998 	 800.02 	
-262.25553 	-0.14120629 	 800.01 	
-261.25482 	-0.14073557 	 800.02 	
-260.29118 	-0.14025199 	 800.02 	
-259.23177 	-0.13972851 	 800.02 	
-258.28048 	-0.13924194 	 800.01 	
-257.26123 	-0.13872262 	 800.01 	
-256.26052 	-0.13824442 	 800.02 	
-255.24746 	-0.13775938 	 800.02 	
-254.22205 	-0.13722204 	 800.02 	
-253.24915 	-0.1367311 	 800.02 	
-252.27002 	-0.13626236 	 800.02 	
-251.27861 	-0.13575769 	 800.01 	
-250.25627 	-0.13527353 	 800.01 	
-249.24009 	-0.13471662 	 800.01 	
-248.23012 	-0.13424721 	 800.01 	
-247.24792 	-0.13377314 	 800.01 	
-246.26267 	-0.13327333 	 800.02 	
-245.2959 	-0.13278636 	 800.02 	
-244.29523 	-0.13226483 	 800.02 	
-243.21421 	-0.13176986 	 800.01 	
-242.26599 	-0.13126412 	 800.01 	
-241.21584 	-0.1307584 	 800.02 	
-240.2831 	-0.13026082 	 800.02 	
-239.26697 	-0.12975289 	 800.02 	
-238.24461 	-0.12925581 	 800.02 	
-237.25934 	-0.12876544 	 800.02 	
-236.25863 	-0.12825963 	 800.02 	
-235.27338 	-0.12776895 	 800.02 	
-234.29427 	-0.12728171 	 800.01 	
-233.26888 	-0.12677352 	 800.01 	
-232.24652 	-0.12627073 	 800.01 	
-231.25818 	-0.12577208 	 800.01 	
-230.242 	-0.12524595 	 800.01 	
-229.2876 	-0.12475063 	 800.01 	
-228.28074 	-0.1242642 	 800.01 	
-227.24913 	-0.12374207 	 800.01 	
-226.23605 	-0.12324036 	 800.01 	
-225.26623 	-0.1227619 	 800.01 	
-224.32111 	-0.12223416 	 800.02 	
-223.25246 	-0.12175764 	 800.02 	
-222.22394 	-0.12121267 	 800.02 	
-221.27883 	-0.1207653 	 800.02 	
-220.25959 	-0.12025331 	 800.02 	
-219.28975 	-0.11972333 	 800.01 	
-218.27979 	-0.11924555 	 800.02 	
-217.23273 	-0.11868896 	 800.02 	
-216.22894 	-0.11818407 	 800.01 	
-215.29618 	-0.11770977 	 800.01 	
-214.26457 	-0.11719442 	 800.02 	
-213.2762 	-0.11670824 	 800.02 	
-212.28167 	-0.11622669 	 800.02 	
-211.30878 	-0.11570142 	 800.02 	
-210.23085 	-0.11518043 	 800.02 	
-209.31043 	-0.11467965 	 800.02 	
-208.22942 	-0.11417735 	 800.02 	
-207.27194 	-0.11366204 	 800.02 	
-206.29285 	-0.1131529 	 800.03 	
-205.25818 	-0.11262664 	 800.03 	
-204.24817 	-0.11214159 	 800.03 	
-203.28763 	-0.11166039 	 800.02 	
-202.30853 	-0.11113888 	 800.02 	
-201.19353 	-0.11061053 	 800.02 	
-200.30402 	-0.11012716 	 800.02 	
-199.29096 	-0.10960456 	 800.02 	
-198.29332 	-0.10910109 	 800.02 	
-197.23394 	-0.10856787 	 800.02 	
-196.28572 	-0.10807084 	 800.02 	
-195.33443 	-0.10759853 	 800.02 	
-194.29356 	-0.10705864 	 800.01 	
-193.20947 	-0.10653442 	 800.02 	
-192.34156 	-0.10603242 	 800.02 	
-191.27289 	-0.10553102 	 800.02 	
-190.27527 	-0.10503547 	 800.02 	
-189.21278 	-0.10447579 	 800.01 	
-188.2862 	-0.10398892 	 800.02 	
-187.30711 	-0.1035078 	 800.01 	
-186.26933 	-0.10298553 	 800.02 	
-185.27481 	-0.10246379 	 800.02 	
-184.29571 	-0.10197013 	 800.02 	
-183.21159 	-0.10144713 	 800.01 	
-182.30046 	-0.10092837 	 800.01 	
-181.21944 	-0.1004129 	 800.02 	
-180.28051 	-0.099916957 	 800.02 	
-179.24274 	-0.099375774 	 800.01 	
-178.27289 	-0.098903053 	 800.02 	
-177.2722 	-0.098367857 	 800.02 	
-176.34251 	-0.097864493 	 800.02 	
-175.2646 	-0.09736386 	 800.02 	
-174.23607 	-0.09678912 	 800.02 	
-173.29405 	-0.096302162 	 800.02 	
-172.25009 	-0.095806804 	 800.02 	
-171.25248 	-0.095269937 	 800.01 	
-170.27337 	-0.094784058 	 800.02 	
-169.28811 	-0.094257882 	 800.02 	
-168.21945 	-0.093726446 	 800.02 	
-167.32067 	-0.09322207 	 800.02 	
-166.28907 	-0.09273099 	 800.01 	
-165.24201 	-0.09221065 	 800.01 	
-164.30925 	-0.091673076 	 800.01 	
-163.27457 	-0.091165999 	 800.01 	
-162.25533 	-0.090654324 	 800.01 	
-161.29167 	-0.090141 	 800.01 	
-160.2539 	-0.089639641 	 800.01 	
-159.31187 	-0.089098426 	 800.01 	
-158.21233 	-0.088580836 	 800.01 	
-157.25486 	-0.088085107 	 800.01 	
-156.26341 	-0.087591295 	 800.01 	
-155.26578 	-0.08705052 	 800.01 	
-154.3423 	-0.086501953 	 800.01 	
-153.25818 	-0.085992838 	 800.01 	
-152.32234 	-0.085497512 	 800.01 	
-151.2722 	-0.0849659 	 800.01 	
-150.30865 	-0.084471307 	 800.01 	
-149.23703 	-0.08390845 	 800.01 	
-148.31364 	-0.083410108 	 800.01 	
-147.31922 	-0.08290905 	 800.01 	
-146.25687 	-0.082361849 	 800.01 	
-145.28714 	-0.081867343 	 800.01 	
-144.27728 	-0.081340471 	 800.01 	
-143.29832 	-0.0808027 	 800.01 	
-142.27611 	-0.080275563 	 800.01 	
-141.23536 	-0.079762061 	 800.01 	
-140.32741 	-0.079249712 	 800.01 	
-139.28358 	-0.078716554 	 800 	
-138.249 	-0.078173367 	 800 	
-137.30091 	-0.077660468 	 800 	
-136.24782 	-0.077160901 	 800.01 	
-135.26884 	-0.07663371 	 800.01 	
-134.25898 	-0.076094569 	 800.01 	
-133.26147 	-0.075586466 	 800.01 	
-132.28558 	-0.075075076 	 800.01 	
-131.31897 	-0.074543818 	 800 	
-130.26894 	-0.074037277 	 800.01 	
-129.29924 	-0.073505487 	 800.01 	
-128.24613 	-0.072973269 	 800 	
-127.29806 	-0.07246204 	 800 	
-126.31597 	-0.071938542 	 800 	
-125.2567 	-0.071394324 	 800 	
-124.27464 	-0.070865624 	 800 	
-123.29255 	-0.070378769 	 800 	
-122.30432 	-0.069853175 	 800 	
-121.2852 	-0.069302587 	 800 	
-120.24754 	-0.068804724 	 800 	
-119.32724 	-0.068268105 	 800 	
-118.27723 	-0.067753892 	 800 	
-117.25502 	-0.067202946 	 800 	
-116.26986 	-0.066657061 	 799.99 	
-115.26927 	-0.066138266 	 800 	
-114.31191 	-0.065646708 	 800 	
-113.2866 	-0.065107213 	 800 	
-112.24895 	-0.064573755 	 800 	
-111.29777 	-0.064054783 	 800 	
-110.27864 	-0.063523171 	 799.99 	
-109.28423 	-0.062975368 	 799.99 	
-108.2651 	-0.062462539 	 800 	
-107.25524 	-0.061944065 	 800 	
-106.27936 	-0.061432516 	 800 	
-105.30654 	-0.060925637 	 800 	
-104.23184 	-0.060357806 	 800 	
-103.31154 	-0.059825838 	 800 	
-102.29549 	-0.059307154 	 800 	
-101.28562 	-0.058788093 	 800 	
-100.2695 	-0.058247673 	 800 	
-99.302811 	-0.05771498 	 800 	
-98.286672 	-0.057188019 	 800 	
-97.307612 	-0.05665069 	 800 	
-96.254435 	-0.056084422 	 800 	
-95.309347 	-0.055581654 	 800 	
-94.271606 	-0.055031915 	 800 	
-93.274017 	-0.054502666 	 800 	
-92.328924 	-0.054007788 	 800 	
-91.220144 	-0.053448283 	 800 	
-90.290497 	-0.052930893 	 800 	
-89.357768 	-0.052406418 	 800 	
-88.242813 	-0.051857016 	 800.01 	
-87.288462 	-0.051346017 	 800.01 	
-86.259979 	-0.050792425 	 800.01 	
-85.308721 	-0.050282492 	 800.01 	
-84.28332 	-0.049714022 	 800.01 	
-83.295003 	-0.049187914 	 800.01 	
-82.266525 	-0.048665924 	 800.01 	
-81.29981 	-0.048097863 	 800.01 	
-80.286779 	-0.047606252 	 800.02 	
-79.286092 	-0.047050973 	 800.02 	
-78.294683 	-0.046514923 	 800.02 	
-77.290919 	-0.045977096 	 800.02 	
-76.287145 	-0.045426239 	 800.02 	
-75.314252 	-0.044914655 	 800.02 	
-74.279594 	-0.044362466 	 800.02 	
-73.28818 	-0.043831173 	 800.02 	
-72.275146 	-0.043292247 	 800.02 	
-71.265198 	-0.042740785 	 800.02 	
-70.320114 	-0.042230372 	 800.02 	
-69.297806 	-0.041663287 	 800.02 	
-68.328013 	-0.041142541 	 800.02 	
-67.262482 	-0.040549198 	 800.02 	
-66.311213 	-0.040053378 	 800.02 	
-65.304352 	-0.039501526 	 800.02 	
-64.257342 	-0.03896354 	 800.02 	
-63.287552 	-0.0384282 	 800.02 	
-62.265249 	-0.03787855 	 800.02 	
-61.304718 	-0.037343991 	 800.02 	
-60.341092 	-0.036826955 	 800.02 	
-59.253943 	-0.036240643 	 800.02 	
-58.296497 	-0.035724068 	 800.02 	
-57.314345 	-0.035183882 	 800.02 	
-56.224101 	-0.034604866 	 800.02 	
-55.334606 	-0.034110023 	 800.02 	
-54.284506 	-0.033562822 	 800.02 	
-53.274563 	-0.033028193 	 800.02 	
-52.323298 	-0.032466257 	 800.02 	
-51.260843 	-0.03190741 	 800.02 	
-50.328136 	-0.031395079 	 800.02 	
-49.229144 	-0.030802303 	 800.02 	
-48.28771 	-0.030272946 	 800.02 	
-47.358627 	-0.029738654 	 800.02 	
-46.309161 	-0.029192164 	 800.02 	
-45.293653 	-0.02864294 	 800.02 	
-44.253446 	-0.028058756 	 800.02 	
-43.342885 	-0.02754818 	 800.02 	
-42.259466 	-0.026955603 	 800.02 	
-41.28717 	-0.026438638 	 800.02 	
-40.305611 	-0.025895788 	 800.02 	
-39.256144 	-0.025288987 	 800.02 	
-38.265327 	-0.024772093 	 800.02 	
-37.296117 	-0.024193273 	 800.02 	
-36.268257 	-0.023626437 	 800.02 	
-35.332998 	-0.023123089 	 800.02 	
-34.277359 	-0.022550394 	 800.02 	
-33.234072 	-0.021979492 	 800.02 	
-32.348198 	-0.021439003 	 800.02 	
-31.295647 	-0.020883992 	 800.02 	
-30.277049 	-0.020346343 	 800.02 	
-29.246104 	-0.019732565 	 800.02 	
-28.289238 	-0.019208676 	 800.02 	
-27.252121 	-0.018633868 	 800.02 	
-26.323039 	-0.018111009 	 800.02 	
-25.236533 	-0.017508949 	 800.02 	
-24.292013 	-0.016933626 	 800.02 	
-23.267243 	-0.016417709 	 800.01 	
-22.260991 	-0.015857708 	 800.02 	
-21.288693 	-0.015296411 	 800.01 	
-20.291702 	-0.014732451 	 800.02 	
-19.291624 	-0.014145624 	 800.01 	
-18.28846 	-0.013596203 	 800.02 	
-17.251342 	-0.013012288 	 800.02 	
-16.288304 	-0.012453867 	 800.02 	
-15.297486 	-0.01188767 	 800.02 	
-14.322102 	-0.011320798 	 800.02 	
-13.263377 	-0.010761313 	 800.02 	
-12.300339 	-0.010163584 	 800.02 	
-11.281742 	-0.0096086613 	 800.02 	
-10.27549 	-0.0090264146 	 800.02 	
-9.297019 	-0.0084648514 	 800.01 	
-8.309288 	-0.0078870787 	 800.02 	
-7.2351308 	-0.0072790352 	 800.02 	
-6.2936993 	-0.0067101752 	 800.02 	
-5.2936215 	-0.0061485944 	 800.02 	
-4.284284 	-0.0055508304 	 800.01 	
-3.3582859 	-0.0050150996 	 800.01 	
-2.1822684 	-0.004414868 	 800.01 	
-1.188364 	-0.003704685 	 800.01 	
-0.26234004 	-0.0031849147 	 800.01 	
 0.68905128 	-0.002635016 	 800.01 	
 1.6870943 	-0.0020615044 	 800.01 	
 2.6882273 	-0.001483927 	 800.01 	
 3.7557931 	-0.00085069033 	 800.01 	
 4.650324 	-0.00027721409 	 800.01 	
 5.7287045 	 0.00033830387 	 800.01 	
 6.6912134 	 0.00091289852 	 800.01 	
 7.6444527 	 0.0015075553 	 800.01 	
 8.721288 	 0.0021311157 	 800.01 	
 9.6420838 	 0.0027046808 	 800.01 	
 10.73746 	 0.0033193997 	 800.01 	
 11.724687 	 0.003894456 	 800.01 	
 12.628487 	 0.0045032096 	 800.01 	
 13.652795 	 0.0050953807 	 800 	
 14.709546 	 0.0056644363 	 800.01 	
 15.723038 	 0.0062751073 	 800.01 	
 16.849312 	 0.0069021829 	 800.01 	
 17.648057 	 0.0074701373 	 800 	
 18.768151 	 0.0080405776 	 800.01 	
 19.613244 	 0.0086026022 	 800 	
 20.805951 	 0.009224991 	 800.01 	
 21.57843 	 0.0097705044 	 800.01 	
 22.647541 	 0.010376808 	 800.01 	
 23.699657 	 0.011000688 	 800.01 	
 24.836747 	 0.011527098 	 800.01 	
 25.579875 	 0.01207112 	 800.01 	
 26.851377 	 0.012686017 	 800.01 	
 27.662481 	 0.013235117 	 800.01 	
 28.564735 	 0.013810564 	 800.01 	
 29.791435 	 0.014434372 	 800.01 	
 30.679787 	 0.014989047 	 800.01 	
 31.736534 	 0.015511195 	 800.02 	
 32.584719 	 0.016082169 	 800.01 	
 33.81605 	 0.016677429 	 800.01 	
 34.746117 	 0.017226458 	 800.01 	
 35.787417 	 0.017780422 	 800.01 	
 36.530543 	 0.018345465 	 800.02 	
 37.724795 	 0.018916474 	 800.02 	
 38.644046 	 0.019498383 	 800.02 	
 39.74869 	 0.020072517 	 800.02 	
 40.901232 	 0.0206502 	 800.02 	
 41.584101 	 0.021166597 	 800.02 	
 42.925125 	 0.02171346 	 800.02 	
 43.801117 	 0.022301086 	 800.01 	
 44.862501 	 0.022835343 	 800.01 	
 46.028946 	 0.023420022 	 800.01 	
 46.459989 	 0.023938763 	 800.01 	
 47.807195 	 0.024495674 	 800.01 	
 48.675458 	 0.025064978 	 800.02 	
 49.69199 	 0.025607686 	 800.02 	
 50.624905 	 0.026177274 	 800.01 	
 51.639225 	 0.026707093 	 800.01 	
 52.645816 	 0.027253885 	 800.01 	
 53.833032 	 0.027808345 	 800.02 	
 54.788667 	 0.028338979 	 800.02 	
 55.557508 	 0.028882361 	 800.02 	
 56.625843 	 0.029445913 	 800.01 	
 57.976704 	 0.030034499 	 800.01 	
 58.699225 	 0.030497775 	 800.02 	
 59.444894 	 0.030952884 	 800.02 	
 60.866783 	 0.031656658 	 800.02 	
 61.797722 	 0.032174156 	 800.02 	
 62.334976 	 0.032655044 	 800.02 	
 63.824781 	 0.033381009 	 800.02 	
 64.848351 	 0.033870386 	 800.02 	
 65.638804 	 0.034392357 	 800.02 	
 66.654645 	 0.034959459 	 800.02 	
 67.814069 	 0.03551495 	 800.01 	
 68.650833 	 0.036073176 	 800.02 	
 69.623459 	 0.036581299 	 800.02 	
 70.654744 	 0.037149821 	 800.01 	
 71.906802 	 0.03769711 	 800.01 	
 72.555216 	 0.038211839 	 800.01 	
 74.024958 	 0.038776313 	 800.01 	
 74.593084 	 0.039343486 	 800.01 	
 75.686134 	 0.039891449 	 800.01 	
 76.918121 	 0.04043256 	 800.01 	
 77.923167 	 0.040948816 	 800.01 	
 78.820134 	 0.041530156 	 800.01 	
 79.622935 	 0.042058272 	 800.01 	
 80.644953 	 0.042591995 	 800.01 	
 81.733363 	 0.043151073 	 800.01 	
 82.772374 	 0.043685899 	 800.01 	
 83.706401 	 0.044251971 	 800.01 	
 84.62499 	 0.044769576 	 800.01 	
 85.79985 	 0.045324605 	 800.01 	
 86.642787 	 0.045857335 	 800.01 	
 87.704956 	 0.046386053 	 800.01 	
 88.791819 	 0.046957843 	 800.01 	
 89.677989 	 0.047413343 	 800.01 	
 90.490041 	 0.047964572 	 800.01 	
 91.72821 	 0.048609544 	 800.01 	
 92.694656 	 0.049162941 	 800.01 	
 93.928182 	 0.049729724 	 800.01 	
 94.664597 	 0.050176809 	 800.01 	
 95.708237 	 0.050696614 	 800.01 	
 96.693207 	 0.051206264 	 800.01 	
 97.66891 	 0.051773827 	 800.01 	
 98.757329 	 0.05231501 	 800.01 	
 99.597173 	 0.05284664 	 800.01 	
 100.76133 	 0.053446161 	 800.01 	
 101.69717 	 0.053956592 	 800.01 	
 102.70097 	 0.054499763 	 800.01 	
 103.79278 	 0.055027733 	 800.02 	
 104.63905 	 0.055538875 	 800.01 	
 105.66755 	 0.056065706 	 800.01 	
 106.6698 	 0.056629081 	 800.01 	
 107.72456 	 0.05717701 	 800.01 	
 108.7376 	 0.057716911 	 800.01 	
 109.67191 	 0.058230075 	 800.01 	
 110.7699 	 0.058759648 	 800.01 	
 111.73046 	 0.059308641 	 800.01 	
 112.66321 	 0.059856533 	 800.01 	
 113.77664 	 0.060387382 	 800.02 	
 114.68005 	 0.060907436 	 800.02 	
 115.78731 	 0.061441196 	 800.02 	
 116.76021 	 0.061956954 	 800.02 	
 117.67598 	 0.06249018 	 800.02 	
 118.69212 	 0.063014426 	 800.02 	
 119.67121 	 0.063564199 	 800.02 	
 120.73215 	 0.06412729 	 800.01 	
 121.69579 	 0.064644928 	 800.02 	
 122.63317 	 0.065162426 	 800.02 	
 123.70336 	 0.065692779 	 800.01 	
 124.67009 	 0.066207007 	 800.01 	
 125.77889 	 0.066782101 	 800.01 	
 126.66994 	 0.067281453 	 800.01 	
 127.69536 	 0.067828316 	 800.01 	
 128.71152 	 0.068389452 	 800.01 	
 129.70295 	 0.06890972 	 800.01 	
 130.72219 	 0.069467166 	 800.02 	
 131.67965 	 0.069994749 	 800.01 	
 132.70815 	 0.070539763 	 800.01 	
 133.73975 	 0.071051436 	 800.01 	
 134.69258 	 0.0715787 	 800.01 	
 135.6979 	 0.072082704 	 800.01 	
 136.67082 	 0.072604426 	 800.01 	
 137.68387 	 0.073139109 	 800.01 	
 138.79884 	 0.073703475 	 800.01 	
 139.67138 	 0.074182804 	 800.01 	
 140.69524 	 0.074768157 	 800.01 	
 141.70057 	 0.075262221 	 800.01 	
 142.69202 	 0.075800597 	 800.01 	
 143.70661 	 0.076334356 	 800 	
 144.69497 	 0.076853131 	 800 	
 145.70648 	 0.077386074 	 800.01 	
 146.67012 	 0.077892069 	 800.01 	
 147.68627 	 0.078427283 	 800.01 	
 148.70859 	 0.07899545 	 800.01 	
 149.71084 	 0.079497717 	 800.01 	
 150.71308 	 0.080014221 	 800.01 	
 151.6659 	 0.080530402 	 800.01 	
 152.60329 	 0.08106047 	 800.01 	
 153.72118 	 0.081606906 	 800 	
 154.67216 	 0.082082965 	 800 	
 155.70959 	 0.082664805 	 800 	
 156.70377 	 0.083171257 	 800.01 	
 157.68564 	 0.083686838 	 800 	
 158.7493 	 0.084236115 	 800 	
 159.66633 	 0.084732556 	 800 	
 160.69757 	 0.085281194 	 800 	
 161.67171 	 0.085779554 	 800 	
 162.70297 	 0.086302449 	 800 	
 163.76201 	 0.086868947 	 800 	
 164.70063 	 0.087364678 	 800 	
 165.70256 	 0.087874364 	 800 	
 166.66896 	 0.088410113 	 800 	
 167.73881 	 0.08893361 	 800 	
 168.69287 	 0.089476637 	 800 	
 169.72259 	 0.08996019 	 800 	
 170.71679 	 0.09048983 	 800 	
 171.69091 	 0.091007862 	 800 	
 172.67894 	 0.091535514 	 800 	
 173.71793 	 0.092061959 	 800.01 	
 174.70285 	 0.092587446 	 800.01 	
 175.67391 	 0.093109773 	 800.01 	
 176.7561 	 0.0936245 	 800 	
 177.69472 	 0.094131878 	 800 	
 178.72135 	 0.094687368 	 800.01 	
 179.69394 	 0.095198367 	 800.01 	
 180.71747 	 0.095696406 	 800.01 	
 181.7024 	 0.096214046 	 800.01 	
 182.70432 	 0.096747879 	 800.01 	
 183.71552 	 0.097282419 	 800.01 	
 184.68656 	 0.097773072 	 800.01 	
 185.69773 	 0.098311838 	 800.01 	
 186.72437 	 0.09885657 	 800 	
 187.6707 	 0.099338526 	 800 	
 188.68806 	 0.099886524 	 800.01 	
 189.69307 	 0.10037956 	 800.01 	
 190.7058 	 0.10090586 	 800.01 	
 191.72317 	 0.10142197 	 800.01 	
 192.70656 	 0.10192853 	 800.01 	
 193.73626 	 0.10245718 	 800.01 	
 194.68879 	 0.10298402 	 800.01 	
 195.70922 	 0.10351242 	 800.01 	
 196.71116 	 0.10401752 	 800 	
 197.65905 	 0.10451179 	 800.01 	
 198.70418 	 0.10506111 	 800.01 	
 199.69067 	 0.10557012 	 800.01 	
 200.7389 	 0.10610338 	 800.01 	
 201.67135 	 0.10657852 	 800.02 	
 202.63467 	 0.10708884 	 800.01 	
 203.75086 	 0.10765367 	 800.01 	
 204.69102 	 0.10814422 	 800.02 	
 205.69449 	 0.10864481 	 800.02 	
 206.70257 	 0.10915911 	 800.02 	
 207.65354 	 0.10966635 	 800.02 	
 208.71106 	 0.11021427 	 800.02 	
 209.69754 	 0.11071089 	 800.02 	
 210.66088 	 0.11121685 	 800.02 	
 211.7307 	 0.11177074 	 800.03 	
 212.67552 	 0.11223757 	 800.02 	
 213.70521 	 0.112797 	 800.03 	
 214.68861 	 0.11329355 	 800.02 	
 215.68744 	 0.11377855 	 800.02 	
 216.6585 	 0.1143049 	 800.02 	
 217.69285 	 0.1148394 	 800.03 	
 218.68549 	 0.11536109 	 800.03 	
 219.71366 	 0.11585852 	 800.03 	
 220.68161 	 0.11636679 	 800.03 	
 221.73758 	 0.11689124 	 800.03 	
 222.7117 	 0.11736197 	 800.03 	
 223.69047 	 0.11789016 	 800.03 	
 224.65687 	 0.11841299 	 800.03 	
 225.6341 	 0.11890931 	 800.03 	
 226.74872 	 0.11947695 	 800.03 	
 227.68892 	 0.11994161 	 800.03 	
 228.66307 	 0.120435 	 800.03 	
 229.72367 	 0.12094806 	 800.03 	
 230.68545 	 0.12145334 	 800.03 	
 231.63794 	 0.12194056 	 800.03 	
 232.68618 	 0.12245514 	 800.03 	
 233.73596 	 0.12302984 	 800.03 	
 234.65145 	 0.12352042 	 800.03 	
 235.68115 	 0.12400646 	 800.03 	
 236.663 	 0.12452148 	 800.03 	
 237.69887 	 0.1250542 	 800.03 	
 238.69769 	 0.12556414 	 800.02 	
 239.70119 	 0.12604058 	 800.02 	
 240.67995 	 0.12652971 	 800.02 	
 241.70194 	 0.12704704 	 800.02 	
 242.67916 	 0.12755395 	 800.02 	
 243.65792 	 0.12803913 	 800.03 	
 244.69843 	 0.12856278 	 800.03 	
 245.66638 	 0.1290813 	 800.03 	
 246.72233 	 0.12959106 	 800.02 	
 247.67487 	 0.13009446 	 800.02 	
 248.69531 	 0.13062679 	 800.03 	
 249.69261 	 0.13113237 	 800.04 	
 250.69759 	 0.13163971 	 800.04 	
 251.66866 	 0.1321173 	 800.04 	
 252.65051 	 0.13262005 	 800.04 	
 253.74353 	 0.13319536 	 800.04 	
 254.70839 	 0.13367128 	 800.04 	
 255.67942 	 0.13417886 	 800.04 	
 256.71067 	 0.13471422 	 800.03 	
 257.68638 	 0.13517779 	 800.03 	
 258.65434 	 0.13570451 	 800.03 	
 259.71952 	 0.13621544 	 800.03 	
 260.69059 	 0.13674001 	 800.03 	
 261.70176 	 0.13722533 	 800.03 	
 262.64504 	 0.1377381 	 800.03 	
 263.70099 	 0.1382599 	 800.03 	
 264.65814 	 0.13871462 	 800.03 	
 265.70481 	 0.13922725 	 800.03 	
 266.68512 	 0.13975498 	 800.03 	
 267.67934 	 0.14025972 	 800.03 	
 268.69358 	 0.14075166 	 800.03 	
 269.66929 	 0.14124267 	 800.03 	
 270.67273 	 0.14175637 	 800.03 	
 271.68699 	 0.14226936 	 800.03 	
 272.65651 	 0.14278422 	 800.03 	
 273.71556 	 0.14329139 	 800.03 	
 274.68815 	 0.14377394 	 800.03 	
 275.72251 	 0.14428114 	 800.03 	
 276.64569 	 0.14479303 	 800.03 	
 277.63987 	 0.1452844 	 800.03 	
 278.65877 	 0.14580427 	 800.03 	
 279.62984 	 0.14630374 	 800.02 	
 280.72591 	 0.14682272 	 800.02 	
 281.65218 	 0.14730016 	 800.02 	
 282.685 	 0.14781891 	 800.02 	
 283.67147 	 0.14831793 	 800.02 	
 284.66876 	 0.14880103 	 800.02 	
 285.68614 	 0.14932751 	 800.02 	
 286.67877 	 0.14982559 	 800.02 	
 287.67916 	 0.15031577 	 800.02 	
 288.6672 	 0.15081875 	 800.01 	
 289.65369 	 0.15129967 	 800.01 	
 290.68801 	 0.15180357 	 800.01 	
 291.6637 	 0.15230115 	 800.02 	
 292.67487 	 0.15278825 	 800.02 	
 293.67678 	 0.15330213 	 800.02 	
 294.6849 	 0.15379992 	 800.02 	
 295.68221 	 0.15431181 	 800.02 	
 296.66713 	 0.15482156 	 800.02 	
 297.68911 	 0.1552951 	 800.02 	
 298.67712 	 0.15580461 	 800.02 	
 299.67749 	 0.15630619 	 800.01 	
 300.63621 	 0.15679727 	 800.02 	
 301.67497 	 0.1572788 	 800.02 	
 302.7054 	 0.15781 	 800.02 	
 303.6757 	 0.15829707 	 800.02 	
 304.68298 	 0.15877405 	 800.02 	
 305.6764 	 0.15929326 	 800.01 	
 306.66055 	 0.15979091 	 800.01 	
 307.70333 	 0.16030063 	 800.01 	
 308.64583 	 0.16077125 	 800.01 	
 309.67318 	 0.1612874 	 800.02 	
 310.68355 	 0.16181313 	 800.01 	
 311.69391 	 0.16228415 	 800.01 	
 312.74286 	 0.16276635 	 800.01 	
 313.67303 	 0.16327952 	 800.01 	
 314.64949 	 0.16374585 	 800.01 	
 315.71539 	 0.16427823 	 800.01 	
 316.69645 	 0.16474594 	 800.01 	
 317.66828 	 0.16523926 	 800.01 	
 318.6694 	 0.16572437 	 800.01 	
 319.65357 	 0.16622429 	 800.01 	
 320.65157 	 0.16671864 	 800.01 	
 321.67893 	 0.16721732 	 800.01 	
 322.65076 	 0.16769501 	 800.01 	
 323.69507 	 0.16820583 	 800 	
 324.64373 	 0.16870142 	 800 	
 325.6572 	 0.16919871 	 800.01 	
 326.67063 	 0.16968222 	 800.01 	
 327.66252 	 0.17017874 	 800 	
 328.66213 	 0.17069596 	 800 	
 329.64781 	 0.1711598 	 800 	
 330.66898 	 0.17165851 	 800 	
 331.65467 	 0.17215687 	 800 	
 332.59102 	 0.1726319 	 800 	
 333.71092 	 0.17315291 	 800.01 	
 334.64879 	 0.17360759 	 800 	
 335.64531 	 0.17414803 	 800.01 	
 336.68191 	 0.17465204 	 800.02 	
 337.66606 	 0.1751277 	 800.02 	
 338.65327 	 0.17558566 	 800.01 	
 339.65904 	 0.17609814 	 800.01 	
 340.64164 	 0.17659973 	 800.01 	
 341.68596 	 0.17707281 	 800.01 	
 342.65778 	 0.17757877 	 800.01 	
 343.67588 	 0.1780451 	 800.01 	
 344.6153 	 0.17852446 	 800.01 	
 345.68121 	 0.17905875 	 800 	
 346.65302 	 0.17953645 	 800 	
 347.63871 	 0.18000235 	 800 	
 348.65835 	 0.18051435 	 800 	
 349.68106 	 0.18100091 	 800 	
 350.65442 	 0.1814844 	 800 	
 351.69874 	 0.18198804 	 800 	
 352.66439 	 0.182475 	 800 	
 353.69635 	 0.18296388 	 800 	
 354.59875 	 0.18341711 	 800 	
 355.66928 	 0.18398314 	 800 	
 356.64111 	 0.18443044 	 799.99 	
 357.62679 	 0.18490891 	 799.99 	
 358.70196 	 0.18543724 	 800 	
 359.6028 	 0.18589906 	 800 	
 360.69804 	 0.18638695 	 800 	
 361.65287 	 0.18686801 	 800 	
 362.6571 	 0.18737667 	 800 	
 363.68755 	 0.18787535 	 799.99 	
 364.62385 	 0.18833056 	 799.99 	
 365.67898 	 0.18881191 	 799.99 	
 366.66776 	 0.18931144 	 800 	
 367.62416 	 0.18977714 	 800 	
 368.67154 	 0.19030088 	 800 	
 369.63407 	 0.19074434 	 800 	
 370.70615 	 0.19128517 	 800 	
 371.6456 	 0.1917205 	 800 	
 372.67139 	 0.19224432 	 800 	
 373.71879 	 0.19272833 	 800 	
 374.65819 	 0.19319956 	 800 	
 375.59145 	 0.19368268 	 800 	
 376.71291 	 0.19421365 	 800 	
 377.68934 	 0.1946575 	 800 	
 378.69974 	 0.19514258 	 800 	
 379.6484 	 0.19561711 	 800 	
 380.65876 	 0.19609913 	 800 	
 381.67995 	 0.19657537 	 800 	
 382.62091 	 0.19704642 	 800 	
 383.67759 	 0.19755419 	 800 	
 384.60465 	 0.19802436 	 800 	
 385.6937 	 0.19851906 	 800 	
 386.63622 	 0.198984 	 800 	
 387.68362 	 0.19949191 	 800 	
 388.68009 	 0.19995906 	 800 	
 389.62418 	 0.20044627 	 800 	
 390.67154 	 0.20093433 	 800 	
 391.66188 	 0.20142413 	 800 	
 392.65993 	 0.20190047 	 800 	
 393.67491 	 0.202401 	 800 	
 394.62206 	 0.20283661 	 800 	
 395.65556 	 0.20334516 	 800 	
 396.69063 	 0.20384292 	 800 	
 397.64392 	 0.20429629 	 800 	
 398.70212 	 0.20478186 	 800 	
 399.59836 	 0.20525647 	 800 	
 400.70744 	 0.2057909 	 800 	
 401.61139 	 0.20621881 	 800 	
 402.61872 	 0.20671525 	 800 	
 403.66148 	 0.20720228 	 800 	
 404.62563 	 0.2076668 	 800 	
 405.63444 	 0.20815096 	 800 	
 406.67877 	 0.20862595 	 800 	
 407.60118 	 0.20911664 	 800 	
 408.67946 	 0.209583 	 800 	
 409.67906 	 0.21006496 	 800 	
 410.64622 	 0.21054737 	 800 	
 411.598 	 0.21100855 	 800 	
 412.67316 	 0.21150563 	 800 	
 413.61414 	 0.21198159 	 800 	
 414.71552 	 0.21247433 	 800 	
 415.68115 	 0.21293325 	 800 	
 416.63293 	 0.21342631 	 800 	
 417.70038 	 0.2138892 	 800 	
 418.64598 	 0.21436327 	 800 	
 419.67023 	 0.21485452 	 800 	
 420.64205 	 0.21533523 	 800 	
 421.64315 	 0.21579312 	 800 	
 422.62887 	 0.21628065 	 800 	
 423.68709 	 0.21675588 	 800 	
 424.61261 	 0.21721909 	 800 	
 425.63379 	 0.21771684 	 800 	
 426.66423 	 0.21818271 	 800 	
 427.62984 	 0.2186478 	 800 	
 428.65259 	 0.2191301 	 800 	
 429.64754 	 0.21962054 	 800 	
 430.65483 	 0.22009638 	 800 	
 431.60813 	 0.22054422 	 800 	
 432.6771 	 0.22102411 	 800 	
 433.63505 	 0.22151476 	 800.01 	
 434.66085 	 0.22197066 	 800.01 	
 435.65116 	 0.22248117 	 800.01 	
 436.66774 	 0.22294167 	 800.01 	
 437.62874 	 0.22341036 	 800.01 	
 438.61444 	 0.22388955 	 800.01 	
 439.64024 	 0.2243491 	 800.01 	
 440.67375 	 0.22485079 	 800.01 	
 441.64714 	 0.22530707 	 800.01 	
 442.63898 	 0.22576971 	 800.01 	
 443.61082 	 0.22625177 	 800.01 	
 444.67977 	 0.22675354 	 800.01 	
 445.60533 	 0.22719811 	 800.01 	
 446.66355 	 0.22766983 	 800.01 	
 447.6307 	 0.22814656 	 800 	
 448.65653 	 0.22859925 	 800 	
 449.63295 	 0.22908177 	 800 	
 450.69889 	 0.22956391 	 800 	
 451.62897 	 0.23005588 	 800 	
 452.60858 	 0.23049153 	 800 	
 453.63743 	 0.23096524 	 800 	
 454.62777 	 0.23142721 	 800 	
 455.66284 	 0.23191449 	 800 	
 456.63772 	 0.23236302 	 800 	
 457.59871 	 0.23283841 	 800 	
 458.69244 	 0.23333901 	 800 	
 459.62565 	 0.23380853 	 800 	
 460.65299 	 0.23428339 	 800 	
 461.59241 	 0.23472681 	 800 	
 462.65837 	 0.23522098 	 799.99 	
 463.63479 	 0.23568855 	 799.99 	
 464.62358 	 0.23614782 	 799.99 	
 465.6062 	 0.23659522 	 800 	
 466.6613 	 0.23705956 	 800 	
 467.63003 	 0.23754975 	 799.99 	
 468.67124 	 0.23801949 	 799.99 	
 469.6523 	 0.23848916 	 799.99 	
 470.63957 	 0.23897171 	 799.99 	
 471.60982 	 0.23941425 	 799.99 	
 472.61094 	 0.23986655 	 799.99 	
 473.63365 	 0.24036044 	 800 	
 474.6533 	 0.24084304 	 799.99 	
 475.64825 	 0.24128153 	 800 	
 476.63704 	 0.24171579 	 800 	
 477.65666 	 0.24222608 	 799.99 	
 478.6177 	 0.2426655 	 799.99 	
 479.62036 	 0.24314745 	 799.99 	
 480.68166 	 0.2436341 	 799.99 	
 481.58557 	 0.244075 	 799.99 	
 482.60368 	 0.24455894 	 800 	
 483.64952 	 0.24502805 	 800 	
 484.64142 	 0.24548813 	 800 	
 485.61786 	 0.24595098 	 799.99 	
 486.62823 	 0.24643467 	 800 	
 487.68799 	 0.24689793 	 799.99 	
 488.65053 	 0.24736204 	 800 	
 489.64858 	 0.24781466 	 800 	
 490.66046 	 0.24828301 	 800 	
 491.59369 	 0.24874249 	 800 	
 492.63037 	 0.24921919 	 800 	
 493.67773 	 0.24969744 	 800 	
 494.61249 	 0.25015004 	 800 	
 495.59977 	 0.25061868 	 800 	
 496.59627 	 0.25103681 	 800 	
 497.69609 	 0.25157389 	 800 	
 498.57845 	 0.2519829 	 800 	
 499.6428 	 0.25244856 	 800 	
 500.64087 	 0.25292697 	 800 	
 501.6111 	 0.25338679 	 800 	
 502.65853 	 0.25389197 	 800 	
 503.62262 	 0.25431118 	 800 	
 504.63147 	 0.25478915 	 800 	
 505.6141 	 0.25526238 	 800 	
 506.61814 	 0.25570683 	 800 	
 507.62179 	 0.25616301 	 800.01 	
 508.65169 	 0.25662369 	 800.01 	
 509.62914 	 0.25707256 	 800.01 	
 510.64513 	 0.2575762 	 800.01 	
 511.59483 	 0.25799495 	 800.01 	
 512.61702 	 0.25848902 	 800 	
 513.65611 	 0.25895105 	 800.01 	
 514.53333 	 0.25938847 	 800.01 	
 515.65723 	 0.25990406 	 800.01 	
 516.63318 	 0.26033867 	 800.01 	
 517.64455 	 0.2608186 	 800.01 	
 518.6436 	 0.26124495 	 800.01 	
 519.57172 	 0.26168426 	 800.01 	
 520.65554 	 0.26218481 	 800.01 	
 521.62374 	 0.2626372 	 800.02 	
 522.64594 	 0.26311523 	 800.02 	
 523.61871 	 0.26354273 	 800.01 	
 524.60854 	 0.26402997 	 800.01 	
 525.66158 	 0.26450879 	 800.01 	
 526.62054 	 0.26494393 	 800.01 	
 527.63959 	 0.26540112 	 800.01 	
 528.60781 	 0.26583534 	 800 	
 529.57758 	 0.26629756 	 800.01 	
 530.64441 	 0.26679677 	 800 	
 531.61564 	 0.26721979 	 800.01 	
 532.60701 	 0.26770202 	 800.01 	
 533.6261 	 0.26817943 	 800.01 	
 534.64205 	 0.26858482 	 800.01 	
 535.59642 	 0.26905939 	 800.01 	
 536.671 	 0.26951912 	 800.01 	
 537.6639 	 0.26997752 	 800.01 	
 538.60124 	 0.27042909 	 800.01 	
 539.62805 	 0.27088115 	 800.01 	
 540.58236 	 0.27133881 	 800.01 	
 541.6261 	 0.27180545 	 800.01 	
 542.59121 	 0.27227573 	 800.01 	
 543.66583 	 0.27277384 	 800 	
 544.59548 	 0.27318787 	 800 	
 545.65157 	 0.27365779 	 800 	
 546.65985 	 0.2741003 	 800.01 	
 547.60956 	 0.27456815 	 800.01 	

	
	
