Version 1.25
******************************************** Units *******************************************
System CGS
TemperatureUnit C
MomentUnit emu
AppliedFieldUnit Oe
 
******************************************** Setup ********************************************
 
Experiment Hysteresis
Minor False
Acquisition Continuous
EditedPoint No
MaxField 200
FieldIncrement 1
Points 801
MinField 0
RampRate 3.333
AverageTime 0.3000300030003
TimeInterval 0
TimeConstant 0.1
TimeConstantIndex 0
Sensitivity -0.45
SensitivityIndex 3
SensitivityY -400
SensitivityIndexY 0
SaturationField 8000
ExperimentTime 240.32403240324
Use735Domains False
AutoRangeEnabled False
NumberOfVertices 3
VertexPts
0
400
800
VertexField
200
-200
200
StartAngle 0
EndAngle 0
AngleIncrement 0
StartTemp 0
FinishTemp 0
TempIncrement 0
TempPoints 0
LengthofSetPointsArray 801
SetPointArray
200
199
198
197
196
195
194
193
192
191
190
189
188
187
186
185
184
183
182
181
180
179
178
177
176
175
174
173
172
171
170
169
168
167
166
165
164
163
162
161
160
159
158
157
156
155
154
153
152
151
150
149
148
147
146
145
144
143
142
141
140
139
138
137
136
135
134
133
132
131
130
129
128
127
126
125
124
123
122
121
120
119
118
117
116
115
114
113
112
111
110
109
108
107
106
105
104
103
102
101
100
99
98
97
96
95
94
93
92
91
90
89
88
87
86
85
84
83
82
81
80
79
78
77
76
75
74
73
72
71
70
69
68
67
66
65
64
63
62
61
60
59
58
57
56
55
54
53
52
51
50
49
48
47
46
45
44
43
42
41
40
39
38
37
36
35
34
33
32
31
30
29
28
27
26
25
24
23
22
21
20
19
18
17
16
15
14
13
12
11
10
9
8
7
6
5
4
3
2
1
0
-1
-2
-3
-4
-5
-6
-7
-8
-9
-10
-11
-12
-13
-14
-15
-16
-17
-18
-19
-20
-21
-22
-23
-24
-25
-26
-27
-28
-29
-30
-31
-32
-33
-34
-35
-36
-37
-38
-39
-40
-41
-42
-43
-44
-45
-46
-47
-48
-49
-50
-51
-52
-53
-54
-55
-56
-57
-58
-59
-60
-61
-62
-63
-64
-65
-66
-67
-68
-69
-70
-71
-72
-73
-74
-75
-76
-77
-78
-79
-80
-81
-82
-83
-84
-85
-86
-87
-88
-89
-90
-91
-92
-93
-94
-95
-96
-97
-98
-99
-100
-101
-102
-103
-104
-105
-106
-107
-108
-109
-110
-111
-112
-113
-114
-115
-116
-117
-118
-119
-120
-121
-122
-123
-124
-125
-126
-127
-128
-129
-130
-131
-132
-133
-134
-135
-136
-137
-138
-139
-140
-141
-142
-143
-144
-145
-146
-147
-148
-149
-150
-151
-152
-153
-154
-155
-156
-157
-158
-159
-160
-161
-162
-163
-164
-165
-166
-167
-168
-169
-170
-171
-172
-173
-174
-175
-176
-177
-178
-179
-180
-181
-182
-183
-184
-185
-186
-187
-188
-189
-190
-191
-192
-193
-194
-195
-196
-197
-198
-199
-200
-199
-198
-197
-196
-195
-194
-193
-192
-191
-190
-189
-188
-187
-186
-185
-184
-183
-182
-181
-180
-179
-178
-177
-176
-175
-174
-173
-172
-171
-170
-169
-168
-167
-166
-165
-164
-163
-162
-161
-160
-159
-158
-157
-156
-155
-154
-153
-152
-151
-150
-149
-148
-147
-146
-145
-144
-143
-142
-141
-140
-139
-138
-137
-136
-135
-134
-133
-132
-131
-130
-129
-128
-127
-126
-125
-124
-123
-122
-121
-120
-119
-118
-117
-116
-115
-114
-113
-112
-111
-110
-109
-108
-107
-106
-105
-104
-103
-102
-101
-100
-99
-98
-97
-96
-95
-94
-93
-92
-91
-90
-89
-88
-87
-86
-85
-84
-83
-82
-81
-80
-79
-78
-77
-76
-75
-74
-73
-72
-71
-70
-69
-68
-67
-66
-65
-64
-63
-62
-61
-60
-59
-58
-57
-56
-55
-54
-53
-52
-51
-50
-49
-48
-47
-46
-45
-44
-43
-42
-41
-40
-39
-38
-37
-36
-35
-34
-33
-32
-31
-30
-29
-28
-27
-26
-25
-24
-23
-22
-21
-20
-19
-18
-17
-16
-15
-14
-13
-12
-11
-10
-9
-8
-7
-6
-5
-4
-3
-2
-1
0
1
2
3
4
5
6
7
8
9
10
11
12
13
14
15
16
17
18
19
20
21
22
23
24
25
26
27
28
29
30
31
32
33
34
35
36
37
38
39
40
41
42
43
44
45
46
47
48
49
50
51
52
53
54
55
56
57
58
59
60
61
62
63
64
65
66
67
68
69
70
71
72
73
74
75
76
77
78
79
80
81
82
83
84
85
86
87
88
89
90
91
92
93
94
95
96
97
98
99
100
101
102
103
104
105
106
107
108
109
110
111
112
113
114
115
116
117
118
119
120
121
122
123
124
125
126
127
128
129
130
131
132
133
134
135
136
137
138
139
140
141
142
143
144
145
146
147
148
149
150
151
152
153
154
155
156
157
158
159
160
161
162
163
164
165
166
167
168
169
170
171
172
173
174
175
176
177
178
179
180
181
182
183
184
185
186
187
188
189
190
191
192
193
194
195
196
197
198
199
200
FieldDomainFile C:\IDEASVSM\Inducat\Experiments\hys_c_200(1)_03s_master06\fdomain.ini
TempDomainFile C:\IDEASVSM\Inducat\Experiments\hys_c_200(1)_03s_master06\tdomain.ini
NumSelectedResults 0
ResultsSelected 
UserName1 
UserValue1 
UserName2 
UserValue2 
LinearBackgroundCorrection Off
MaxLinearFieldCorrection 
MinLinearFieldCorrection 
AutoLinearCorrection Off
FitOneRegion Off
BackgroundMode Off
BackgroundFilename 
AutoCenter Off
OffsetCorrection 
SmoothDeriv Off
DerivOrder 0
DerivPoints 0
MinExFieldOne 
MaxExFieldOne 
MinExFieldTwo 
MaxExFieldTwo 
MinPinFieldOne 
MaxPinFieldOne 
MinPinFieldTwo 
MaxPinFieldTwo 
HCenterStart 
Mass 
Volume 
Density 
MolarWeight 
NumberOfMoles 
Demagnetization 
SampleArea 
Thickness 
MomentScaling 0
XAxis 0
YAxis 0, 4
SimpleSpinValve False
HsatMax 0
HsatMin 0
FieldAutoRange False
 
*************************************************** Experiment Data ********************************************
 
DataPoints 801
MomentX Data
0.10358833
0.10348532
0.10302879
0.10256573
0.10206435
0.1015699
0.10111415
0.10065769
0.10018937
0.099678837
0.099208742
0.098738897
0.098248032
0.097800202
0.097294278
0.09683409
0.096385658
0.095852893
0.095410281
0.094924422
0.094445273
0.09397859
0.093496634
0.09303247
0.092509115
0.092063131
0.09160976
0.091064745
0.090609527
0.090144441
0.089633691
0.089162743
0.08867543
0.088224225
0.087738826
0.087262555
0.086788416
0.086281427
0.085790347
0.085327391
0.08484249
0.084342178
0.083869812
0.08341016
0.082889714
0.082413549
0.081943879
0.081423966
0.080966269
0.080483923
0.07998915
0.079499667
0.078993781
0.078540129
0.078044255
0.077535209
0.07707236
0.076575279
0.076088104
0.075588648
0.075125086
0.074643026
0.074135434
0.073646771
0.073138645
0.072665855
0.072183158
0.071670878
0.07120011
0.070669473
0.070207155
0.06974253
0.069210864
0.068739422
0.068258676
0.067753715
0.067261284
0.066768219
0.066284664
0.065770256
0.065283792
0.064806919
0.064265026
0.063810059
0.063309038
0.062815331
0.062301952
0.061807606
0.06133375
0.06081238
0.060334759
0.059850214
0.059336763
0.058867913
0.058332732
0.057833202
0.057367156
0.056864644
0.056364437
0.055851949
0.055360304
0.054851114
0.054358687
0.053887778
0.053358527
0.052867944
0.052335782
0.051849426
0.051374005
0.05085555
0.050359392
0.049838025
0.049324718
0.04884848
0.048326793
0.047823251
0.047312534
0.046822698
0.046327819
0.045801373
0.045325669
0.044812931
0.044277644
0.043793737
0.043291933
0.042770815
0.042268408
0.041764191
0.041251771
0.040733884
0.040252889
0.03972268
0.039212424
0.038723086
0.038210419
0.037695619
0.037164806
0.036678734
0.036176717
0.035632092
0.035141794
0.034646382
0.034112943
0.033601161
0.033101809
0.032581044
0.032044942
0.031557733
0.031057136
0.030491632
0.030019017
0.029487352
0.028965736
0.028480337
0.027953537
0.027434052
0.026903098
0.026392703
0.025887633
0.025358915
0.024859882
0.024322038
0.023793107
0.023306147
0.022770505
0.022236425
0.021727059
0.02123914
0.020673564
0.020149605
0.019676279
0.019087802
0.018604356
0.018074928
0.017554341
0.017036737
0.016480856
0.015978591
0.015463686
0.014922718
0.014404226
0.013868122
0.01332616
0.012828441
0.012279163
0.01178606
0.011271936
0.010640244
0.010124983
0.0096209792
0.0091202417
0.0085773559
0.0080502357
0.0075092673
0.0069540962
0.006442387
0.0059098694
0.0053806541
0.004811883
0.0043116071
0.0037424095
0.0031967186
0.0027011299
0.0021544447
0.0016059131
0.0010539017
0.00052276929
-0.000013991332
-0.00056802676
-0.0011364786
-0.0016618766
-0.0021988148
-0.0027397298
-0.0032926646
-0.0038454398
-0.0043679437
-0.0049435327
-0.005463054
-0.0060375778
-0.006573078
-0.0071024705
-0.007672573
-0.0082178735
-0.0087613632
-0.0093325666
-0.0098518219
-0.010410029
-0.010953412
-0.011536706
-0.01206159
-0.012594267
-0.013186349
-0.013716381
-0.014263813
-0.014800716
-0.015333287
-0.015941934
-0.01646648
-0.016994861
-0.017549819
-0.018079691
-0.018662346
-0.019197616
-0.019729441
-0.020279712
-0.020850755
-0.021388759
-0.021916163
-0.022443266
-0.023032294
-0.023570671
-0.024115101
-0.024652483
-0.025180598
-0.025726999
-0.026255415
-0.026847267
-0.027359225
-0.027886257
-0.028436548
-0.028992714
-0.029545595
-0.030055565
-0.030614963
-0.031153321
-0.03167776
-0.032238276
-0.032771929
-0.033312543
-0.033867891
-0.034386278
-0.034914516
-0.035464699
-0.036004637
-0.036548321
-0.037085242
-0.037651138
-0.038160947
-0.038713722
-0.039252134
-0.039787741
-0.040293573
-0.040842087
-0.041404698
-0.041942453
-0.042461229
-0.043018939
-0.043550692
-0.044083547
-0.044631351
-0.045149257
-0.045696706
-0.046232277
-0.0467921
-0.047298341
-0.047845329
-0.048380084
-0.048930532
-0.049459906
-0.050013074
-0.050530357
-0.051056643
-0.051629675
-0.05213581
-0.05267653
-0.053226394
-0.053766064
-0.054292883
-0.054825807
-0.05536113
-0.055885485
-0.05642278
-0.056958971
-0.057492661
-0.058026315
-0.05854351
-0.059107862
-0.059634576
-0.060177176
-0.060709746
-0.061221846
-0.061772757
-0.062302238
-0.062850716
-0.063375973
-0.063889688
-0.064443778
-0.064982579
-0.065533436
-0.06605564
-0.066581979
-0.067110856
-0.067658427
-0.068174647
-0.068710201
-0.06925284
-0.069773815
-0.070331934
-0.070818255
-0.07139088
-0.071911235
-0.072463442
-0.072982183
-0.073472764
-0.074036742
-0.074566988
-0.075105026
-0.075628703
-0.076131519
-0.076708099
-0.077239089
-0.07773965
-0.078295832
-0.078797016
-0.079335749
-0.079857576
-0.080400975
-0.080927405
-0.081471215
-0.081983401
-0.082509582
-0.083042046
-0.083573321
-0.084103655
-0.084639935
-0.08516638
-0.085663851
-0.08622103
-0.086737479
-0.087293947
-0.087814621
-0.08831948
-0.088857269
-0.089400476
-0.089904869
-0.090450295
-0.090959837
-0.091500593
-0.092036804
-0.092547855
-0.093076077
-0.093586348
-0.094158689
-0.094656479
-0.095178166
-0.095717466
-0.096240413
-0.09679024
-0.097315957
-0.097827953
-0.098355517
-0.09890213
-0.099411445
-0.099947034
-0.10044915
-0.10099802
-0.10154094
-0.10205587
-0.10257717
-0.10309219
-0.10363781
-0.10412582
-0.10440797
-0.10413385
-0.10365683
-0.10318336
-0.10269809
-0.10222874
-0.10175977
-0.10128871
-0.1008159
-0.10036454
-0.099858688
-0.099404822
-0.098931052
-0.098439866
-0.09797144
-0.097502324
-0.097013693
-0.096541295
-0.096058719
-0.095604903
-0.095110451
-0.094644617
-0.094157943
-0.093682648
-0.093212625
-0.092720088
-0.09226088
-0.091762698
-0.091292621
-0.090834228
-0.090294591
-0.089847825
-0.089376738
-0.088895211
-0.0884262
-0.08790879
-0.087421937
-0.086959957
-0.086476902
-0.085996333
-0.085489807
-0.085011653
-0.084540263
-0.084039562
-0.083576375
-0.083076171
-0.082595123
-0.08211892
-0.08162903
-0.081157943
-0.080648363
-0.080174771
-0.079693279
-0.079210525
-0.078717636
-0.078227321
-0.077714582
-0.077239871
-0.076743802
-0.076278413
-0.075766863
-0.07528173
-0.074797311
-0.074305648
-0.073838249
-0.073330269
-0.0728203
-0.072347438
-0.071839137
-0.071376465
-0.070878886
-0.07039079
-0.069877836
-0.069384112
-0.06892293
-0.068410245
-0.067906328
-0.067428813
-0.066941959
-0.066435702
-0.065941408
-0.065440565
-0.064966617
-0.064441362
-0.063963988
-0.063466573
-0.062978952
-0.062484502
-0.06195431
-0.061481483
-0.060971494
-0.060491495
-0.060004994
-0.059478055
-0.058989992
-0.058480733
-0.057995368
-0.057496957
-0.056998422
-0.056488506
-0.055973244
-0.055490647
-0.055012707
-0.054470032
-0.053995288
-0.053497747
-0.052967998
-0.052481092
-0.051979201
-0.051484003
-0.050962245
-0.050482046
-0.049963113
-0.049454776
-0.04897117
-0.048447477
-0.047952865
-0.047467041
-0.046913201
-0.046432632
-0.045922751
-0.045430074
-0.044940735
-0.044393837
-0.043898673
-0.04337949
-0.042889795
-0.042396443
-0.041841982
-0.041352998
-0.040856539
-0.040332207
-0.039854851
-0.03933485
-0.03880647
-0.038303601
-0.037805261
-0.037297812
-0.036759614
-0.036257935
-0.035736851
-0.035232191
-0.034740774
-0.034202876
-0.033694327
-0.033192542
-0.032648661
-0.032168538
-0.031624657
-0.031151475
-0.030620874
-0.030051943
-0.029572564
-0.029059363
-0.028529259
-0.02802735
-0.027493924
-0.026992247
-0.02645096
-0.025938007
-0.025442613
-0.024900207
-0.024364583
-0.023862158
-0.023341554
-0.02283746
-0.022301375
-0.021788192
-0.021264054
-0.020740715
-0.020199072
-0.019683688
-0.019181211
-0.018627282
-0.018112767
-0.01756578
-0.017054638
-0.016555303
-0.015983958
-0.015470455
-0.014955265
-0.014418913
-0.013898592
-0.013336904
-0.012823313
-0.012280551
-0.011762291
-0.011243177
-0.010680442
-0.010164383
-0.0096442584
-0.0090856424
-0.0085707192
-0.0080333726
-0.0074973932
-0.0069395052
-0.0064098818
-0.0058922424
-0.0053179673
-0.0048052458
-0.0042633898
-0.0037047738
-0.0031827842
-0.0026453843
-0.00209893
-0.0015443798
-0.0010409081
-0.00047817312
0.00017947544
0.0006449177
0.0011632317
0.0017091002
0.0022463756
0.0028087555
0.0033410242
0.0038950241
0.0044463254
0.0049774934
0.0055699843
0.0061083605
0.0066360843
0.007199671
0.0077311942
0.0083074931
0.0088269792
0.0093888618
0.0099577038
0.010503573
0.011048802
0.011600991
0.012134112
0.01268062
0.013262032
0.013809569
0.014343933
0.014903579
0.015447601
0.015994534
0.01655766
0.017081229
0.017637821
0.018176055
0.01872441
0.019280291
0.019834505
0.020382716
0.020925176
0.021471222
0.022026145
0.022547265
0.023101016
0.023658354
0.024216011
0.024771147
0.025288857
0.025843852
0.026375126
0.026934808
0.027484368
0.028026437
0.028564563
0.029105815
0.029641742
0.030182852
0.030729395
0.031272422
0.031823121
0.03234779
0.032920397
0.03343999
0.033994167
0.034527359
0.03505416
0.03560294
0.03612658
0.03667916
0.037244203
0.037762517
0.038311155
0.038844915
0.039388333
0.039922839
0.040456102
0.040996076
0.041536618
0.04207638
0.042638583
0.043164034
0.043698255
0.044232406
0.04477966
0.045308945
0.045847535
0.046391166
0.04690799
0.04746721
0.047978493
0.048533522
0.049104744
0.049610523
0.050144674
0.050701443
0.051241879
0.051771804
0.052282235
0.052815143
0.053377416
0.053915189
0.054441705
0.054971133
0.055500454
0.056078453
0.05657408
0.057109578
0.057667448
0.058184522
0.058732128
0.059236985
0.059800679
0.060325208
0.060859395
0.06139784
0.061933483
0.062462591
0.063027561
0.063529046
0.064060675
0.064586271
0.065151705
0.065646086
0.066189964
0.066763922
0.067266893
0.067789966
0.068349293
0.068852871
0.069392348
0.069926996
0.070451242
0.07099416
0.071514606
0.072062145
0.072584613
0.073112868
0.07367017
0.0741697
0.074716138
0.075235128
0.075756883
0.076296644
0.076823234
0.077374499
0.077879109
0.078406936
0.078952557
0.079479642
0.080011165
0.080544643
0.08107226
0.081611594
0.082107752
0.0826593
0.083169946
0.083710025
0.084239452
0.084756702
0.085307685
0.085848117
0.086359368
0.086880663
0.087392196
0.08794971
0.088472322
0.089001645
0.089518218
0.090027193
0.09057647
0.091084203
0.091613205
0.092163014
0.092682146
0.093188423
0.093711281
0.094269934
0.094780861
0.095302159
0.095839365
0.096358318
0.096885721
0.097404034
0.097916169
0.098479297
0.098972187
0.099509249
0.10004844
0.10055909
0.10109523
0.1015977
0.1021506
MomentY Data
0.00085830688
0.0015258789
0.0018119812
0.0012397766
0.0012079875
0.0014305115
0.0012715658
0.0018119812
0.0015258789
0.0016212463
0.001335144
0.001335144
0.0010172526
0.0015894572
0.0015894572
0.00092188517
0.0013669332
0.001335144
0.0010490417
0.0014940898
0.0020027161
0.0015258789
0.0017484029
0.0014623006
0.0014623006
0.0012397766
0.0013987223
0.0012715658
0.0016530355
0.001335144
0.001335144
0.00111262
0.0014305115
0.0015258789
0.0011761983
0.0022252401
0.0014623006
0.0013033549
0.0016530355
0.0015576681
0.0016848246
0.0018119812
0.001335144
0.00111262
0.0018437703
0.0013987223
0.0014623006
0.0014623006
0.00092188517
0.0019709269
0.001335144
0.0015258789
0.0015894572
0.0014623006
0.0015576681
0.0015576681
0.0012079875
0.0013033549
0.0010490417
0.0014940898
0.0015894572
0.0016848246
0.001335144
0.0014623006
0.0014305115
0.0013987223
0.0013033549
0.00111262
0.001335144
0.0019709269
0.0010172526
0.0015258789
0.001335144
0.0018437703
0.0020980835
0.0014940898
0.0016848246
0.0015576681
0.001335144
0.0013669332
0.0013669332
0.0017484029
0.0015258789
0.0015894572
0.0017166138
0.0013669332
0.0014623006
0.0016530355
0.0013033549
0.0015576681
0.0014940898
0.00111262
0.0013987223
0.0015576681
0.0017801921
0.0014623006
0.0012079875
0.0011761983
0.00098546346
0.0020980835
0.0014305115
0.0016530355
0.0021934509
0.0018119812
0.0015894572
0.0020980835
0.0017801921
0.0021616618
0.0014623006
0.0016530355
0.0020027161
0.0020662944
0.0018119812
0.0017166138
0.0022888184
0.0017166138
0.0016530355
0.0021934509
0.0020027161
0.0022570292
0.0022252401
0.0017484029
0.0020345052
0.0022888184
0.0015894572
0.0018437703
0.0019073486
0.0020980835
0.0020980835
0.0014940898
0.0026067098
0.0021616618
0.001335144
0.0021934509
0.0023206075
0.0024795532
0.0017484029
0.0019073486
0.0016848246
0.0020027161
0.0013987223
0.0020027161
0.0019709269
0.0015894572
0.0013987223
0.0013033549
0.0012397766
0.0016848246
0.00085830688
0.0012079875
0.0013669332
0.0012715658
0.0015894572
0.0015894572
0.0017484029
0.0014623006
0.0014940898
0.0015258789
0.0018119812
0.0012715658
0.0012715658
0.0015576681
0.0017166138
0.0016848246
0.0017166138
0.0007947286
0.0012715658
0.0017801921
0.0012715658
0.0013669332
0.0016848246
0.0015576681
0.0016848246
0.0013033549
0.0017166138
0.0010172526
0.0011444092
0.001335144
0.0018755595
0.0014623006
0.0014940898
0.0015894572
0.0011444092
0.0020345052
0.00111262
0.0014940898
0.0011444092
0.0016212463
0.0019391378
0.0019391378
0.0014305115
0.0016848246
0.0013987223
0.0015258789
0.0017484029
0.0015894572
0.0018437703
0.00095367432
0.00095367432
0.0018755595
0.0012397766
0.0015258789
0.0018119812
0.0011444092
0.0012715658
0.0016848246
0.0015894572
0.0010649363
0.00092188517
0.001335144
0.0012397766
0.0019073486
0.0012715658
0.001335144
0.0020980835
0.0015258789
0.0017484029
0.0020027161
0.0019391378
0.0014940898
0.0010490417
0.0014305115
0.0016848246
0.0013987223
0.001335144
0.0012397766
0.0012715658
0.0012715658
0.0013669332
0.0015576681
0.0014305115
0.0016212463
0.0013669332
0.0013033549
0.0018755595
0.00111262
0.0013669332
0.0015576681
0.0015576681
0.0016848246
0.0018755595
0.0016212463
0.0019709269
0.0011444092
0.0018437703
0.0016530355
0.0012715658
0.0014623006
0.0015258789
0.0019391378
0.0013987223
0.0019391378
0.0015576681
0.001335144
0.0016212463
0.0016530355
0.0018755595
0.0012397766
0.0012715658
0.0015576681
0.0011444092
0.0016530355
0.0011761983
0.0017166138
0.0012715658
0.0013987223
0.00098546346
0.0015894572
0.0016848246
0.0016848246
0.0016848246
0.0013987223
0.0020345052
0.0016848246
0.0010808309
0.0012715658
0.0017484029
0.0012397766
0.0015894572
0.0012397766
0.0019391378
0.0014305115
0.0019709269
0.0014623006
0.0010172526
0.0016848246
0.00111262
0.0017801921
0.0015576681
0.0011444092
0.0018119812
0.0015576681
0.0017484029
0.0013987223
0.0013669332
0.0011761983
0.0015894572
0.001335144
0.0017484029
0.0016212463
0.0015258789
0.0016212463
0.0020027161
0.0017484029
0.0015258789
0.0018119812
0.0014623006
0.00092188517
0.0020980835
0.0010808309
0.0019073486
0.0016848246
0.0014305115
0.0017484029
0.0011444092
0.0015894572
0.0014623006
0.0014623006
0.0015258789
0.0016212463
0.0013669332
0.0017484029
0.0020662944
0.00098546346
0.00092188517
0.0018119812
0.0017484029
0.0017801921
0.0010172526
0.0013669332
0.00092188517
0.0018119812
0.00092188517
0.0012079875
0.0016212463
0.0016212463
0.0014623006
0.0015576681
0.0013987223
0.0017801921
0.0011444092
0.0013033549
0.0016848246
0.0021934509
0.0018437703
0.0020345052
0.0020027161
0.0019391378
0.0013987223
0.0024477641
0.0017166138
0.001335144
0.0020980835
0.0018119812
0.0015894572
0.0014305115
0.0013669332
0.0015894572
0.0012715658
0.0014940898
0.0012715658
0.0017484029
0.0020345052
0.0013987223
0.0010808309
0.0013669332
0.0012715658
0.0013669332
0.0012079875
0.0016530355
0.00111262
0.00111262
0.0012715658
0.00085830688
0.0013987223
0.001335144
0.001335144
0.0011444092
0.0013033549
0.0016530355
0.00085830688
0.0015576681
0.0019391378
0.0012397766
0.0012397766
0.0014623006
0.0013033549
0.0014940898
0.0019709269
0.001335144
0.00069936117
0.0012079875
0.0012715658
0.0017166138
0.0017484029
0.0016848246
0.0011444092
0.0013669332
0.0014940898
0.001335144
0.0013033549
0.0017484029
0.0016848246
0.0014940898
0.0015258789
0.0016212463
0.0015894572
0.0016530355
0.0017484029
0.0013033549
0.0016212463
0.0019709269
0.0012715658
0.0012715658
0.0015894572
0.0013987223
0.001335144
0.0010172526
0.001335144
0.0015894572
0.0016530355
0.0011444092
0.0013987223
0.0021616618
0.0023523966
0.0011761983
0.0013033549
0.0013669332
0.0015258789
0.0014305115
0.0017166138
0.0012397766
0.0011761983
0.0015576681
0.0014623006
0.0020027161
0.0013669332
0.0012079875
0.0007947286
0.0015894572
0.00092188517
0.0015894572
0.0015576681
0.0019709269
0.0015576681
0.0016530355
0.0014623006
0.0013033549
0.0018119812
0.0018755595
0.0019073486
0.0014623006
0.0019073486
0.0020345052
0.0018119812
0.0020027161
0.0013033549
0.0019073486
0.0014940898
0.00098546346
0.0012715658
0.0014940898
0.0015576681
0.0017166138
0.0020027161
0.0016848246
0.0015258789
0.0017801921
0.0011444092
0.0014623006
0.0017166138
0.0014940898
0.0014623006
0.0017484029
0.0019709269
0.0012715658
0.0013987223
0.0018119812
0.0014305115
0.0019391378
0.0015894572
0.0015894572
0.0014940898
0.0016530355
0.0016212463
0.0014623006
0.0016848246
0.0015576681
0.0018119812
0.0015894572
0.001335144
0.0016848246
0.0023841858
0.0012079875
0.0020027161
0.0017484029
0.0015576681
0.0012397766
0.0017166138
0.0014940898
0.0014305115
0.0020662944
0.0016212463
0.0010808309
0.0019709269
0.0018755595
0.0016848246
0.0017166138
0.0014623006
0.0014623006
0.0018755595
0.0016848246
0.0013669332
0.0021298726
0.0016530355
0.0012715658
0.0018119812
0.00111262
0.0012715658
0.0018437703
0.0020345052
0.0014940898
0.0020662944
0.0019709269
0.0017801921
0.0013987223
0.001335144
0.00095367432
0.0016530355
0.0014940898
0.0017801921
0.00092188517
0.0016530355
0.0013987223
0.001335144
0.0020662944
0.0011444092
0.0014305115
0.0018437703
0.0016848246
0.0017484029
0.0017166138
0.0018437703
0.0011761983
0.0014623006
0.0013987223
0.0014305115
0.0015258789
0.0015258789
0.0016848246
0.00111262
0.001335144
0.0014623006
0.0016212463
0.0013987223
0.0015258789
0.0016212463
0.0013987223
0.0013669332
0.0015576681
0.0020345052
0.0010967255
0.0015894572
0.0017166138
0.00085830688
0.0018119812
0.0015576681
0.0011761983
0.0017801921
0.0015258789
0.0015576681
0.0018755595
0.0014305115
0.0012079875
0.0017166138
0.0016530355
0.0019391378
0.0014940898
0.0013033549
0.0016530355
0.0015576681
0.0016530355
0.0012715658
0.0018437703
0.0014940898
0.0010808309
0.0015576681
0.0018119812
0.0012079875
0.0014940898
0.0014940898
0.0017484029
0.0012079875
0.001335144
0.0017801921
0.0017801921
0.0015894572
0.0014623006
0.0020027161
0.0016530355
0.0014305115
0.0018437703
0.0018119812
0.0011761983
0.0017484029
0.0012397766
0.001335144
0.0017801921
0.0015258789
0.0010172526
0.0015258789
0.0015258789
0.001335144
0.0017801921
0.0022570292
0.0018437703
0.0018119812
0.0018755595
0.0013987223
0.0016848246
0.0016848246
0.0013669332
0.0017484029
0.0012397766
0.001335144
0.0017484029
0.0018437703
0.0014940898
0.0018437703
0.0015576681
0.0014305115
0.0011761983
0.0018119812
0.0011761983
0.0015576681
0.0013987223
0.0017484029
0.0015576681
0.0014940898
0.0018119812
0.0020345052
0.0019709269
0.0012397766
0.0017801921
0.0016530355
0.0014305115
0.0013987223
0.0020345052
0.0013669332
0.0016530355
0.001335144
0.0013987223
0.0014940898
0.0018755595
0.0013669332
0.0017166138
0.0016530355
0.0013987223
0.0018437703
0.0012397766
0.0016530355
0.0016212463
0.0016212463
0.0015894572
0.0013033549
0.0020980835
0.0017166138
0.001335144
0.0016212463
0.0015258789
0.0018437703
0.0016848246
0.0015894572
0.0021934509
0.0017484029
0.0017801921
0.0014623006
0.00111262
0.0023206075
0.0014940898
0.0012397766
0.0015576681
0.0017484029
0.0014940898
0.0012397766
0.0020027161
0.0014940898
0.0014623006
0.0017484029
0.0018119812
0.0018437703
0.0016530355
0.0013987223
0.0024477641
0.0014305115
0.0013669332
0.0014623006
0.0012079875
0.0016530355
0.0014623006
0.0012397766
0.0016530355
0.0016848246
0.0005086263
0.0015258789
0.0018119812
0.0014940898
0.0017166138
0.0014940898
0.0015576681
0.0015576681
0.0020027161
0.0011444092
0.0012397766
0.0020345052
0.0015576681
0.00095367432
0.0016212463
0.001335144
0.0016530355
0.0015894572
0.0018119812
0.0013987223
0.0016530355
0.0018119812
0.0013669332
0.0011444092
0.0016530355
0.0019709269
0.001335144
0.0014940898
0.0017166138
0.0013033549
0.0019709269
0.0012397766
0.0018119812
0.0019073486
0.0012715658
0.0016212463
0.0014305115
0.0018119812
0.0016848246
0.0011444092
0.0012397766
0.0017166138
0.0016848246
0.0013987223
0.0018437703
0.0019391378
0.0021616618
0.00089009603
0.0016848246
0.0018119812
0.0018437703
0.0016530355
0.0014623006
0.0017801921
0.0013987223
0.0017166138
0.0017166138
0.00085830688
0.0014305115
0.0014305115
0.0015258789
0.0018755595
0.0013987223
0.0017801921
0.0013987223
0.001335144
0.0018119812
0.0018119812
0.0014940898
0.0017484029
0.0014305115
0.0019391378
0.0014623006
0.0012397766
0.0017484029
0.0018437703
0.00098546346
0.001335144
0.0016848246
0.0014623006
0.0007947286
0.0019073486
0.0014940898
0.0015576681
0.0012397766
0.0013033549
0.0018437703
0.0018755595
0.0016530355
0.0017801921
0.0016212463
0.0017801921
0.0020027161
0.0016212463
0.0016530355
0.0019709269
0.0013987223
0.0014940898
Field Data
199.92337
199.17882
198.187
197.16344
196.17557
195.14125
194.18383
193.18644
192.16412
191.1676
190.13942
189.1907
188.17674
187.15898
186.17885
185.18155
184.21478
183.1549
182.18585
181.21874
180.17077
179.21482
178.2104
177.17292
176.20418
175.2058
174.23307
173.15762
172.21461
171.22422
170.1957
169.21467
168.23164
167.22929
166.24442
165.23342
164.23356
163.22883
162.21301
161.25664
160.21836
159.24144
158.25336
157.24806
156.24497
155.24774
154.26461
153.23086
152.26878
151.27572
150.25302
149.26587
148.2576
147.26251
146.29816
145.24088
144.28439
143.27577
142.245
141.29927
140.26713
139.32424
138.27518
137.28264
136.27086
135.28283
134.3155
133.2938
132.28475
131.30478
130.31661
129.34041
128.27219
127.30996
126.32603
125.29736
124.33242
123.30755
122.30753
121.33616
120.31324
119.36147
118.30161
117.34754
116.35831
115.3401
114.35623
113.34544
112.33295
111.35889
110.36366
109.35501
108.37034
107.37949
106.35112
105.35694
104.40185
103.35721
102.37708
101.37769
100.37223
99.40185
98.388947
97.407603
96.394521
95.378184
94.39593
93.402476
92.439774
91.405833
90.405584
89.399272
88.386256
87.437566
86.41272
85.401062
84.426407
83.399058
82.417445
81.436096
80.443115
79.453562
78.40831
77.441701
76.450923
75.435893
74.454956
73.44355
72.448044
71.44044
70.461957
69.446114
68.444796
67.490456
66.471057
65.447383
64.480403
63.468679
62.503747
61.439063
60.481728
59.510802
58.464345
57.506223
56.511002
55.470503
54.498889
53.494315
52.516682
51.461114
50.504948
49.513664
48.48794
47.540848
46.50794
45.488818
44.522479
43.51727
42.531731
41.522209
40.551623
39.519488
38.512736
37.554799
36.534144
35.538114
34.564173
33.599765
32.472916
31.549906
30.562408
29.529793
28.579089
27.5787
26.575729
25.534439
24.563117
23.574564
22.560937
21.557413
20.59302
19.590363
18.565751
17.60088
16.596227
15.622272
14.627138
13.416789
12.595929
11.577204
10.614511
9.6058896
8.6069237
7.6173342
6.5902519
5.6235264
4.633582
3.6293015
2.6189033
1.6423066
0.62015192
-0.38491214
-1.3714984
-2.3375597
-3.3499177
-4.3612884
-5.3567945
-6.3536892
-7.3284852
-8.4059982
-9.3426768
-10.344695
-11.350758
-12.326479
-13.343775
-14.329035
-15.336763
-16.320417
-17.350121
-18.314762
-19.31104
-20.331177
-21.309893
-22.317683
-23.327971
-24.285947
-25.312566
-26.317764
-27.298612
-28.283374
-29.278234
-30.333771
-31.296221
-32.265989
-33.289116
-34.25635
-35.314326
-36.279523
-37.251325
-38.279305
-39.259623
-40.27476
-41.267522
-42.238027
-43.277578
-44.283513
-45.238925
-46.255079
-47.215958
-48.271556
-49.239253
-50.248848
-51.256316
-52.221509
-53.229904
-54.219991
-55.267727
-56.23138
-57.203861
-58.229436
-59.239839
-60.206086
-61.220994
-62.18903
-63.219387
-64.188555
-65.218109
-66.208132
-67.17938
-68.211095
-69.189036
-70.18543
-71.194443
-72.16627
-73.186467
-74.16744
-75.197642
-76.197337
-77.169169
-78.164017
-79.16272
-80.128403
-81.155365
-82.182846
-83.159246
-84.135961
-85.151337
-86.154765
-87.134501
-88.169057
-89.117015
-90.119766
-91.156479
-92.140137
-93.128153
-94.141525
-95.126358
-96.156153
-97.094452
-98.130951
-99.121195
-100.09139
-101.17949
-102.08029
-103.09061
-104.12539
-105.09384
-106.10542
-107.08501
-108.10018
-109.10237
-110.08071
-111.0834
-112.07299
-113.07377
-114.07927
-115.08117
-116.06264
-117.06846
-118.0629
-119.05778
-120.05707
-121.06665
-122.05165
-123.03677
-124.0378
-125.04786
-126.05396
-127.0737
-128.05296
-129.02655
-130.01376
-131.07553
-131.9956
-133.02837
-134.04675
-135.02245
-136.03534
-136.98517
-138.05381
-139.02213
-140.01213
-141.02424
-141.984
-142.99236
-144.00183
-144.996
-145.99904
-146.95635
-148.00083
-149.00652
-149.9599
-151.00471
-151.9586
-152.98094
-153.96377
-154.98142
-155.95704
-156.96904
-157.94943
-158.96591
-159.94985
-160.95649
-161.9556
-162.95365
-163.97472
-164.91474
-165.95194
-166.93737
-167.95123
-168.93687
-169.90653
-170.92352
-171.95231
-172.8914
-173.93464
-174.90595
-175.90338
-176.93336
-177.89689
-178.89429
-179.88286
-180.94835
-181.89138
-182.88256
-183.89966
-184.88026
-185.90133
-186.89721
-187.88516
-188.87812
-189.91305
-190.84853
-191.89476
-192.84557
-193.88212
-194.88106
-195.85631
-196.85518
-197.8491
-198.88875
-199.76618
-199.92614
-198.9958
-197.96999
-196.94412
-195.92138
-194.92985
-193.91996
-192.94134
-191.90359
-190.9314
-189.92058
-188.91027
-187.93764
-186.90364
-185.92083
-184.89811
-183.90447
-182.91788
-181.89846
-180.93478
-179.90591
-178.90779
-177.9316
-176.91221
-175.91297
-174.91767
-173.90945
-172.90104
-171.93769
-170.93474
-169.88136
-168.91504
-167.92025
-166.93054
-165.92116
-164.89283
-163.87381
-162.94396
-161.91992
-160.88932
-159.89158
-158.89593
-157.90412
-156.89832
-155.9007
-154.90724
-153.90668
-152.91478
-151.8935
-150.90418
-149.90669
-148.87603
-147.91885
-146.893
-145.89778
-144.92474
-143.85052
-142.93437
-141.88503
-140.92817
-139.90329
-138.89299
-137.90474
-136.90376
-135.89476
-134.92074
-133.86261
-132.92446
-131.87288
-130.91814
-129.9165
-128.89552
-127.89494
-126.90377
-125.91914
-124.91157
-123.87901
-122.92248
-121.89764
-120.89801
-119.91561
-118.88258
-117.92177
-116.88342
-115.89962
-114.90789
-113.90776
-112.92449
-111.85788
-110.91272
-109.89291
-108.90832
-107.91293
-106.8904
-105.88759
-104.90435
-103.9044
-102.90947
-101.90072
-100.88293
-99.891795
-98.896266
-97.928513
-96.864624
-95.9018
-94.904582
-93.852641
-92.916107
-91.905523
-90.877268
-89.895894
-88.899663
-87.880493
-86.892782
-85.89945
-84.908442
-83.879166
-82.943186
-81.84875
-80.877563
-79.910024
-78.901627
-77.927856
-76.87001
-75.880351
-74.907433
-73.897985
-72.921361
-71.849909
-70.8912
-69.921499
-68.891357
-67.922084
-66.904022
-65.885282
-64.89433
-63.918789
-62.90611
-61.880472
-60.903057
-59.886036
-58.896599
-57.918621
-56.891137
-55.907199
-54.906644
-53.890372
-52.892658
-51.909094
-50.921822
-49.908295
-48.848292
-47.898127
-46.920614
-45.866247
-44.924263
-43.874374
-42.888128
-41.885429
-40.884059
-39.922778
-38.889219
-37.856489
-36.908051
-35.884677
-34.918612
-33.892583
-32.900225
-31.907338
-30.885201
-29.895988
-28.900762
-27.913986
-26.903173
-25.892545
-24.869073
-23.895788
-22.936671
-21.87524
-20.893344
-19.922252
-18.911345
-17.905713
-16.914745
-15.842325
-14.900955
-13.896993
-12.901456
-11.880948
-10.888375
-9.9279003
-8.8677022
-7.9135542
-6.920579
-5.8758747
-4.8957086
-3.8937516
-2.9146038
-1.8588809
-0.89822094
0.087539179
1.1523243
2.1007582
3.0874275
4.1329401
5.0975803
5.9992514
7.2482371
8.2462149
9.1146561
10.097355
11.118722
12.085199
13.114198
14.117892
15.087443
16.112115
17.084635
18.144978
19.110761
20.100753
21.123617
22.099906
23.108387
24.081509
25.097223
26.13517
27.100042
28.097616
29.118073
30.07768
31.093498
32.119128
33.117322
34.111532
35.102832
36.111242
37.09318
38.128268
39.104309
40.099337
41.094531
42.089498
43.091324
44.113505
45.098076
46.111824
47.102542
48.110886
49.087779
50.08831
51.093365
52.097785
53.134052
54.09721
55.087952
56.11786
57.097752
58.11367
59.102033
60.095235
61.101643
62.101526
63.090819
64.103096
65.092616
66.144079
67.07048
68.141711
69.116208
70.102654
71.123159
72.0818
73.086561
74.116376
75.106628
76.129344
77.073898
78.105784
79.125763
80.08843
81.109858
82.091649
83.103928
84.121002
85.084808
86.13854
87.096751
88.103938
89.11027
90.107035
91.083989
92.110082
93.096583
94.11673
95.09698
96.073583
97.102442
98.111023
99.093018
100.10109
101.11099
102.12431
103.08611
104.09319
105.07145
106.12406
107.08503
108.09779
109.10323
110.07088
111.13834
112.09055
113.09469
114.10529
115.09077
116.10549
117.07079
118.10347
119.09999
120.08127
121.10665
122.10324
123.06556
124.14418
125.09231
126.09147
127.07705
128.11975
129.08563
130.09129
131.12808
132.10674
133.06856
134.12109
135.07311
136.11696
137.1284
138.07613
139.12357
140.07252
141.1094
142.11498
143.07179
144.11751
145.05987
146.11526
147.10908
148.11415
149.12244
150.09091
151.11814
152.08264
153.08487
154.10328
155.11034
156.09927
157.09785
158.11049
159.10776
160.06743
161.12573
162.09904
163.08158
164.09189
165.08017
166.11096
167.12078
168.09637
169.09156
170.06474
171.11276
172.08505
173.08753
174.09754
175.06236
176.11614
177.07417
178.09551
179.10976
180.07898
181.07704
182.07811
183.12728
184.08655
185.06837
186.09342
187.1036
188.0847
189.09
190.07216
191.10671
192.07516
193.08574
194.10797
195.0766
196.10044
197.06446
198.11702
Time Data
0
0.3
0.6
0.9
1.2
1.5
1.8
2.1
2.4
2.7
3
3.3
3.6
3.9
4.2
4.5
4.8
5.1
5.4
5.7
6
6.3
6.6
6.9
7.2
7.5
7.8
8.1
8.4
8.7
9
9.3
9.6
9.9
10.2
10.5
10.8
11.1
11.4
11.7
12
12.3
12.6
12.9
13.2
13.5
13.8
14.1
14.4
14.7
15
15.3
15.6
15.9
16.2
16.5
16.8
17.1
17.4
17.7
18
18.3
18.6
18.9
19.2
19.5
19.8
20.1
20.4
20.7
21
21.3
21.6
21.9
22.2
22.5
22.8
23.1
23.4
23.7
24
24.3
24.6
24.9
25.2
25.5
25.8
26.1
26.4
26.7
27
27.3
27.6
27.9
28.2
28.5
28.8
29.1
29.4
29.7
30.0000000000001
30.3000000000001
30.6000000000001
30.9000000000001
31.2000000000001
31.5000000000001
31.8000000000001
32.1000000000001
32.4
32.7
33
33.3
33.6
33.9
34.2
34.5
34.8
35.1
35.4
35.7
36
36.3
36.6
36.9
37.2
37.5
37.8
38.1
38.4
38.7
39
39.3
39.6
39.9
40.2
40.5
40.8
41.1
41.4
41.7
42
42.3
42.6
42.8999999999999
43.1999999999999
43.4999999999999
43.7999999999999
44.0999999999999
44.3999999999999
44.6999999999999
44.9999999999999
45.2999999999999
45.5999999999999
45.8999999999999
46.1999999999999
46.4999999999999
46.7999999999999
47.0999999999999
47.3999999999999
47.6999999999999
47.9999999999999
48.2999999999999
48.5999999999999
48.8999999999999
49.1999999999999
49.4999999999999
49.7999999999999
50.0999999999999
50.3999999999999
50.6999999999999
50.9999999999999
51.2999999999999
51.5999999999999
51.8999999999999
52.1999999999999
52.4999999999999
52.7999999999999
53.0999999999999
53.3999999999998
53.6999999999998
53.9999999999998
54.2999999999998
54.5999999999998
54.8999999999998
55.1999999999998
55.4999999999998
55.7999999999998
56.0999999999998
56.3999999999998
56.6999999999998
56.9999999999998
57.2999999999998
57.5999999999998
57.8999999999998
58.1999999999998
58.4999999999998
58.7999999999998
59.0999999999998
59.3999999999998
59.6999999999998
59.9999999999998
60.2999999999998
60.5999999999998
60.8999999999998
61.1999999999998
61.4999999999998
61.7999999999998
62.0999999999998
62.3999999999998
62.6999999999998
62.9999999999998
63.2999999999998
63.5999999999998
63.8999999999998
64.1999999999997
64.4999999999997
64.7999999999997
65.0999999999997
65.3999999999997
65.6999999999997
65.9999999999997
66.2999999999997
66.5999999999997
66.8999999999997
67.1999999999997
67.4999999999997
67.7999999999997
68.0999999999997
68.3999999999997
68.6999999999997
68.9999999999997
69.2999999999997
69.5999999999997
69.8999999999997
70.1999999999997
70.4999999999997
70.7999999999997
71.0999999999997
71.3999999999997
71.6999999999997
71.9999999999997
72.2999999999997
72.5999999999997
72.8999999999997
73.1999999999997
73.4999999999997
73.7999999999997
74.0999999999997
74.3999999999997
74.6999999999996
74.9999999999996
75.2999999999996
75.5999999999996
75.8999999999996
76.1999999999996
76.4999999999996
76.7999999999996
77.0999999999996
77.3999999999996
77.6999999999996
77.9999999999996
78.2999999999996
78.5999999999996
78.8999999999996
79.1999999999996
79.4999999999996
79.7999999999996
80.0999999999996
80.3999999999996
80.6999999999996
80.9999999999996
81.2999999999996
81.5999999999996
81.8999999999996
82.1999999999996
82.4999999999996
82.7999999999996
83.0999999999996
83.3999999999996
83.6999999999996
83.9999999999996
84.2999999999996
84.5999999999996
84.8999999999996
85.1999999999995
85.4999999999995
85.7999999999995
86.0999999999995
86.3999999999995
86.6999999999995
86.9999999999995
87.2999999999995
87.5999999999995
87.8999999999995
88.1999999999995
88.4999999999995
88.7999999999995
89.0999999999995
89.3999999999995
89.6999999999995
89.9999999999995
90.2999999999995
90.5999999999995
90.8999999999995
91.1999999999995
91.4999999999995
91.7999999999995
92.0999999999995
92.3999999999995
92.6999999999995
92.9999999999995
93.2999999999995
93.5999999999995
93.8999999999995
94.1999999999995
94.4999999999995
94.7999999999995
95.0999999999995
95.3999999999995
95.6999999999994
95.9999999999994
96.2999999999994
96.5999999999994
96.8999999999994
97.1999999999994
97.4999999999994
97.7999999999994
98.0999999999994
98.3999999999994
98.6999999999994
98.9999999999994
99.2999999999994
99.5999999999994
99.8999999999994
100.199999999999
100.499999999999
100.799999999999
101.099999999999
101.399999999999
101.699999999999
101.999999999999
102.299999999999
102.599999999999
102.899999999999
103.199999999999
103.499999999999
103.799999999999
104.099999999999
104.399999999999
104.699999999999
104.999999999999
105.299999999999
105.599999999999
105.899999999999
106.199999999999
106.499999999999
106.799999999999
107.099999999999
107.399999999999
107.699999999999
107.999999999999
108.299999999999
108.599999999999
108.899999999999
109.199999999999
109.499999999999
109.799999999999
110.099999999999
110.399999999999
110.699999999999
110.999999999999
111.299999999999
111.599999999999
111.899999999999
112.199999999999
112.499999999999
112.799999999999
113.099999999999
113.399999999999
113.699999999999
113.999999999999
114.299999999999
114.599999999999
114.899999999999
115.199999999999
115.499999999999
115.799999999999
116.099999999999
116.399999999999
116.699999999999
116.999999999999
117.299999999999
117.599999999999
117.899999999999
118.199999999999
118.499999999999
118.799999999999
119.099999999999
119.399999999999
119.699999999999
119.999999999999
120.299999999999
120.599999999999
120.899999999999
121.199999999999
121.499999999999
121.799999999999
122.099999999999
122.399999999999
122.699999999999
122.999999999999
123.299999999999
123.599999999999
123.899999999999
124.199999999999
124.499999999999
124.799999999999
125.099999999999
125.399999999999
125.699999999999
125.999999999999
126.299999999999
126.599999999999
126.899999999999
127.199999999999
127.499999999999
127.799999999999
128.099999999999
128.399999999999
128.699999999999
128.999999999999
129.299999999999
129.599999999999
129.899999999999
130.199999999999
130.499999999999
130.799999999999
131.099999999999
131.399999999999
131.699999999999
131.999999999999
132.299999999999
132.599999999999
132.899999999999
133.199999999999
133.499999999999
133.799999999999
134.099999999999
134.399999999999
134.699999999999
134.999999999999
135.299999999999
135.599999999999
135.899999999999
136.199999999999
136.499999999999
136.799999999999
137.099999999999
137.399999999999
137.7
138
138.3
138.6
138.9
139.2
139.5
139.8
140.1
140.4
140.7
141
141.3
141.6
141.9
142.2
142.5
142.8
143.1
143.4
143.7
144
144.3
144.6
144.9
145.2
145.5
145.8
146.1
146.4
146.7
147
147.3
147.6
147.9
148.2
148.5
148.8
149.1
149.4
149.7
150
150.3
150.6
150.9
151.2
151.5
151.8
152.1
152.4
152.7
153
153.3
153.6
153.9
154.2
154.5
154.8
155.1
155.4
155.7
156
156.3
156.6
156.9
157.2
157.5
157.8
158.1
158.4
158.7
159
159.3
159.6
159.9
160.2
160.5
160.8
161.1
161.4
161.7
162
162.3
162.6
162.9
163.2
163.5
163.8
164.100000000001
164.400000000001
164.700000000001
165.000000000001
165.300000000001
165.600000000001
165.900000000001
166.200000000001
166.500000000001
166.800000000001
167.100000000001
167.400000000001
167.700000000001
168.000000000001
168.300000000001
168.600000000001
168.900000000001
169.200000000001
169.500000000001
169.800000000001
170.100000000001
170.400000000001
170.700000000001
171.000000000001
171.300000000001
171.600000000001
171.900000000001
172.200000000001
172.500000000001
172.800000000001
173.100000000001
173.400000000001
173.700000000001
174.000000000001
174.300000000001
174.600000000001
174.900000000001
175.200000000001
175.500000000001
175.800000000001
176.100000000001
176.400000000001
176.700000000001
177.000000000001
177.300000000001
177.600000000001
177.900000000001
178.200000000001
178.500000000001
178.800000000001
179.100000000001
179.400000000001
179.700000000001
180.000000000001
180.300000000001
180.600000000001
180.900000000001
181.200000000001
181.500000000001
181.800000000001
182.100000000001
182.400000000001
182.700000000001
183.000000000001
183.300000000001
183.600000000001
183.900000000001
184.200000000001
184.500000000001
184.800000000001
185.100000000001
185.400000000001
185.700000000001
186.000000000001
186.300000000001
186.600000000001
186.900000000001
187.200000000001
187.500000000001
187.800000000001
188.100000000001
188.400000000001
188.700000000001
189.000000000001
189.300000000001
189.600000000001
189.900000000001
190.200000000001
190.500000000002
190.800000000002
191.100000000002
191.400000000002
191.700000000002
192.000000000002
192.300000000002
192.600000000002
192.900000000002
193.200000000002
193.500000000002
193.800000000002
194.100000000002
194.400000000002
194.700000000002
195.000000000002
195.300000000002
195.600000000002
195.900000000002
196.200000000002
196.500000000002
196.800000000002
197.100000000002
197.400000000002
197.700000000002
198.000000000002
198.300000000002
198.600000000002
198.900000000002
199.200000000002
199.500000000002
199.800000000002
200.100000000002
200.400000000002
200.700000000002
201.000000000002
201.300000000002
201.600000000002
201.900000000002
202.200000000002
202.500000000002
202.800000000002
203.100000000002
203.400000000002
203.700000000002
204.000000000002
204.300000000002
204.600000000002
204.900000000002
205.200000000002
205.500000000002
205.800000000002
206.100000000002
206.400000000002
206.700000000002
207.000000000002
207.300000000002
207.600000000002
207.900000000002
208.200000000002
208.500000000002
208.800000000002
209.100000000002
209.400000000002
209.700000000002
210.000000000002
210.300000000002
210.600000000002
210.900000000002
211.200000000002
211.500000000002
211.800000000002
212.100000000002
212.400000000002
212.700000000002
213.000000000002
213.300000000002
213.600000000002
213.900000000002
214.200000000002
214.500000000002
214.800000000002
215.100000000002
215.400000000002
215.700000000002
216.000000000002
216.300000000002
216.600000000002
216.900000000003
217.200000000003
217.500000000003
217.800000000003
218.100000000003
218.400000000003
218.700000000003
219.000000000003
219.300000000003
219.600000000003
219.900000000003
220.200000000003
220.500000000003
220.800000000003
221.100000000003
221.400000000003
221.700000000003
222.000000000003
222.300000000003
222.600000000003
222.900000000003
223.200000000003
223.500000000003
223.800000000003
224.100000000003
224.400000000003
224.700000000003
225.000000000003
225.300000000003
225.600000000003
225.900000000003
226.200000000003
226.500000000003
226.800000000003
227.100000000003
227.400000000003
227.700000000003
228.000000000003
228.300000000003
228.600000000003
228.900000000003
229.200000000003
229.500000000003
229.800000000003
230.100000000003
230.400000000003
230.700000000003
231.000000000003
231.300000000003
231.600000000003
231.900000000003
232.200000000003
232.500000000003
232.800000000003
233.100000000003
233.400000000003
233.700000000003
234.000000000003
234.300000000003
234.600000000003
234.900000000003
235.200000000003
235.500000000003
235.800000000003
236.100000000003
236.400000000003
236.700000000003
237.000000000003
237.300000000003
237.600000000003
237.900000000003
238.200000000003
238.500000000003
238.800000000003
239.100000000003
239.400000000003
239.700000000003
240.000000000003
Temperature Data
199.968
199.974
199.968
199.971
199.971
199.97
199.97
199.976
199.978
199.978
199.972
199.972
199.976
199.977
199.977
199.979
199.979
199.975
199.973
199.973
199.978
199.978
199.975
199.98
199.98
199.975
199.975
199.978
199.98
199.98
199.978
199.978
199.979
199.973
199.973
199.977
199.977
199.976
199.98
199.98
199.98
199.979
199.977
199.981
199.981
199.976
199.978
199.979
199.978
199.978
199.978
199.978
199.978
199.982
199.982
199.983
199.983
199.985
199.986
199.986
199.976
199.976
199.98
199.98
199.98
199.979
199.979
199.978
199.973
199.973
199.976
199.976
199.976
199.974
199.974
199.975
199.975
199.972
199.973
199.975
199.975
199.978
199.977
199.977
199.977
199.978
199.978
199.98
199.983
199.979
199.981
199.981
199.981
199.984
199.983
199.982
199.982
199.983
199.981
199.981
199.982
199.982
199.983
199.983
199.983
199.98
199.979
199.981
199.981
199.984
199.977
199.98
199.98
199.978
199.979
199.978
199.98
199.977
199.977
199.977
199.979
199.979
199.971
199.971
199.974
199.977
199.977
199.979
199.979
199.976
199.973
199.973
199.976
199.973
199.981
199.978
199.978
199.974
199.974
199.975
199.979
199.979
199.981
199.981
199.978
199.978
199.978
199.977
199.977
199.976
199.974
199.979
199.981
199.977
199.98
199.978
199.978
199.976
199.976
199.979
199.975
199.975
199.978
199.978
199.976
199.976
199.976
199.977
199.977
199.978
199.978
199.98
199.982
199.982
199.982
199.98
199.983
199.977
199.98
199.978
199.978
199.983
199.978
199.978
199.982
199.978
199.98
199.981
199.981
199.981
199.981
199.983
199.981
199.981
199.98
199.98
199.983
199.983
199.983
199.98
199.98
199.978
199.977
199.977
199.976
199.976
199.977
199.975
199.975
199.975
199.975
199.974
199.974
199.974
199.973
199.973
199.971
199.969
199.969
199.975
199.975
199.976
199.976
199.976
199.976
199.976
199.976
199.975
199.974
199.978
199.978
199.976
199.973
199.976
199.975
199.975
199.977
199.973
199.975
199.968
199.968
199.971
199.973
199.974
199.973
199.971
199.971
199.97
199.97
199.97
199.97
199.97
199.971
199.971
199.966
199.97
199.97
199.971
199.971
199.969
199.969
199.967
199.966
199.966
199.97
199.97
199.969
199.97
199.97
199.97
199.97
199.972
199.967
199.967
199.97
199.97
199.971
199.967
199.97
199.97
199.97
199.97
199.967
199.97
199.969
199.969
199.973
199.97
199.97
199.974
199.97
199.97
199.968
199.974
199.974
199.97
199.97
199.971
199.971
199.971
199.97
199.97
199.969
199.969
199.966
199.972
199.971
199.973
199.973
199.973
199.972
199.971
199.97
199.97
199.972
199.972
199.972
199.971
199.971
199.971
199.97
199.972
199.968
199.968
199.971
199.971
199.971
199.971
199.971
199.972
199.973
199.973
199.972
199.972
199.974
199.976
199.976
199.976
199.976
199.971
199.969
199.969
199.971
199.971
199.974
199.971
199.971
199.972
199.972
199.973
199.972
199.972
199.973
199.973
199.97
199.97
199.97
199.968
199.971
199.971
199.969
199.972
199.968
199.971
199.971
199.966
199.969
199.967
199.972
199.97
199.971
199.971
199.973
199.974
199.974
199.97
199.97
199.972
199.976
199.971
199.974
199.974
199.972
199.969
199.974
199.971
199.971
199.971
199.971
199.971
199.97
199.967
199.967
199.968
199.968
199.969
199.97
199.97
199.967
199.967
199.968
199.969
199.972
199.968
199.971
199.967
199.969
199.968
199.97
199.966
199.968
199.97
199.968
199.968
199.968
199.97
199.97
199.967
199.968
199.968
199.969
199.972
199.966
199.971
199.971
199.969
199.969
199.969
199.968
199.968
199.965
199.969
199.969
199.967
199.967
199.968
199.967
199.969
199.964
199.964
199.969
199.966
199.966
199.964
199.967
199.966
199.965
199.965
199.967
199.967
199.969
199.969
199.969
199.963
199.963
199.968
199.965
199.965
199.964
199.964
199.963
199.966
199.966
199.963
199.963
199.966
199.968
199.968
199.963
199.963
199.963
199.964
199.971
199.972
199.969
199.965
199.97
199.97
199.972
199.972
199.971
199.975
199.972
199.974
199.974
199.972
199.974
199.977
199.977
199.977
199.977
199.975
199.975
199.974
199.975
199.973
199.977
199.977
199.978
199.974
199.976
199.974
199.974
199.977
199.977
199.977
199.977
199.977
199.978
199.978
199.976
199.976
199.976
199.975
199.975
199.977
199.98
199.98
199.976
199.979
199.974
199.979
199.979
199.975
199.975
199.977
199.974
199.974
199.979
199.979
199.979
199.978
199.978
199.98
199.977
199.978
199.977
199.977
199.98
199.977
199.977
199.977
199.977
199.98
199.98
199.981
199.981
199.981
199.98
199.982
199.982
199.981
199.983
199.981
199.976
199.976
199.983
199.98
199.981
199.983
199.983
199.984
199.984
199.985
199.98
199.98
199.982
199.982
199.98
199.987
199.987
199.983
199.983
199.982
199.982
199.982
199.986
199.986
199.984
199.984
199.982
199.98
199.985
199.985
199.985
199.984
199.986
199.986
199.983
199.983
199.981
199.982
199.982
199.982
199.982
199.983
199.986
199.986
199.981
199.981
199.981
199.987
199.985
199.986
199.985
199.985
199.982
199.988
199.987
199.987
199.982
199.985
199.985
199.986
199.987
199.986
199.987
199.987
199.986
199.986
199.983
199.983
199.984
199.982
199.984
199.983
199.981
199.981
199.981
199.981
199.981
199.984
199.984
199.985
199.985
199.981
199.981
199.981
199.985
199.983
199.982
199.981
199.986
199.983
199.986
199.985
199.986
199.986
199.983
199.983
199.983
199.985
199.985
199.984
199.984
199.989
199.989
199.983
199.981
199.981
199.987
199.987
199.991
199.987
199.987
199.989
199.987
199.988
199.985
199.985
199.984
199.986
199.986
199.986
199.986
199.984
199.985
199.985
199.986
199.983
199.986
199.982
199.982
199.986
199.986
199.986
199.983
199.987
199.984
199.986
199.984
199.983
199.981
199.983
199.984
199.983
199.984
199.985
199.981
199.984
199.984
199.984
199.983
199.984
199.985
199.982
199.984
199.984
199.982
199.982
199.983
199.986
199.986
199.985
199.985
199.988
199.987
199.987
199.985
199.985
199.989
199.986
199.986
199.986
199.983
199.983
199.986
199.986
199.981
199.981
199.978
199.982
199.982
199.982
199.981
199.981
199.981
199.981
199.983
199.985
199.987
199.982
199.985
199.985
199.983
199.983
199.979
199.983
199.983
199.981
199.981
199.981
199.981
199.983
199.983
199.983
199.982
199.982
199.98
199.981
199.981
199.982
199.982
199.984
199.979
199.986
199.982
199.982
199.987
199.987
199.992
199.985
199.992
199.989
199.99
199.99
199.987
199.987
199.99
199.988
199.986
199.989
199.989
199.989
199.989
199.991
199.992
199.992
199.99
199.99
199.991
199.991
199.989
199.995
199.995
199.986
199.991
199.992
199.988
199.988
199.989
Angle Data
0
0
0
0
0
0
0
0
0
0
0
0
0
0
0
0
0
0
0
0
0
0
0
0
0
0
0
0
0
0
0
0
0
0
0
0
0
0
0
0
0
0
0
0
0
0
0
0
0
0
0
0
0
0
0
0
0
0
0
0
0
0
0
0
0
0
0
0
0
0
0
0
0
0
0
0
0
0
0
0
0
0
0
0
0
0
0
0
0
0
0
0
0
0
0
0
0
0
0
0
0
0
0
0
0
0
0
0
0
0
0
0
0
0
0
0
0
0
0
0
0
0
0
0
0
0
0
0
0
0
0
0
0
0
0
0
0
0
0
0
0
0
0
0
0
0
0
0
0
0
0
0
0
0
0
0
0
0
0
0
0
0
0
0
0
0
0
0
0
0
0
0
0
0
0
0
0
0
0
0
0
0
0
0
0
0
0
0
0
0
0
0
0
0
0
0
0
0
0
0
0
0
0
0
0
0
0
0
0
0
0
0
0
0
0
0
0
0
0
0
0
0
0
0
0
0
0
0
0
0
0
0
0
0
0
0
0
0
0
0
0
0
0
0
0
0
0
0
0
0
0
0
0
0
0
0
0
0
0
0
0
0
0
0
0
0
0
0
0
0
0
0
0
0
0
0
0
0
0
0
0
0
0
0
0
0
0
0
0
0
0
0
0
0
0
0
0
0
0
0
0
0
0
0
0
0
0
0
0
0
0
0
0
0
0
0
0
0
0
0
0
0
0
0
0
0
0
0
0
0
0
0
0
0
0
0
0
0
0
0
0
0
0
0
0
0
0
0
0
0
0
0
0
0
0
0
0
0
0
0
0
0
0
0
0
0
0
0
0
0
0
0
0
0
0
0
0
0
0
0
0
0
0
0
0
0
0
0
0
0
0
0
0
0
0
0
0
0
0
0
0
0
0
0
0
0
0
0
0
0
0
0
0
0
0
0
0
0
0
0
0
0
0
0
0
0
0
0
0
0
0
0
0
0
0
0
0
0
0
0
0
0
0
0
0
0
0
0
0
0
0
0
0
0
0
0
0
0
0
0
0
0
0
0
0
0
0
0
0
0
0
0
0
0
0
0
0
0
0
0
0
0
0
0
0
0
0
0
0
0
0
0
0
0
0
0
0
0
0
0
0
0
0
0
0
0
0
0
0
0
0
0
0
0
0
0
0
0
0
0
0
0
0
0
0
0
0
0
0
0
0
0
0
0
0
0
0
0
0
0
0
0
0
0
0
0
0
0
0
0
0
0
0
0
0
0
0
0
0
0
0
0
0
0
0
0
0
0
0
0
0
0
0
0
0
0
0
0
0
0
0
0
0
0
0
0
0
0
0
0
0
0
0
0
0
0
0
0
0
0
0
0
0
0
0
0
0
0
0
0
0
0
0
0
0
0
0
0
0
0
0
0
0
0
0
0
0
0
0
0
0
0
0
0
0
0
0
0
0
0
0
0
0
0
0
0
0
0
0
0
0
0
0
0
0
0
0
0
0
0
0
0
0
0
0
0
0
0
0
0
0
0
0
0
0
0
0
0
0
0
0
0
0
0
0
0
0
0
0
0
0
0
0
0
0
0
0
0
0
0
0
0
0
0
0
0
0
0
0
0
0
0
0
0
0
0
0
0
0
0
0
0
0
0
0
0
0
0
0
0
0
0
0
0
0
0
0
0
0
0
0
0
0
0
0
0
0
0
0
0
0
0
0
0
0
0
0
0
0
0
0
0
0
0
0
0
0
0
0
0
0
0
0
0
0
0
0
0
0
0
0
0
0
0
0
0
0
0
0
0
0
0
0
0
0
0
0
0
0
0
0
Bx Data
0
0
0
0
0
0
0
0
0
0
0
0
0
0
0
0
0
0
0
0
0
0
0
0
0
0
0
0
0
0
0
0
0
0
0
0
0
0
0
0
0
0
0
0
0
0
0
0
0
0
0
0
0
0
0
0
0
0
0
0
0
0
0
0
0
0
0
0
0
0
0
0
0
0
0
0
0
0
0
0
0
0
0
0
0
0
0
0
0
0
0
0
0
0
0
0
0
0
0
0
0
0
0
0
0
0
0
0
0
0
0
0
0
0
0
0
0
0
0
0
0
0
0
0
0
0
0
0
0
0
0
0
0
0
0
0
0
0
0
0
0
0
0
0
0
0
0
0
0
0
0
0
0
0
0
0
0
0
0
0
0
0
0
0
0
0
0
0
0
0
0
0
0
0
0
0
0
0
0
0
0
0
0
0
0
0
0
0
0
0
0
0
0
0
0
0
0
0
0
0
0
0
0
0
0
0
0
0
0
0
0
0
0
0
0
0
0
0
0
0
0
0
0
0
0
0
0
0
0
0
0
0
0
0
0
0
0
0
0
0
0
0
0
0
0
0
0
0
0
0
0
0
0
0
0
0
0
0
0
0
0
0
0
0
0
0
0
0
0
0
0
0
0
0
0
0
0
0
0
0
0
0
0
0
0
0
0
0
0
0
0
0
0
0
0
0
0
0
0
0
0
0
0
0
0
0
0
0
0
0
0
0
0
0
0
0
0
0
0
0
0
0
0
0
0
0
0
0
0
0
0
0
0
0
0
0
0
0
0
0
0
0
0
0
0
0
0
0
0
0
0
0
0
0
0
0
0
0
0
0
0
0
0
0
0
0
0
0
0
0
0
0
0
0
0
0
0
0
0
0
0
0
0
0
0
0
0
0
0
0
0
0
0
0
0
0
0
0
0
0
0
0
0
0
0
0
0
0
0
0
0
0
0
0
0
0
0
0
0
0
0
0
0
0
0
0
0
0
0
0
0
0
0
0
0
0
0
0
0
0
0
0
0
0
0
0
0
0
0
0
0
0
0
0
0
0
0
0
0
0
0
0
0
0
0
0
0
0
0
0
0
0
0
0
0
0
0
0
0
0
0
0
0
0
0
0
0
0
0
0
0
0
0
0
0
0
0
0
0
0
0
0
0
0
0
0
0
0
0
0
0
0
0
0
0
0
0
0
0
0
0
0
0
0
0
0
0
0
0
0
0
0
0
0
0
0
0
0
0
0
0
0
0
0
0
0
0
0
0
0
0
0
0
0
0
0
0
0
0
0
0
0
0
0
0
0
0
0
0
0
0
0
0
0
0
0
0
0
0
0
0
0
0
0
0
0
0
0
0
0
0
0
0
0
0
0
0
0
0
0
0
0
0
0
0
0
0
0
0
0
0
0
0
0
0
0
0
0
0
0
0
0
0
0
0
0
0
0
0
0
0
0
0
0
0
0
0
0
0
0
0
0
0
0
0
0
0
0
0
0
0
0
0
0
0
0
0
0
0
0
0
0
0
0
0
0
0
0
0
0
0
0
0
0
0
0
0
0
0
0
0
0
0
0
0
0
0
0
0
0
0
0
0
0
0
0
0
0
0
0
0
0
0
0
0
0
0
0
0
0
0
0
0
0
0
0
0
0
0
0
0
0
0
0
0
0
0
0
0
0
0
0
0
0
0
0
0
0
0
0
0
0
0
0
0
0
0
0
0
0
0
0
0
0
0
0
0
0
0
0
0
0
0
0
0
0
0
0
0
0
0
0
0
0
0
0
0
0
0
0
0
0
0
0
0
0
0
0
0
0
0
0
0
0
0
0
0
0
0
0
0
Hint Data
0
0
0
0
0
0
0
0
0
0
0
0
0
0
0
0
0
0
0
0
0
0
0
0
0
0
0
0
0
0
0
0
0
0
0
0
0
0
0
0
0
0
0
0
0
0
0
0
0
0
0
0
0
0
0
0
0
0
0
0
0
0
0
0
0
0
0
0
0
0
0
0
0
0
0
0
0
0
0
0
0
0
0
0
0
0
0
0
0
0
0
0
0
0
0
0
0
0
0
0
0
0
0
0
0
0
0
0
0
0
0
0
0
0
0
0
0
0
0
0
0
0
0
0
0
0
0
0
0
0
0
0
0
0
0
0
0
0
0
0
0
0
0
0
0
0
0
0
0
0
0
0
0
0
0
0
0
0
0
0
0
0
0
0
0
0
0
0
0
0
0
0
0
0
0
0
0
0
0
0
0
0
0
0
0
0
0
0
0
0
0
0
0
0
0
0
0
0
0
0
0
0
0
0
0
0
0
0
0
0
0
0
0
0
0
0
0
0
0
0
0
0
0
0
0
0
0
0
0
0
0
0
0
0
0
0
0
0
0
0
0
0
0
0
0
0
0
0
0
0
0
0
0
0
0
0
0
0
0
0
0
0
0
0
0
0
0
0
0
0
0
0
0
0
0
0
0
0
0
0
0
0
0
0
0
0
0
0
0
0
0
0
0
0
0
0
0
0
0
0
0
0
0
0
0
0
0
0
0
0
0
0
0
0
0
0
0
0
0
0
0
0
0
0
0
0
0
0
0
0
0
0
0
0
0
0
0
0
0
0
0
0
0
0
0
0
0
0
0
0
0
0
0
0
0
0
0
0
0
0
0
0
0
0
0
0
0
0
0
0
0
0
0
0
0
0
0
0
0
0
0
0
0
0
0
0
0
0
0
0
0
0
0
0
0
0
0
0
0
0
0
0
0
0
0
0
0
0
0
0
0
0
0
0
0
0
0
0
0
0
0
0
0
0
0
0
0
0
0
0
0
0
0
0
0
0
0
0
0
0
0
0
0
0
0
0
0
0
0
0
0
0
0
0
0
0
0
0
0
0
0
0
0
0
0
0
0
0
0
0
0
0
0
0
0
0
0
0
0
0
0
0
0
0
0
0
0
0
0
0
0
0
0
0
0
0
0
0
0
0
0
0
0
0
0
0
0
0
0
0
0
0
0
0
0
0
0
0
0
0
0
0
0
0
0
0
0
0
0
0
0
0
0
0
0
0
0
0
0
0
0
0
0
0
0
0
0
0
0
0
0
0
0
0
0
0
0
0
0
0
0
0
0
0
0
0
0
0
0
0
0
0
0
0
0
0
0
0
0
0
0
0
0
0
0
0
0
0
0
0
0
0
0
0
0
0
0
0
0
0
0
0
0
0
0
0
0
0
0
0
0
0
0
0
0
0
0
0
0
0
0
0
0
0
0
0
0
0
0
0
0
0
0
0
0
0
0
0
0
0
0
0
0
0
0
0
0
0
0
0
0
0
0
0
0
0
0
0
0
0
0
0
0
0
0
0
0
0
0
0
0
0
0
0
0
0
0
0
0
0
0
0
0
0
0
0
0
0
0
0
0
0
0
0
0
0
0
0
0
0
0
0
0
0
0
0
0
0
0
0
0
0
0
0
0
0
0
0
0
0
0
0
0
0
0
0
0
0
0
0
0
0
0
0
0
0
0
0
0
0
0
0
0
0
0
0
0
0
0
0
0
0
0
0
0
0
0
0
0
0
0
0
0
0
0
0
0
0
0
0
0
0
0
0
0
0
0
0
0
0
0
0
0
0
0
0
0
0
0
0
0
0
0
0
0
0
0
0
0
0
0
Torque Data
0.171595603943786
0.303922758764898
0.3591111180844
0.244438619287504
0.236977636365375
0.279151802249375
0.246917517141014
0.350050197374928
0.293219176045068
0.30992976417988
0.25386350577648
0.2525968279608
0.191423278024524
0.297481188305656
0.29592331362022
0.170716124702613
0.251809298712696
0.2445381658056
0.191120553799945
0.270757071002852
0.360830901828397
0.273460112405298
0.31158358017016
0.259080067219752
0.257663478136508
0.21721605102428
0.243703680406461
0.220181307601396
0.284676863948655
0.22860898998768
0.2272357676808
0.1882716261354
0.24065729568386
0.255171645072981
0.195536404188486
0.367684032044142
0.240158833328136
0.212745095401767
0.268143864091855
0.251184324041184
0.269939834299656
0.288542495540928
0.21129102408384
0.1749573365172
0.288079835210391
0.217148475962602
0.225581231761766
0.224069578516516
0.140374330135993
0.298153385864868
0.20060941813488
0.227761641523143
0.23564910977472
0.215342056730506
0.227883976920696
0.226237085591928
0.174293739565125
0.186739176880773
0.1492209366165
0.211113798054446
0.222948599701836
0.234736906928304
0.18461727692592
0.200748486841584
0.19493703234489
0.189223111128109
0.17506076507095
0.148305347756
0.176619190254
0.258792123000582
0.132564910345686
0.197357802536349
0.17126184484536
0.234730323142188
0.265042559163505
0.187205507542928
0.209478319793532
0.192072237124155
0.16329816483432
0.165858425464512
0.164460162155568
0.208691940296263
0.180513930535029
0.186518892355288
0.199742280690678
0.15766221198132
0.167223183742738
0.18736403608312
0.146409700813955
0.173460190604409
0.164893218696668
0.1216705712262
0.151580011216582
0.167261606167269
0.189325423650152
0.154063516576164
0.126116129776875
0.121568574694743
0.100888871481497
0.212698858657115
0.143583629295645
0.164314786815675
0.215811324347202
0.176500745373064
0.153214965444001
0.200111394110364
0.168042888858153
0.201904564394617
0.135174736984064
0.151097086856071
0.181056718606702
0.184725215097677
0.160154234210387
0.150096532434011
0.197783023530048
0.146600641563856
0.139559847908448
0.182931738829252
0.165058744022365
0.183803646606003
0.179005245266912
0.13891683821613
0.159522114418212
0.177249990176098
0.121515470008996
0.139086459067378
0.142011556089662
0.154090700436425
0.152002045723674
0.106738432711512
0.183673873839079
0.150119011792245
0.091383658710624
0.14803700145461
0.154253233407127
0.162280267949276
0.112737723598369
0.121056896034499
0.105307850537776
0.123045000639014
8.45971416961344E-02
0.119183241289312
0.11522895025138
9.14036801921556E-02
7.90431986927446E-02
7.22977518905147E-02
6.75664473081974E-02
0.090128537872149
4.50754294753722E-02
0.062164382448075
6.90368901854736E-02
6.29598817750912E-02
0.077069505346168
7.55641431477056E-02
0.081314617169026
6.65183258546908E-02
6.65205817446142E-02
0.066402084078603
7.70666969754572E-02
5.27982209048522E-02
5.15640569412934E-02
6.15582457859328E-02
6.61114940933568E-02
6.32732492032554E-02
6.27150157615872E-02
2.82431555858604E-02
4.39506202920834E-02
5.98140362148565E-02
4.12914494118728E-02
4.31266139682792E-02
5.14922968336368E-02
4.59976165557033E-02
4.81507521927894E-02
0.03594483378063
4.56202631464602E-02
2.59749744622914E-02
2.81102570754764E-02
0.031475437677216
4.23143797192515E-02
3.15234179643478E-02
0.030767821133196
3.11380435209636E-02
2.12468162493092E-02
0.035809081884576
0.01846529408474
2.33410772480256E-02
1.67394312968696E-02
2.17519195241307E-02
2.44252420500162E-02
2.24497938947112E-02
1.51841800523765E-02
1.61842391029642E-02
1.20386961135885E-02
1.16231295300284E-02
1.15224155336905E-02
8.93835452587008E-03
8.5432608742146E-03
3.46117164008748E-03
2.49758082377326E-03
3.0802437455427E-03
7.68849838861072E-04
-5.87329312779846E-04
-2.48512931663008E-03
-2.67512482622924E-03
-4.25964078013466E-03
-7.34800598401464E-03
-8.5143955869454E-03
-6.76627426799796E-03
-6.75602182444448E-03
-1.12232180607408E-02
-1.15828320780029E-02
-0.019730939525677
-1.44332356768764E-02
-0.016457624477976
-2.79963541552125E-02
-2.18643721638615E-02
-2.68148409058127E-02
-3.26851618846137E-02
-3.36442754656738E-02
-2.73638990936276E-02
-0.020258086230368
-2.90839825070355E-02
-3.59034319497678E-02
-3.12162408964309E-02
-0.031146200512824
-3.01091487994402E-02
-3.21865932358428E-02
-3.34647686348712E-02
-3.73153790567184E-02
-4.40561094401694E-02
-0.041882850436691
-4.91785139987973E-02
-4.27798435194372E-02
-4.20540348664961E-02
-0.062435717760402
-0.038114300137
-4.82723246450232E-02
-5.65114556603163E-02
-5.80252006352325E-02
-0.064493914734903
-7.36337588840685E-02
-0.065295305633388
-8.13352692061418E-02
-4.83375866886484E-02
-7.97939129723334E-02
-7.32022190537115E-02
-0.057524269858765
-6.76388297747474E-02
-7.20458340554862E-02
-9.36051989044168E-02
-6.88720412064419E-02
-9.74394405632544E-02
-7.98403283567196E-02
-0.069723234412296
-8.62987849093552E-02
-8.96275699326805E-02
-0.103657910418256
-0.069714349109708
-7.27384732755538E-02
-9.07021349381916E-02
-6.77946167581188E-02
-0.099522797474053
-7.20080290671102E-02
-0.106754547106614
-8.03876104061646E-02
-8.97819632832765E-02
-6.42700633497971E-02
-0.10523499210595
-0.113185472036748
-0.114923730848937
-0.116571389903086
-0.098169926076089
-0.144845464494604
-0.121587506986242
-7.91021949954303E-02
-0.094308780177552
-0.131475775345962
-9.44676753949142E-02
-0.122657091285067
-9.69059192386022E-02
-0.153507422702816
-0.114624601968135
-0.159951291957818
-0.120176025015508
-8.45939592075396E-02
-0.141754336837441
-0.09474108057294
-0.153372032030356
-0.135726632617118
-0.100901479986124
-0.161478355780118
-0.140376684677665
-0.159378252237389
-0.128878464346955
-0.12729996419038
-0.110729101664407
-0.151199274632878
-0.128382310741032
-0.169760221450711
-0.159094441224231
-0.151246939993285
-0.162272795699357
-0.202633793612789
-0.178477475068841
-0.157303786587129
-0.188673249122668
-0.153678785288304
-9.78170131546214E-02
-0.224673292578335
-0.116838014839562
-0.208096252676182
-0.185466688193466
-0.1589060811591
-0.195948740727671
-0.129402662666684
-0.181324117072244
-0.168283263939702
-0.169718468109584
-0.178632292969494
-0.19140903979227
-0.162744032200296
-0.209908129353503
-0.25015934092176
-0.120277441307709
-0.113425773627701
-0.22475416168936
-0.218634041062794
-0.224400263765716
-0.12926605171662
-0.175039842382272
-0.118947662981263
-0.235582488861312
-0.12083658725689
-0.159449034855
-0.215671752657531
-0.217322797464525
-0.19744340964847
-0.211897909590654
-0.191604212048291
-0.245762301936901
-0.159098204575596
-0.182485495694937
-0.237601108748304
-0.3114349325856
-0.263645066494908
-0.292972471944516
-0.2903858236356
-0.283112257227712
-0.205551123871605
-0.362271118444203
-0.255786648521976
-0.2002180607256
-0.316820490473285
-0.27534612637832
-0.243156656545768
-0.220246943568355
-0.211849248381144
-0.247887040118688
-0.199596462922832
-0.235990632278814
-0.202135614521878
-0.279656781594565
-0.327466815878748
-0.22653090932988
-0.176125340187785
-0.224142488728704
-0.209699943299892
-0.226845216390408
-0.201658256242875
-0.277629345458665
-0.1879625402994
-0.1890414034086
-0.217340502447616
-0.147587850704893
-0.24182705665822
-0.23222779098816
-0.2335246297068
-0.201305446383096
-0.230606961729464
-0.294069874509595
-0.153546199899715
-0.280197792758766
-0.35088378533263
-0.225504676665708
-0.226733518436096
-0.268916583157796
-0.240964592784274
-0.277753280959434
-0.368360738723949
-0.25085374406304
-0.1320940229906
-0.229412590486875
-0.242676463728274
-0.329409193163688
-0.337171753840153
-0.326657365276152
-0.223023677969752
-0.267722492568492
-0.294119316515164
-0.2641570387704
-0.259222626867375
-0.349271768433922
-0.336840478855044
-0.29731759502284
-0.302078230574211
-0.319294925856756
-0.311408648074936
-0.322225962059675
-0.339050220431884
-0.251471040901566
-0.311122985244217
-0.37631183231466
-0.241496514244164
-0.240211838600766
-0.298718835049008
-0.261426289219172
-0.24823108064952
-0.188088083132586
-0.24553894969368
-0.290740141374736
-0.30068461177533
-0.207063426831976
-0.251638408218793
-0.386738135365422
-0.41856569087256
-0.208083840651243
-0.229277031423053
-0.239100770389644
-0.265364760265605
-0.24733692608196
-0.295150611394122
-0.211920890779084
-0.199814166833688
-0.263113569418224
-0.24554988232715
-0.334314480039694
-0.226803142186512
-0.199188477479625
-0.130235203597966
-0.258992450418512
-0.149271572975586
-0.255726688077104
-0.249058013624598
-0.313172262737517
-0.245962210582572
-0.25935849285036
-0.22797368715042
-0.201899110299476
-0.278876010714416
-0.28680076831941
-0.2897138545741
-0.220667272956508
-0.285924315302134
-0.302889057190356
-0.26802617532562
-0.2941849760773
-0.190156586462122
-0.276421999944364
-0.214925594656696
-0.14085659881312
-0.180416151679974
-0.210559341329666
-0.217922891918049
-0.238425623357262
-0.276184043064314
-0.230658822680496
-0.207358946904564
-0.240184835474154
-0.153193602420012
-0.194375517612676
-0.226374805653744
-0.195603457608972
-0.1899769758999
-0.225361300965008
-0.252071577619886
-0.161366493823066
-0.176125909114822
-0.226337416502484
-0.177210348413615
-0.238363627437744
-0.193751081561008
-0.192162212460172
-0.179164689761778
-0.19651712507159
-0.191180233301951
-0.170918695196052
-0.195270530906652
-0.178988354691309
-0.206398719654112
-0.179488643686828
-0.14934637733472
-0.186868479108912
-0.262005115542678
-0.131559889206
-0.216118962309173
-0.18688748534216
-0.164937721128879
-0.13005795836821
-0.17836372692072
-0.153755989450406
-0.14577015181828
-0.208453833314592
-0.161949203044108
-0.106890140187419
-0.1930099405487
-0.181675365757128
-0.16157771182428
-0.162914515144432
-0.137240773245885
-0.135871279015764
-0.172374276765118
-0.153112256707193
-0.122881682052281
-0.189344956372934
-0.145269574686502
-0.110489889858056
-0.15564818849034
-0.09447083073804
-0.106657878818123
-0.152928182934176
-0.1665217074885
-0.120838341927157
-0.165117635095066
-0.155509339108066
-0.138726553621138
-0.107519797188223
-0.101311195355544
-7.14372952292206E-02
-0.122155992583468
-0.108951061672218
-0.127906640387519
-0.065353545963504
-0.115582720060214
-9.63598773131611E-02
-0.090685762920096
-0.138243405996077
-7.53997228653944E-02
-0.092832085349795
-0.117851564770167
-0.105985761618306
-0.108191996698169
-0.104547028108387
-0.110416094561531
-6.92740796195817E-02
-8.46944342394726E-02
-7.95749019942551E-02
-7.99758911022885E-02
-8.37808895494116E-02
-8.22301815479508E-02
-8.91148513577868E-02
-0.05775509616628
-0.067987965112368
-0.072980929723477
-7.91951126663196E-02
-6.69961783631321E-02
-7.15951748776446E-02
-7.43604832436361E-02
-6.28365684691649E-02
-5.99733384498168E-02
-6.68054688543168E-02
-8.52161231047308E-02
-4.48385900488045E-02
-6.34555469361016E-02
-6.67577700066222E-02
-3.24924849613443E-02
-6.68766945406412E-02
-5.58964166417037E-02
-4.10712120727596E-02
-6.03353085051943E-02
-5.02017591327525E-02
-4.97010425585178E-02
-5.79270321449595E-02
-0.042766554637862
-0.034911759236475
-4.79175335806068E-02
-4.44719000316415E-02
-0.050209212747701
-3.71566283047554E-02
-3.11446923791612E-02
-3.79151314148205E-02
-0.034074363527844
-0.034537439345712
-2.53324543021816E-02
-3.48681762440535E-02
-2.67527431550274E-02
-1.82819790616205E-02
-2.46770842823325E-02
-0.027000250322046
-1.67873938315875E-02
-1.92759338147488E-02
-1.77512032211304E-02
-1.90372664262875E-02
-1.19927794636462E-02
-1.18396593861168E-02
-1.40876466697618E-02
-1.23199600632259E-02
-9.33945134821284E-03
-7.15899762320516E-03
-7.79807901872076E-03
-4.8179435498349E-03
-2.65915050458035E-03
-1.65611309201008E-03
1.58619346611435E-04
1.35536188270869E-03
3.67297172907878E-03
3.8277203686965E-03
5.5180701768744E-03
9.07467217917563E-03
9.15413112705546E-03
7.37328803539146E-03
1.25827253207756E-02
1.39078614237463E-02
0.01348142294412
1.97934610664962E-02
2.72766470308108E-02
2.41795687807194E-02
2.55813548876304E-02
2.82973970493585E-02
2.25363745506645E-02
0.028784613330021
3.05711053008588E-02
2.61231336881652E-02
3.51442148373837E-02
2.61885660639622E-02
0.029506556896464
4.04027708451223E-02
4.44007710733827E-02
3.74975048926254E-02
0.048187250231451
4.22128709320602E-02
0.040193962810584
3.42486279618759E-02
0.054500190699616
3.65721194886534E-02
5.00309410854168E-02
4.63219367976806E-02
5.96407014722428E-02
5.46785616260592E-02
5.39534383375316E-02
0.067212144808216
7.75721595129936E-02
7.70717345140121E-02
4.97142196881142E-02
7.31561594394051E-02
0.069575434371179
0.061642634532226
6.17025431746615E-02
9.17522701319952E-02
6.30317831381568E-02
0.077862174066241
0.064234960777584
6.86601711447717E-02
0.074836433070238
9.58286461127175E-02
0.071214191962962
9.12106469131176E-02
0.089424608580955
7.70527469237296E-02
0.103468443567558
7.07884568422032E-02
0.096063959545285
9.58189523237279E-02
9.74291773913805E-02
9.71184463981796E-02
8.09403282095774E-02
0.132369806345387
0.110040259216325
0.086908015696704
0.107235843345658
0.102341430244872
0.125637662932983
0.116448687497117
0.111425168139409
0.156005157119393
0.12602802815722
0.130108118508368
0.108380421094626
0.08356513644536
0.17666632665648
0.11515532484804
9.68337233278544E-02
0.12325167691326
0.140026843268447
0.121185411517248
0.101775305485613
0.166433574578841
0.12568433105398
0.124419565789285
0.150604873137766
0.157817675393081
0.162443424197441
0.147302439724585
0.12603471924138
0.222952118358995
0.131764531566943
0.127256810109256
0.137626950749038
0.11487596312775
0.158813043311197
0.141992959198065
0.121635750517462
0.163804276556139
0.168652778918814
0.051427708733037
0.155829329806059
0.186790093301132
0.155524573428462
0.18036710105601
0.158558875580588
0.166802935218543
0.168380479163499
0.218502795283003
0.125966127724096
0.137786713294844
0.22804880684586
0.176163990892389
0.108819284849153
0.186590485026651
0.15501754834056
0.193522171883045
0.187720410736484
0.215806942800188
0.167960350161321
0.200193591736075
0.221248775339088
0.168222399740592
0.142071741718456
0.206782029207005
0.248517070083543
0.1696661608452
0.19142241165355
0.221590173839694
0.169555120268821
0.258443860217352
0.163782844954284
0.241117729031072
0.255815673241974
0.171754347175638
0.220679117767248
0.1961637531766
0.250191351728756
0.234398813175822
0.160300280555184
0.17494413216004
0.243956535854724
0.241050871358034
0.201580375057473
0.267457080027861
0.283337623822828
0.318000078669144
0.131835816901824
0.251245155324024
0.271961907210892
0.278627138323242
0.25139800285372
0.223856097251922
0.274333441640088
0.216956291518582
0.267962161051926
0.26967633726033
0.135707321367171
0.22760548041924
0.228978299390445
0.245858351654097
0.30402639441288
0.228105842665234
0.292115086252069
0.230901315066791
0.22178205157824
0.302819711489336
0.304587462228244
0.252637975062088
0.297341684603746
0.24477877097674
0.33369662526989
0.253105998971518
0.215842056209564
0.306079537904844
0.324717708282642
0.174500124244828
0.23778315160344
0.301768529748096
0.263329600501388
0.143907102491344
0.347286428199146
0.273608601149744
0.286745746574055
0.229443434526142
0.242545770814758
0.34497606070308
0.35276404588965
0.312572482695
0.338364957661936
0.309831046492673
0.341930682438236
0.386695920178414
0.314696828163011
0.3224685450193
0.386499632297836
0.275638454739458
0.296004618788396
dMdH Data
1.38352024712914E-04
4.6029521485755E-04
4.52401422486224E-04
5.07536416734983E-04
4.78043545517831E-04
4.76018884084308E-04
4.57654478188079E-04
4.58095312622262E-04
5.12315859189973E-04
4.57210799665435E-04
4.95240956235762E-04
4.84106868121039E-04
4.40015327778656E-04
5.16180506667486E-04
4.61433871452912E-04
4.63845588919805E-04
5.02665396082583E-04
4.56748361797627E-04
5.02382355678268E-04
4.57216332528605E-04
4.88187666718965E-04
4.7983512873101E-04
4.47395612445536E-04
5.40242996056739E-04
4.46707666419597E-04
4.66081029679358E-04
5.0677855781301E-04
4.82728709133519E-04
4.69598844899478E-04
4.96587329366465E-04
4.80054636453534E-04
4.95725461074429E-04
4.50147154187652E-04
4.92855909917042E-04
4.71089020771516E-04
4.74205388754446E-04
5.04602231445251E-04
4.83432104112929E-04
4.84076246640949E-04
4.67023346303491E-04
5.12132006714996E-04
4.7806452918791E-04
4.5722868795386E-04
5.18842775822694E-04
4.77487640764919E-04
4.77729293175888E-04
5.02938814993952E-04
4.75736944952603E-04
4.85716875113288E-04
4.83790945536322E-04
4.95854733323209E-04
5.01736638003701E-04
4.55890421971879E-04
5.14205423342143E-04
4.81467539346263E-04
4.83903647711932E-04
4.92832781424131E-04
4.72632109976035E-04
5.28116904401902E-04
4.49127056407078E-04
5.11257941011136E-04
4.83854117019048E-04
4.92335825256403E-04
5.02209966593532E-04
4.78517858769467E-04
4.9899930737184E-04
5.01399628070875E-04
4.66545760864175E-04
5.41482902537828E-04
4.67852697410369E-04
4.75952673632446E-04
4.97712081780908E-04
4.89947309894731E-04
4.88597766101237E-04
4.90887262192924E-04
5.10322921632435E-04
4.81100041956545E-04
4.83545329093426E-04
5.29569576989198E-04
4.7556407148164E-04
5.01038065919277E-04
5.11287339837338E-04
4.76869621725869E-04
5.06475743760307E-04
4.84877382858151E-04
5.21795562421861E-04
4.89068946071884E-04
4.6801054825233E-04
5.35254501776075E-04
4.79910171518136E-04
4.8038962970307E-04
5.21444747986636E-04
4.73179593278501E-04
5.20416776063088E-04
5.02454283932485E-04
4.87960296935366E-04
4.81038443865832E-04
5.103476069501E-04
5.12800808493184E-04
4.88975195432935E-04
5.24732578989671E-04
4.86154152964301E-04
4.79861292268564E-04
5.22416744152987E-04
4.82697176231906E-04
5.41776363343905E-04
4.89560664107239E-04
4.93840253785699E-04
5.01435768578673E-04
4.96034487412633E-04
5.18096773167763E-04
5.06711641277145E-04
5.01995383107229E-04
5.0903940689625E-04
4.9773935460403E-04
5.23997722270952E-04
4.76796103368962E-04
5.04148783685633E-04
5.36451354207324E-04
4.79066568242494E-04
5.18151124800792E-04
5.12112868475736E-04
5.00623313045912E-04
5.06474709773537E-04
5.134015743377E-04
5.12170506362792E-04
4.98530758172291E-04
5.14733211050457E-04
5.13978705920184E-04
4.91572158126405E-04
5.21939906068157E-04
5.09584367803237E-04
5.12750172894361E-04
5.02911028949409E-04
5.02894476171128E-04
5.48938964611465E-04
4.80439329303256E-04
5.2026153138252E-04
5.11536756446044E-04
5.1214882982446E-04
5.10246918920695E-04
5.09757209326332E-04
5.34151183252238E-04
5.01749862593328E-04
5.00495435363226E-04
5.51764383798507E-04
4.84990652754305E-04
5.12050022861339E-04
5.3573431555333E-04
4.94281327719247E-04
5.36339737148988E-04
5.08534459562225E-04
5.1251515164313E-04
5.10016380936154E-04
5.09737793904952E-04
5.49449002886148E-04
5.07750129575047E-04
5.1248098756112E-04
5.23731033102794E-04
5.14156396238974E-04
5.21098499711763E-04
5.2538360986618E-04
5.08342406650964E-04
5.24802210345314E-04
5.36208748732469E-04
5.22994719392652E-04
5.05925915172832E-04
5.01909306393316E-04
5.67663405596904E-04
4.79318439125953E-04
5.69890036460831E-04
5.0851369090695E-04
5.29222132590422E-04
5.19044917549957E-04
4.97079583977568E-04
5.72293225109697E-04
5.08081003244134E-04
5.07982719481624E-04
5.39068323228943E-04
5.3763559046986E-04
5.34683346348751E-04
5.28943639153162E-04
5.15839941297854E-04
5.4673404648172E-04
5.06289304947355E-04
5.16637960314892E-04
5.21908970057396E-04
6.27708744487488E-04
4.94739797295641E-04
5.2014245455197E-04
5.38245371355396E-04
5.27665859265066E-04
5.46659397659333E-04
5.40532243618646E-04
5.29322129187655E-04
5.3792677649371E-04
5.26959649221508E-04
5.62917768459999E-04
5.12264581684538E-04
5.56860533084875E-04
5.42941412112577E-04
5.02326780833133E-04
5.65890798026999E-04
5.41835595708237E-04
5.45805212668313E-04
5.33530040649675E-04
5.38432616804965E-04
5.6836038309554E-04
5.27559147778263E-04
5.60915985483175E-04
5.35856733939563E-04
5.37655196543357E-04
5.66693552767646E-04
5.43376952234158E-04
5.30320829019752E-04
5.71174959909817E-04
5.28154513680624E-04
5.57950440126481E-04
5.55129006542331E-04
5.31370260108124E-04
5.58848958522237E-04
5.57159073725167E-04
5.39288641482849E-04
5.65386701613795E-04
5.4203372527078E-04
5.43733459053455E-04
5.40573101020893E-04
5.9468337601749E-04
5.33005944583564E-04
5.35429105602796E-04
5.60929650026481E-04
5.50711205776923E-04
5.64497900528788E-04
5.24766720065054E-04
5.50612364743175E-04
5.7529376847868E-04
5.43460039763902E-04
5.43712608123876E-04
5.39852915426372E-04
5.40510324200921E-04
5.739668635859E-04
5.39172530777771E-04
5.47987903205031E-04
5.29335261088682E-04
5.67673855666618E-04
5.63112039622697E-04
5.19019754879672E-04
5.48563346685693E-04
5.58004088677698E-04
5.56348733126177E-04
5.39255840213151E-04
5.33398579408975E-04
5.47159998052202E-04
5.41852151190755E-04
5.33706633861468E-04
5.64886574480594E-04
5.31267997920413E-04
5.41945806653291E-04
5.36568266582161E-04
5.5043977502046E-04
5.72194273306933E-04
5.02479042435373E-04
5.77869004871716E-04
5.22496571576653E-04
5.41122901292655E-04
5.44426033020125E-04
5.39030911403059E-04
5.56617877205418E-04
5.38276558933421E-04
5.30080035503166E-04
5.30149719889926E-04
5.45268495054075E-04
5.55590655538488E-04
5.32920602589505E-04
5.473351458195E-04
5.49305864286811E-04
5.0996453918445E-04
5.6879687024095E-04
5.41200263758885E-04
5.36302584452039E-04
5.23807502047764E-04
5.34113238854019E-04
5.47563409931668E-04
5.50752765260141E-04
5.31143680602843E-04
5.49264508910979E-04
5.2993637809589E-04
5.43876105399819E-04
5.29506377615133E-04
5.46338550864066E-04
5.45947099529192E-04
5.16604884862062E-04
5.69123618168109E-04
5.12381378439212E-04
5.39770192979475E-04
5.4299053748199E-04
5.34521919411143E-04
5.64184764131688E-04
5.33688889231928E-04
5.22379332770507E-04
5.42453836599857E-04
5.26635419538648E-04
5.61872779751327E-04
5.35196769340412E-04
5.31382516090382E-04
5.57251277815062E-04
5.20788271812413E-04
5.44027603385086E-04
5.27323502467572E-04
5.23209171913507E-04
5.49190465482346E-04
5.34752515732677E-04
5.39304156266736E-04
5.3323807430205E-04
5.14365987071108E-04
5.63281764647164E-04
5.36658277889292E-04
5.39460340816446E-04
5.3554764490568E-04
5.14735445480866E-04
5.51302424721545E-04
5.24456704768325E-04
5.5683045685279E-04
5.33190880298843E-04
5.13186417989469E-04
5.48571371997699E-04
5.35534241129116E-04
5.40193578755371E-04
5.33263893143795E-04
5.40616686695647E-04
5.3572897357198E-04
5.1571526790171E-04
5.61066005847388E-04
5.18560763771211E-04
5.32845303324882E-04
5.33949984626435E-04
5.51016398621762E-04
5.12008464672613E-04
5.35844624943867E-04
5.37379172174485E-04
5.57784848484842E-04
5.12534210708336E-04
5.11149662415584E-04
5.59302233329383E-04
5.25271677216744E-04
5.4119315610007E-04
5.2208984686553E-04
5.2523842851323E-04
5.52025888480388E-04
5.27985761019799E-04
5.25038284839195E-04
5.32328365923001E-04
5.25410686766819E-04
5.26960698006526E-04
5.30943296399173E-04
5.33974352675279E-04
5.39585084356613E-04
5.37361660079057E-04
5.2243086934791E-04
5.1765012592476E-04
5.4115494847247E-04
5.27770603194796E-04
5.30806417711756E-04
5.37327789188915E-04
5.15581693713468E-04
5.29213208229609E-04
5.37195333590434E-04
5.24084917244262E-04
5.48860789458089E-04
5.28259810884303E-04
5.20655693748332E-04
5.28804609681512E-04
5.28005715452129E-04
5.37108264383601E-04
5.2281929373874E-04
5.24592560562547E-04
5.42149323762067E-04
5.20603312685681E-04
5.3039448693864E-04
5.29598957288947E-04
5.16170832616826E-04
5.37162244601074E-04
5.27862316151132E-04
5.26329223753491E-04
5.3023301543605E-04
5.33292881909041E-04
5.38481201092969E-04
5.27891914688512E-04
5.18240801659997E-04
5.31304382855319E-04
5.28164223667301E-04
5.4444242527899E-04
5.11922808560272E-04
5.28092889220756E-04
5.29516183493324E-04
5.43496105872224E-04
5.27997949243785E-04
5.21889735401001E-04
5.18170476497106E-04
5.24811234550088E-04
5.56181119861408E-04
1.76387846961732E-03
2.9464496850614E-04
4.65017888302894E-04
4.61530213379868E-04
4.74480317578267E-04
4.73359353726062E-04
4.64377308419735E-04
4.81351290592868E-04
4.55610696217788E-04
4.64271387280256E-04
5.00437268752106E-04
0.000449234393404
4.87101981226154E-04
4.7503481624759E-04
4.76619082019916E-04
4.58694461827293E-04
4.91758584598047E-04
4.78818962284227E-04
4.73382904004238E-04
4.70919807404938E-04
4.8057772118928E-04
4.66711417464832E-04
4.98544340753342E-04
4.6625432856904E-04
4.70380489171777E-04
4.94862855420456E-04
4.55464085219501E-04
4.94027230987397E-04
4.87960761924538E-04
4.57044718081661E-04
5.12290911162171E-04
4.62337527941043E-04
4.73554217473046E-04
4.86533428984242E-04
4.64652558996607E-04
5.03155601800983E-04
4.77765892720447E-04
4.9683282249826E-04
4.71714972071407E-04
4.66300213467886E-04
5.07673341752357E-04
4.8024305729924E-04
4.75282564200813E-04
4.97813680652226E-04
4.64292014995688E-04
5.03496869526695E-04
4.80778763892215E-04
4.80091743119281E-04
4.7968235939212E-04
4.76172522540748E-04
5.10862264283347E-04
4.59503619040216E-04
5.03031822645692E-04
4.70589267436766E-04
4.95256325234637E-04
5.03900147989797E-04
4.77312840945045E-04
5.18158598482791E-04
4.72743819924906E-04
4.86371046966112E-04
4.99131605651395E-04
4.80187073146588E-04
4.90178598532763E-04
4.91181641990853E-04
4.63229930624381E-04
5.21529332046563E-04
4.81953068148523E-04
5.04036667910265E-04
4.83368835466633E-04
4.84605232838249E-04
4.96764306537286E-04
4.78066171717373E-04
5.12656659137696E-04
4.98122420977224E-04
4.68381016219297E-04
5.08833133181812E-04
4.88026845897566E-04
4.99215915862542E-04
4.75053666913869E-04
5.06444384422234E-04
5.0314942996742E-04
4.84829094992403E-04
4.9327962864666E-04
5.0585544373285E-04
4.85234803821917E-04
5.01562925392999E-04
4.87557617509718E-04
5.02862896254348E-04
4.97081407449764E-04
5.00261331414781E-04
5.00082368284294E-04
4.8751155303223E-04
4.88754156662213E-04
5.15328645614305E-04
4.86695385965443E-04
5.17939668849918E-04
4.85389269463475E-04
5.00950820660749E-04
4.94210656753413E-04
5.01003153892253E-04
5.19870653341878E-04
4.84764381549909E-04
4.93865686802309E-04
5.100861086072E-04
4.93074539064246E-04
4.98929020535138E-04
5.03591931486648E-04
5.19902107131185E-04
4.96634619190488E-04
4.81590656014317E-04
5.31660712429712E-04
4.82015717238274E-04
5.09172169510482E-04
5.14661677352993E-04
4.86852331345411E-04
5.28444775420576E-04
4.8054360540808E-04
5.19053825936447E-04
5.06050605060505E-04
4.94826434044113E-04
5.26987542621031E-04
4.88574440423758E-04
5.02519586227151E-04
5.16992076351376E-04
5.00337995208455E-04
5.33634900371867E-04
4.85111664989184E-04
5.05160635003852E-04
5.17485617647823E-04
5.10044236572305E-04
5.11971215869639E-04
5.08990022734726E-04
4.92488700293936E-04
5.10775375173613E-04
5.18660305868031E-04
5.07460502627776E-04
5.10834501061462E-04
5.01095608776326E-04
5.24744597996561E-04
5.13271230746412E-04
5.12363068215895E-04
5.10047633148952E-04
5.02482673434373E-04
5.23509855141298E-04
5.16850655224207E-04
5.01506663801595E-04
5.35172670308732E-04
4.81223075951623E-04
5.52969608485067E-04
4.79282305180332E-04
5.23519353702471E-04
5.36725839455169E-04
5.04521846205662E-04
5.25006828553684E-04
5.02769908390532E-04
5.32821151951629E-04
5.08078473057628E-04
5.08673292464556E-04
5.39829998833151E-04
5.12251215834306E-04
5.1534774951341E-04
5.24794423927417E-04
5.18648630329326E-04
5.29739424190085E-04
5.08713334518956E-04
5.21801328067987E-04
5.22485231898905E-04
5.17134945251608E-04
5.27892902213445E-04
5.12004750830858E-04
5.47549415545491E-04
5.17856245717051E-04
5.09210803667703E-04
5.48003438816082E-04
5.09104240135836E-04
5.34442564134632E-04
5.25171969156001E-04
5.20619486465155E-04
5.3827804162494E-04
5.22970864531477E-04
5.30526458873103E-04
5.30565126168877E-04
5.17406963978871E-04
5.66807404477239E-04
4.78908450047557E-04
5.76566068602142E-04
5.16214757132244E-04
5.21441192040074E-04
5.51426348446068E-04
5.1992044917603E-04
5.41528683681102E-04
5.26897756183491E-04
5.39668059881695E-04
5.411480568699E-04
5.13044121671558E-04
5.69176999694235E-04
5.28588951422067E-04
5.28663190582668E-04
5.43963856424825E-04
5.33717986955551E-04
5.49683426582203E-04
5.24627916922216E-04
5.50370036330418E-04
5.44660607155812E-04
5.22666393499227E-04
5.74877762714015E-04
5.58376219444096E-04
4.50553581197927E-04
6.58981151684937E-04
5.35951380473428E-04
5.27439279722405E-04
5.34448929718701E-04
5.5591121154461E-04
5.46531046191493E-04
5.30309735835822E-04
5.71398410191934E-04
5.38027095499829E-04
5.46176942376506E-04
5.58772868779254E-04
5.57450483183074E-04
5.33058650978997E-04
5.50988890018616E-04
5.44432232668809E-04
5.71452412093039E-04
5.33834503792946E-04
5.53189775862104E-04
5.48045324086876E-04
5.65742606273164E-04
5.46554942289995E-04
5.41119322029247E-04
5.55561808115197E-04
5.37997948451395E-04
5.66882793990034E-04
5.48527640919502E-04
5.37475985958702E-04
5.64557651568646E-04
5.39484931724201E-04
5.56993415062867E-04
5.44036835515431E-04
5.36421113457324E-04
5.59373203568144E-04
5.40833244573416E-04
5.51128831408482E-04
5.54867811376427E-04
5.42187733874916E-04
5.56801896460491E-04
5.3510339847773E-04
5.51161884612978E-04
5.50331037820425E-04
5.33446344686677E-04
5.53457114272318E-04
5.54534826452285E-04
5.5520300272794E-04
5.35707496234082E-04
5.37513056009503E-04
5.60181157152918E-04
5.15846075571797E-04
5.71167026570278E-04
5.40949171094516E-04
5.48451328105163E-04
5.41809219071244E-04
5.3780574081287E-04
5.35989710796163E-04
5.46966368911939E-04
5.39914470051187E-04
5.48778195488716E-04
5.23745486051342E-04
5.663519361486E-04
5.34531767657954E-04
5.33190969289804E-04
5.61791522293157E-04
5.22478576783065E-04
5.4952896861286E-04
5.46179638739957E-04
5.08479678388836E-04
5.58019574815305E-04
5.52492578584859E-04
5.48739405052552E-04
5.31684701604632E-04
5.23304891571295E-04
5.64492186810184E-04
5.23292880163853E-04
5.43153278039826E-04
5.33424085652278E-04
5.31467720146217E-04
5.60031790630069E-04
5.33535092414389E-04
5.48366695853002E-04
5.30408950870097E-04
5.30790037482663E-04
5.49030112413657E-04
5.41770646314976E-04
5.24893942361947E-04
5.5106989247857E-04
5.06617183601966E-04
5.70487120632499E-04
5.23532080077571E-04
5.39460703556082E-04
5.66362047272348E-04
5.15052520634014E-04
5.29873858216481E-04
5.51311020893155E-04
5.33332017526548E-04
5.50972135579117E-04
5.06842554712639E-04
5.44750884223011E-04
5.34170300491155E-04
5.59614764248627E-04
5.19882301828664E-04
5.26563494589436E-04
5.47016999948324E-04
5.41471343188508E-04
5.20501780069524E-04
5.33290178660345E-04
5.52018602810216E-04
5.24692535617155E-04
5.39662172816147E-04
5.23005283331605E-04
5.45855444087233E-04
5.26360735359043E-04
5.44377751508234E-04
5.25117517408186E-04
5.37475792452259E-04
5.49825421897079E-04
5.2378965715451E-04
5.28920084798513E-04
5.32075943792776E-04
5.33285983887664E-04
5.42278699530064E-04
5.11845156748253E-04
5.40816975916323E-04
5.53591373373572E-04
5.13938446447179E-04
5.43836684618749E-04
5.31411931251368E-04
5.28957374845054E-04
5.168146764382E-04
5.28600806770547E-04
5.5315965517604E-04
5.18328496142983E-04
5.48444069761311E-04
5.28063999691383E-04
5.1956880606218E-04
5.52100207982773E-04
5.32936158818791E-04
5.30084044314299E-04
5.17759311723616E-04
5.22217302932118E-04
5.19123046155993E-04
5.35323170913121E-04
5.43733930839375E-04
5.36651966940212E-04
5.23182996371187E-04
5.26652564780535E-04
5.35757700729569E-04
5.233898675352E-04
5.37472824163492E-04
5.34236615994714E-04
5.21031166060981E-04
5.40810412425917E-04
5.17008971834085E-04
5.21164131153735E-04
5.24648878568997E-04
5.4967634905449E-04
5.24024309370402E-04
5.23384061197227E-04
5.34524975989283E-04
5.35176566120707E-04
5.24042886868458E-04
5.23814547975765E-04
5.25630407529955E-04
5.31968855556183E-04
5.37506299560844E-04
5.28013526454396E-04
5.11453351946992E-04
5.27533633216566E-04
5.21244472280748E-04
5.2997609678193E-04
5.17948969001518E-04
5.4208429874291E-04
5.35618332267186E-04
5.0726108650782E-04
5.22299139920273E-04
5.32471382140172E-04
5.32620638610618E-04
5.30950683424664E-04
5.2407784986097E-04
5.13723296838194E-04
5.37562939557636E-04
5.15580423754107E-04
5.21437444000978E-04
5.44321685757091E-04
5.08947286901751E-04
5.31439371450062E-04
5.27465443197719E-04
5.27187883918515E-04
5.23656040006253E-04
5.21223626065852E-04
5.2529071976894E-04
5.2529071976894E-04
dMdT Data
-1.71683333333328E-02
7.60883333333322E-02
-0.154353333332597
0
0.494449999997633
0
-7.60766666666647E-02
-0.234159999998879
0
7.83491666666643E-02
0
-0.122716250000288
-0.447829999997858
0
-0.230093999998901
0
0.133191249999365
0.221306000002086
0
-9.58298000000868E-02
0
0.160651999999235
-9.28328000000823E-02
0
8.91968000000804E-02
0
-0.181671666665798
-0.227609000002151
0
0.255375000002412
0
-0.487312999997676
7.52008333333298E-02
0
-0.119067750000278
0
0.506988999997579
-0.122770000000284
0
0
0.500312000011834
0.236182999998873
-0.114913000000269
0
9.52330000000867E-02
-0.234834999998881
-0.519912999997514
0.457696999997821
0
0
0
0
-0.113413000000264
0
-0.509045999997582
0
-0.248540499998818
-0.487175000011513
0
4.63562000000422E-02
0
-0.126898000000296
0
0
0.472790000011181
0
0.512279999997558
9.41536000000849E-02
0
-0.154106000000725
0
0
0.235720999998876
0
-0.504960999997587
0
0.164355000000773
-0.483554999997702
-0.257204000002424
0
-0.158957666665904
0.541892999997414
0
0
-0.493706999997639
0
-0.247173000002332
-0.157951999999246
0.130342500000304
-0.238810500002252
0
0
-0.156283333332587
0.535180999997447
0.499529999997613
0
-0.502511999997604
0.250103499998804
0
-0.491644999997651
0
-0.492426999997645
0
0
0.163527666665887
0.532162000012587
-0.243178000002295
0
-0.172818333332508
7.08797142856631E-02
-0.173789000000817
0
0.238119000002245
-0.521686999997509
0.503541999997598
-0.255358500002407
0.163278666667434
0
0
-0.237851999998865
0
6.69108749999185E-02
0
-0.167268000000787
-0.173705999999171
0
-0.252108499998797
0
0.172628999999176
0.160331666667419
0
-0.170085333334133
0.163112666667435
-6.40833750001487E-02
0.171600000000807
0
0.121517999999421
0
-0.544624999997399
-0.122574499999415
0
-0.266719500002519
0
0.166450666667447
0
0
0.487208999997676
0
0.565503999997298
0.236307499998873
-0.106332999999492
-0.260808000002462
0.121349750000282
-0.175600000000825
0.259742500002451
0
0.255197499998782
0
-0.176239333332492
0.124758249999404
0
-0.176310333332491
0
0.267820999998721
0
0
-0.48791899999767
0
-0.523958999997496
0
-0.294238500002777
-0.241722999998847
0
0
0.258801999998765
-0.185293666665782
8.37108333333299E-02
-0.171635000000806
0.270484000002553
0
-0.107220800000097
0.108392400000099
0
-0.13731950000032
0.123275750000287
-0.257062000002425
-0.631691999996983
0
0
0
-0.271442899998704
0.263560099998741
0
0.555171099997349
0
-0.177505866665819
0
0
0.166758633332537
0
0.272845450002575
0.495588699997634
0
0.548531599997381
0
-0.531132409997464
0.268380310998719
0
0
0
0.536938199997436
0
0
0.552775200013071
0
0.287794499998626
0.25976064999876
0
-0.08925003333333
0
-0.570102499997278
0
0
0
0
0
0.543382999997405
0.583293999997216
-0.131220999999373
0
0.296040999998587
0.176677333334163
-0.182477333334191
0.536902999997436
0
-0.304323499998548
0.131136500000305
-0.264190500002494
7.92797142856578E-02
0
-0.194218333332406
-0.267634999998723
-0.531825000012576
0.55027100001301
0.285521499998637
0
0.52740399999748
0
0
0
0
-0.537381999997434
0
0.1092802000001
-0.132104000000308
0
-0.511957999997555
0
0.275145499998685
0
0.276440500002609
0.509969999997563
0
-0.134589500000314
0
0.560515999997328
-0.533652999997447
0
0
0
-0.264118999998739
0.110036600000101
0
-0.181228000000852
0
-0.565895999997301
0.127452250000297
-0.184258333334199
0
0
0
0.182838000000859
-0.18753700000088
0.537754999997433
0
-0.139427499999333
0.177250999999155
0
-0.136951000000319
0.129476500000301
0
0.267785499998724
-0.09330383333333
0
0.136747000000318
0
-0.550447999997374
0
0
0.51728299999753
0
0.573031999997265
0
0.180240000000847
-9.16439999999972E-02
0.539669999997422
-0.263409499998741
0
0
0.524354999997493
0.537294999997435
0.536190999997438
0
-0.266826999998727
0
0
0.52671399999749
0
0
0.512099999997556
-0.275455499998682
0.132370249999369
0
-0.175085666665831
0
0
0
0
-0.522203999997505
-0.526338999997487
0
0.547570999997382
0
-0.267777000002524
-0.271319499998703
0
0
0
0.114525000000106
0.260177499998758
0
-0.259370499998763
0
-0.187992666667552
0.176748666667497
0
-0.5236769999975
0
-0.576579999997254
0.53098999999746
0
-0.556181999997347
0
0.179577666665809
0
0
0.26321499999874
-0.181269999999136
0
0.263090499998744
-0.177487999999151
0.132818749999369
-0.176777999999154
0
0.105289000000096
-0.165823666667446
0.278589500002631
-0.103289800000094
0.278233999998667
-0.520673999997513
0
-0.268894499998715
-0.543207000012849
0
0.136356500000318
0
-0.270377999998711
-0.134052750000311
0.102210200000093
-0.176074000000826
0
0.286170500002702
0.165929999999207
-0.104337400000093
0.179766666667514
0
0
0
0
0.527563999997489
0.18220433333419
0
-0.535589000012668
0
-0.548869999997372
-0.54291999999741
0
0.173766666667479
0
-0.545620000012899
-0.488009999997667
-9.40499999995539E-02
-6.85299999996734E-02
0.159006666665906
-0.118367500000277
0.242635000002287
-0.469349999997766
0.23448499999888
-0.117765000000273
0.236405000002233
0.225679999998921
-0.252925999998793
0
0
0.24559299999883
0
-0.156372000000737
0.488631000011558
0
0.482575999997694
0.151271999999276
-8.24086666666646E-02
9.31668000000844E-02
0
-0.237647499998866
0
0
-0.45920799999781
0
-0.156692333334069
0.114598250000267
0
-0.223383000002102
0
0.481527000011382
-0.469011000011096
0.258705000002439
-9.73706000000876E-02
0
9.66110000000899E-02
-0.160189666667419
0
-0.239076999998856
0.15712999999925
-0.500700999997615
-0.463186999997792
0
0.24052399999885
0
0.244945000002308
0
0
-7.89319999999962E-02
0
9.65508000000882E-02
-0.164296333334109
0
-0.51273899999755
0
-0.496068999997633
0.155129666665925
0
-0.161710999999227
0
0.163887666665885
0.233699500002209
0
-0.101993800000093
0
0
0.462671999997788
7.10827142856632E-02
0.488095999997677
-0.170984666665849
-0.123431000000288
9.22364000000848E-02
0
0.251958499998793
0
-0.486853999997684
0.126564250000294
-0.164764666667438
0.250421500002363
0
-0.262627500002479
0.238687000002254
0.165804999999209
0
0
0
-0.236413499998869
0
-0.47999899999771
0.486500999997677
-0.263469500002485
0.122015750000285
0
0.485364999997684
-0.124602749999404
0.24926749999881
-0.254957999998782
0
0.160865666665899
0
0
0
0
0.529748999997467
0
-0.2509454999988
0
0
-0.480198999997708
0
0.254168499998789
0.161202000000757
0
-0.12365300000029
0.161941333332559
-0.110767999999471
9.61137999995411E-02
0
-0.123169249999411
0
0.273448999998696
-0.165054666665878
0
0.097938999999532
0
0
-0.488983999997663
0
0.262166000002472
-0.159118666667416
0.520000999997516
-0.528379999997472
0
0.166113333334114
-0.169149666667462
0
0
0
0.168220000000789
0
0.537897999997434
0
0
-0.543880999997399
0.240061499998853
0
-0.47318199999774
0.265300499998734
-0.284465499998641
-9.58758000000876E-02
0
7.57291428570887E-02
-0.167302999999202
0.533425999997453
0.250838499998802
0
0.512952999997551
0
0.542405999997409
-0.107124799999489
0
0.260301999998758
0
-0.268042499998721
7.33118571428043E-02
0
-0.130834750000305
0
-0.515383999997536
0
0
0.1286287500003
0
-0.255571000002411
0
-0.285672499998636
-0.256751499998774
0.103037999999508
0
0
-0.561687999997317
0.256795500002424
0
-0.172753333334146
0
-0.281367499998657
0.516058999997535
0
0
0
0.537346599997435
0.17865980000084
0
-0.105924680000096
0
0
8.54535833333302E-02
-0.270928000002557
0.558616000013209
-0.521989600012343
0
-0.182151433332464
9.24250333333298E-02
-0.503471699997596
0
-0.13152971200012
0.155147419999259
0
0.545868500012908
0.537275399997435
-0.562379899997315
0.532268699997458
0
-0.551301299997368
0
-0.197496966667595
0
0.52772379999748
-0.281793349998655
0.265761599998731
-0.576298899997248
-0.259743049998759
0
0
0
0
0.184062999999121
0
0.54650799999739
0
-0.136884249999347
0
0
0.136005499999351
-0.273466499998695
-0.563125999997308
-0.523568999997502
0.111318400000102
-0.179411333334176
0.182785000000859
-0.555881000013146
0.554214000013103
0
-0.18082000000085
0
0
0.260559999998756
0
-0.55733799999734
0
0.111027200000101
0
-0.092499166666663
-0.265636999998731
0
9.15933333333295E-02
0
0.134531499999358
-0.135312999999354
0
0.270554999998709
-0.273271499998695
0.543026999997409
-0.183566333334197
0
-0.572606999997262
0.259796500002454
0
0
0
-0.274390000002589
0.523639999997499
0
0.565043000013356
-0.172771333334147
0.182879333334192
-0.133440000000311
0
0.133626500000312
0
0
-0.180180666667513
0.134940500000314
-0.187401000000882
0.262725500002477
-0.267110500002521
-0.534150999997453
-0.273626999998692
0.264642499998739
0.538589999997427
-0.5436309999974
0.516823999997531
0.559219999997336
-0.127820749999388
0.185009666665785
0
0
-0.534150999997453
0.55676899999734
0.540435999997418
-0.176641666665823
0.255215499998784
0
-0.281136499998655
0
0.526515999997484
0.176476000000829
0
-0.577999000013671
0
0.178499333334173
-0.557869999997338
0
-0.273803000002583
0
0.140923500000329
-0.174842999999164
0
0
-0.178547666667504
0
0.188323333334218
0
-0.106325800000095
0
-0.188478000000887
0.123595250000289
0
0
-0.502970999997589
0
0
0
0.269738499998717
0.267323999998723
0.262123000002469
-0.108583600000099
0.17348199999917
0
-0.261233999998759
0
-0.139325500000324
0.124882500000294
0
-0.259494999998759
0
0
0
0.275632499998682
0
0
-0.545620999997405
0
-0.265761499998727
0.533477999997457
0
0.539333999997427
0
0.275773999998683
-0.102129200000091
7.71541428574008E-02
-0.132356750000312
0
0.110196600000098
0
0.102250200000094
-7.44707142859622E-02
7.30761428573885E-02
-0.185838000000872
0.52261199999751
0
-0.172190999999175
0
0.183092333332459
-0.253866499998786
-0.264500999998737
0.183269666665791
0
0
0
0.279326499998669
0.510927000012076
0
-0.268603000002534
0
0.527402999997477
0
-0.256067499998776
9.38546666666625E-02
0
-5.96735555554581E-02
0.107838199999487
0.510650000012077
-0.13403500000031
0
0.552899999997355
0.552899999997355
 
*********************************************** Results ***************************************
 
TotalArea 1.91257874407415
AreaFirstQuad 0.946790363587977
AreaSecondQuad 1.05900449243656E-02
AreaThirdQuad 0.938003213297921
AreaFourthQuad 1.71951222638906E-02
Coercivity 7.15078294167307
PositiveCoercivity 7.97386198134504
NegativeCoercivity -6.32770390200111
Retentivity 3.85860598835189E-03
PositiveRetentivity 3.40570334083087E-03
NegativeRetentivity -4.31150863587291E-03
Magnetization 0.10399815
PositiveMagnetization 0.10358833
NegativeMagnetization -0.10440797
Flatness 0.865396702002663
Squareness 0.037102640656126
SStar -2.17941526916718E-03
SFD1 0.5048185192775
SFD2 55.5805550583542
Slope 0
Intercept 0
SlopeAtHc 5.38432616804965E-04
dH1 3.54093528538287
dH2 397.444485
InitialSlope 1.38352024712914E-04
FieldAtHalfMs 0
FieldAtMs 199.92337
MomentMean -6.473671383046E-04
MomentRMS 6.07513146544419E-02
SFD3 8.68705543856335E-03
dH3 7.08866369382963
UserField1 0
UserField2 0
CenterField 0
ExchangeField 0
ExchangeMoment 0
ExRegionOneIntercept 0
ExRegionOneSlope 0
ExRegionTwoIntercept 0
ExRegionTwoSlope 0
NegativeIntercept 0
NegativeSlope 0
AutoCenterOffset 0
PinningField 0
PinningMoment 0
PinRegionOneIntercept 0
PinRegionOneSlope 0
PinRegionTwoIntercept 0
PinRegionTwoSlope 0
PositiveIntercept 0
PositiveSlope 0
TotalOffset 0
BHMax 0
BCoercivity 0
BRetentivity 0
BNegativeCoercivity 0
BPositiveCoercivity 0
BNegativeRetentivity 0
BPositiveRetentivity 0
MomentYMean 1.55052442370787E-03
MomentYRMS 3.03827665780382E-04
YOffCorrection 0
Mrt 0
Ms1 0
Ms2 0
Ms3 0
Hc2 0
Hex2 0
HsatValue 0
HsatIntercept 0
HsatSlope 0
CenterH 0
Span .2079963
SpanAsPercentOfRange -46.2214
RMSAsPercentOfRange -13.5002921454315
SpanAsPercentOfMean -32129.5734202271
RMSAsPercentOfMean -9384.36801310992
